^C:\USERS\ALEXM\DOCUMENTS\GAME DEVELOPMENT - ADVANCED PROGRAMMING 2017\NETWORK PROGRAMMING\ASSIGNMENT 1\NETWORK-PROGRAMMING-ASSIGNMENT-1\ASSIGNMENT 1\CLIENTAPP\BUFFER.CPP
/c /ZI /nologo /W3 /WX- /diagnostics:classic /sdl /Od /Oy- /D _MBCS /Gm /EHsc /RTC1 /MDd /GS /fp:precise /Zc:wchar_t /Zc:forScope /Zc:inline /Fo"DEBUG\\" /Fd"DEBUG\VC141.PDB" /Gd /TP /analyze- C:\USERS\ALEXM\DOCUMENTS\GAME DEVELOPMENT - ADVANCED PROGRAMMING 2017\NETWORK PROGRAMMING\ASSIGNMENT 1\NETWORK-PROGRAMMING-ASSIGNMENT-1\ASSIGNMENT 1\CLIENTAPP\BUFFER.CPP
^C:\USERS\ALEXM\DOCUMENTS\GAME DEVELOPMENT - ADVANCED PROGRAMMING 2017\NETWORK PROGRAMMING\ASSIGNMENT 1\NETWORK-PROGRAMMING-ASSIGNMENT-1\ASSIGNMENT 1\CLIENTAPP\CLIENTMAIN.CPP
/c /ZI /nologo /W3 /WX- /diagnostics:classic /sdl /Od /Oy- /D _MBCS /Gm /EHsc /RTC1 /MDd /GS /fp:precise /Zc:wchar_t /Zc:forScope /Zc:inline /Fo"DEBUG\\" /Fd"DEBUG\VC141.PDB" /Gd /TP /analyze- C:\USERS\ALEXM\DOCUMENTS\GAME DEVELOPMENT - ADVANCED PROGRAMMING 2017\NETWORK PROGRAMMING\ASSIGNMENT 1\NETWORK-PROGRAMMING-ASSIGNMENT-1\ASSIGNMENT 1\CLIENTAPP\CLIENTMAIN.CPP
^F:\FANSHAWE\TERM 1\NETWORK PROGRAMMING\NETWORK-PROGRAMMING-ASSIGNMENT-1\ASSIGNMENT 1\CLIENTAPP\BUFFER.CPP
/c /ZI /nologo /W3 /WX- /diagnostics:classic /sdl /Od /Oy- /D _MBCS /Gm /EHsc /RTC1 /MDd /GS /fp:precise /Zc:wchar_t /Zc:forScope /Zc:inline /Fo"DEBUG\\" /Fd"DEBUG\VC141.PDB" /Gd /TP /analyze- F:\FANSHAWE\TERM 1\NETWORK PROGRAMMING\NETWORK-PROGRAMMING-ASSIGNMENT-1\ASSIGNMENT 1\CLIENTAPP\BUFFER.CPP
^F:\FANSHAWE\TERM 1\NETWORK PROGRAMMING\NETWORK-PROGRAMMING-ASSIGNMENT-1\ASSIGNMENT 1\CLIENTAPP\CLIENTMAIN.CPP
/c /ZI /nologo /W3 /WX- /diagnostics:classic /sdl /Od /Oy- /D _MBCS /Gm /EHsc /RTC1 /MDd /GS /fp:precise /Zc:wchar_t /Zc:forScope /Zc:inline /Fo"DEBUG\\" /Fd"DEBUG\VC141.PDB" /Gd /TP /analyze- F:\FANSHAWE\TERM 1\NETWORK PROGRAMMING\NETWORK-PROGRAMMING-ASSIGNMENT-1\ASSIGNMENT 1\CLIENTAPP\CLIENTMAIN.CPP
