^F:\FANSHAWE\PORTFOLIO\FIRSTOPENGL (32BIT, DAY 7B)\FIRSTOPENGL\CGAMEOBJECT.CPP|F:\FANSHAWE\PORTFOLIO\FIRSTOPENGL (32BIT, DAY 7B)\FIRSTOPENGL\CMESH.CPP|F:\FANSHAWE\PORTFOLIO\FIRSTOPENGL (32BIT, DAY 7B)\FIRSTOPENGL\CSHADER.CPP|F:\FANSHAWE\PORTFOLIO\FIRSTOPENGL (32BIT, DAY 7B)\FIRSTOPENGL\CSHADERMANAGER.CPP|F:\FANSHAWE\PORTFOLIO\FIRSTOPENGL (32BIT, DAY 7B)\FIRSTOPENGL\CTRIANGLE.CPP|F:\FANSHAWE\PORTFOLIO\FIRSTOPENGL (32BIT, DAY 7B)\FIRSTOPENGL\CVAOMESHMANAGER.CPP|F:\FANSHAWE\PORTFOLIO\FIRSTOPENGL (32BIT, DAY 7B)\FIRSTOPENGL\CVERTEX_XYZ_RGB.CPP|F:\FANSHAWE\PORTFOLIO\FIRSTOPENGL (32BIT, DAY 7B)\FIRSTOPENGL\MODELUTILITIES.CPP|F:\FANSHAWE\PORTFOLIO\FIRSTOPENGL (32BIT, DAY 7B)\FIRSTOPENGL\THEMAIN.CPP|F:\FANSHAWE\PORTFOLIO\FIRSTOPENGL (32BIT, DAY 7B)\FIRSTOPENGL\UTILITIES.CPP
F:\FANSHAWE\PORTFOLIO\FIRSTOPENGL (32BIT, DAY 7B)\FIRSTOPENGL\X64\DEBUG\VC141.PDB
F:\FANSHAWE\PORTFOLIO\FIRSTOPENGL (32BIT, DAY 7B)\FIRSTOPENGL\X64\DEBUG\VC141.IDB
F:\FANSHAWE\PORTFOLIO\FIRSTOPENGL (32BIT, DAY 7B)\FIRSTOPENGL\X64\DEBUG\CGAMEOBJECT.OBJ
F:\FANSHAWE\PORTFOLIO\FIRSTOPENGL (32BIT, DAY 7B)\FIRSTOPENGL\X64\DEBUG\CMESH.OBJ
F:\FANSHAWE\PORTFOLIO\FIRSTOPENGL (32BIT, DAY 7B)\FIRSTOPENGL\X64\DEBUG\CSHADER.OBJ
F:\FANSHAWE\PORTFOLIO\FIRSTOPENGL (32BIT, DAY 7B)\FIRSTOPENGL\X64\DEBUG\CSHADERMANAGER.OBJ
F:\FANSHAWE\PORTFOLIO\FIRSTOPENGL (32BIT, DAY 7B)\FIRSTOPENGL\X64\DEBUG\CTRIANGLE.OBJ
F:\FANSHAWE\PORTFOLIO\FIRSTOPENGL (32BIT, DAY 7B)\FIRSTOPENGL\X64\DEBUG\CVAOMESHMANAGER.OBJ
F:\FANSHAWE\PORTFOLIO\FIRSTOPENGL (32BIT, DAY 7B)\FIRSTOPENGL\X64\DEBUG\CVERTEX_XYZ_RGB.OBJ
F:\FANSHAWE\PORTFOLIO\FIRSTOPENGL (32BIT, DAY 7B)\FIRSTOPENGL\X64\DEBUG\MODELUTILITIES.OBJ
F:\FANSHAWE\PORTFOLIO\FIRSTOPENGL (32BIT, DAY 7B)\FIRSTOPENGL\X64\DEBUG\THEMAIN.OBJ
F:\FANSHAWE\PORTFOLIO\FIRSTOPENGL (32BIT, DAY 7B)\FIRSTOPENGL\X64\DEBUG\UTILITIES.OBJ
^F:\FANSHAWE\PORTFOLIO\FIRSTOPENGL (32BIT, DAY 7B)\FIRSTOPENGL\CGAMEOBJECT.CPP
F:\FANSHAWE\PORTFOLIO\FIRSTOPENGL (32BIT, DAY 7B)\FIRSTOPENGL\X64\DEBUG\VC141.PDB
^F:\FANSHAWE\PORTFOLIO\FIRSTOPENGL (32BIT, DAY 7B)\FIRSTOPENGL\CMESH.CPP
F:\FANSHAWE\PORTFOLIO\FIRSTOPENGL (32BIT, DAY 7B)\FIRSTOPENGL\X64\DEBUG\VC141.PDB
^F:\FANSHAWE\PORTFOLIO\FIRSTOPENGL (32BIT, DAY 7B)\FIRSTOPENGL\CSHADER.CPP
F:\FANSHAWE\PORTFOLIO\FIRSTOPENGL (32BIT, DAY 7B)\FIRSTOPENGL\X64\DEBUG\VC141.PDB
^F:\FANSHAWE\PORTFOLIO\FIRSTOPENGL (32BIT, DAY 7B)\FIRSTOPENGL\CSHADERMANAGER.CPP
F:\FANSHAWE\PORTFOLIO\FIRSTOPENGL (32BIT, DAY 7B)\FIRSTOPENGL\X64\DEBUG\VC141.PDB
^F:\FANSHAWE\PORTFOLIO\FIRSTOPENGL (32BIT, DAY 7B)\FIRSTOPENGL\CTRIANGLE.CPP
F:\FANSHAWE\PORTFOLIO\FIRSTOPENGL (32BIT, DAY 7B)\FIRSTOPENGL\X64\DEBUG\VC141.PDB
^F:\FANSHAWE\PORTFOLIO\FIRSTOPENGL (32BIT, DAY 7B)\FIRSTOPENGL\CVAOMESHMANAGER.CPP
F:\FANSHAWE\PORTFOLIO\FIRSTOPENGL (32BIT, DAY 7B)\FIRSTOPENGL\X64\DEBUG\VC141.PDB
^F:\FANSHAWE\PORTFOLIO\FIRSTOPENGL (32BIT, DAY 7B)\FIRSTOPENGL\CVERTEX_XYZ_RGB.CPP
F:\FANSHAWE\PORTFOLIO\FIRSTOPENGL (32BIT, DAY 7B)\FIRSTOPENGL\X64\DEBUG\VC141.PDB
^F:\FANSHAWE\PORTFOLIO\FIRSTOPENGL (32BIT, DAY 7B)\FIRSTOPENGL\MODELUTILITIES.CPP
F:\FANSHAWE\PORTFOLIO\FIRSTOPENGL (32BIT, DAY 7B)\FIRSTOPENGL\X64\DEBUG\VC141.PDB
^F:\FANSHAWE\PORTFOLIO\FIRSTOPENGL (32BIT, DAY 7B)\FIRSTOPENGL\THEMAIN.CPP
F:\FANSHAWE\PORTFOLIO\FIRSTOPENGL (32BIT, DAY 7B)\FIRSTOPENGL\X64\DEBUG\VC141.PDB
^F:\FANSHAWE\PORTFOLIO\FIRSTOPENGL (32BIT, DAY 7B)\FIRSTOPENGL\UTILITIES.CPP
F:\FANSHAWE\PORTFOLIO\FIRSTOPENGL (32BIT, DAY 7B)\FIRSTOPENGL\X64\DEBUG\VC141.PDB
^F:\FANSHAWE\PORTFOLIO\FIRSTOPENGL (32BIT, DAY 7B)\FIRSTOPENGL\SRC\GLAD.C
F:\FANSHAWE\PORTFOLIO\FIRSTOPENGL (32BIT, DAY 7B)\FIRSTOPENGL\X64\DEBUG\VC141.PDB
F:\FANSHAWE\PORTFOLIO\FIRSTOPENGL (32BIT, DAY 7B)\FIRSTOPENGL\X64\DEBUG\VC141.IDB
F:\FANSHAWE\PORTFOLIO\FIRSTOPENGL (32BIT, DAY 7B)\FIRSTOPENGL\X64\DEBUG\GLAD.OBJ
