^F:\FANSHAWE\TERM 2\ARTIFICIAL INTELLIGENCE\PROJECT1\PROJECT1\CCAMERA.CPP
/c /Zi /nologo /W3 /WX- /diagnostics:classic /sdl /O2 /Oi /GL /D NDEBUG /D _CONSOLE /D _UNICODE /D UNICODE /Gm- /EHsc /MD /GS /Gy /fp:precise /Zc:wchar_t /Zc:forScope /Zc:inline /Fo"X64\RELEASE\\" /Fd"X64\RELEASE\VC141.PDB" /Gd /TP F:\FANSHAWE\TERM 2\ARTIFICIAL INTELLIGENCE\PROJECT1\PROJECT1\CCAMERA.CPP
^F:\FANSHAWE\TERM 2\ARTIFICIAL INTELLIGENCE\PROJECT1\PROJECT1\CGAMEOBJECT.CPP
/c /Zi /nologo /W3 /WX- /diagnostics:classic /sdl /O2 /Oi /GL /D NDEBUG /D _CONSOLE /D _UNICODE /D UNICODE /Gm- /EHsc /MD /GS /Gy /fp:precise /Zc:wchar_t /Zc:forScope /Zc:inline /Fo"X64\RELEASE\\" /Fd"X64\RELEASE\VC141.PDB" /Gd /TP F:\FANSHAWE\TERM 2\ARTIFICIAL INTELLIGENCE\PROJECT1\PROJECT1\CGAMEOBJECT.CPP
^F:\FANSHAWE\TERM 2\ARTIFICIAL INTELLIGENCE\PROJECT1\PROJECT1\CMAP.CPP
/c /Zi /nologo /W3 /WX- /diagnostics:classic /sdl /O2 /Oi /GL /D NDEBUG /D _CONSOLE /D _UNICODE /D UNICODE /Gm- /EHsc /MD /GS /Gy /fp:precise /Zc:wchar_t /Zc:forScope /Zc:inline /Fo"X64\RELEASE\\" /Fd"X64\RELEASE\VC141.PDB" /Gd /TP F:\FANSHAWE\TERM 2\ARTIFICIAL INTELLIGENCE\PROJECT1\PROJECT1\CMAP.CPP
^F:\FANSHAWE\TERM 2\ARTIFICIAL INTELLIGENCE\PROJECT1\PROJECT1\CMAPCELL.CPP
/c /Zi /nologo /W3 /WX- /diagnostics:classic /sdl /O2 /Oi /GL /D NDEBUG /D _CONSOLE /D _UNICODE /D UNICODE /Gm- /EHsc /MD /GS /Gy /fp:precise /Zc:wchar_t /Zc:forScope /Zc:inline /Fo"X64\RELEASE\\" /Fd"X64\RELEASE\VC141.PDB" /Gd /TP F:\FANSHAWE\TERM 2\ARTIFICIAL INTELLIGENCE\PROJECT1\PROJECT1\CMAPCELL.CPP
^F:\FANSHAWE\TERM 2\ARTIFICIAL INTELLIGENCE\PROJECT1\PROJECT1\CMAPLOADER.CPP
/c /Zi /nologo /W3 /WX- /diagnostics:classic /sdl /O2 /Oi /GL /D NDEBUG /D _CONSOLE /D _UNICODE /D UNICODE /Gm- /EHsc /MD /GS /Gy /fp:precise /Zc:wchar_t /Zc:forScope /Zc:inline /Fo"X64\RELEASE\\" /Fd"X64\RELEASE\VC141.PDB" /Gd /TP F:\FANSHAWE\TERM 2\ARTIFICIAL INTELLIGENCE\PROJECT1\PROJECT1\CMAPLOADER.CPP
^F:\FANSHAWE\TERM 2\ARTIFICIAL INTELLIGENCE\PROJECT1\PROJECT1\CMESH.CPP
/c /Zi /nologo /W3 /WX- /diagnostics:classic /sdl /O2 /Oi /GL /D NDEBUG /D _CONSOLE /D _UNICODE /D UNICODE /Gm- /EHsc /MD /GS /Gy /fp:precise /Zc:wchar_t /Zc:forScope /Zc:inline /Fo"X64\RELEASE\\" /Fd"X64\RELEASE\VC141.PDB" /Gd /TP F:\FANSHAWE\TERM 2\ARTIFICIAL INTELLIGENCE\PROJECT1\PROJECT1\CMESH.CPP
^F:\FANSHAWE\TERM 2\ARTIFICIAL INTELLIGENCE\PROJECT1\PROJECT1\CMODEL.CPP
/c /Zi /nologo /W3 /WX- /diagnostics:classic /sdl /O2 /Oi /GL /D NDEBUG /D _CONSOLE /D _UNICODE /D UNICODE /Gm- /EHsc /MD /GS /Gy /fp:precise /Zc:wchar_t /Zc:forScope /Zc:inline /Fo"X64\RELEASE\\" /Fd"X64\RELEASE\VC141.PDB" /Gd /TP F:\FANSHAWE\TERM 2\ARTIFICIAL INTELLIGENCE\PROJECT1\PROJECT1\CMODEL.CPP
^F:\FANSHAWE\TERM 2\ARTIFICIAL INTELLIGENCE\PROJECT1\PROJECT1\CPATH.CPP
/c /Zi /nologo /W3 /WX- /diagnostics:classic /sdl /O2 /Oi /GL /D NDEBUG /D _CONSOLE /D _UNICODE /D UNICODE /Gm- /EHsc /MD /GS /Gy /fp:precise /Zc:wchar_t /Zc:forScope /Zc:inline /Fo"X64\RELEASE\\" /Fd"X64\RELEASE\VC141.PDB" /Gd /TP F:\FANSHAWE\TERM 2\ARTIFICIAL INTELLIGENCE\PROJECT1\PROJECT1\CPATH.CPP
^F:\FANSHAWE\TERM 2\ARTIFICIAL INTELLIGENCE\PROJECT1\PROJECT1\CSHADER.CPP
/c /Zi /nologo /W3 /WX- /diagnostics:classic /sdl /O2 /Oi /GL /D NDEBUG /D _CONSOLE /D _UNICODE /D UNICODE /Gm- /EHsc /MD /GS /Gy /fp:precise /Zc:wchar_t /Zc:forScope /Zc:inline /Fo"X64\RELEASE\\" /Fd"X64\RELEASE\VC141.PDB" /Gd /TP F:\FANSHAWE\TERM 2\ARTIFICIAL INTELLIGENCE\PROJECT1\PROJECT1\CSHADER.CPP
^F:\FANSHAWE\TERM 2\ARTIFICIAL INTELLIGENCE\PROJECT1\PROJECT1\CSHADERMANAGER.CPP
/c /Zi /nologo /W3 /WX- /diagnostics:classic /sdl /O2 /Oi /GL /D NDEBUG /D _CONSOLE /D _UNICODE /D UNICODE /Gm- /EHsc /MD /GS /Gy /fp:precise /Zc:wchar_t /Zc:forScope /Zc:inline /Fo"X64\RELEASE\\" /Fd"X64\RELEASE\VC141.PDB" /Gd /TP F:\FANSHAWE\TERM 2\ARTIFICIAL INTELLIGENCE\PROJECT1\PROJECT1\CSHADERMANAGER.CPP
^F:\FANSHAWE\TERM 2\ARTIFICIAL INTELLIGENCE\PROJECT1\PROJECT1\STB_IMAGE.CPP
/c /Zi /nologo /W3 /WX- /diagnostics:classic /sdl /O2 /Oi /GL /D NDEBUG /D _CONSOLE /D _UNICODE /D UNICODE /Gm- /EHsc /MD /GS /Gy /fp:precise /Zc:wchar_t /Zc:forScope /Zc:inline /Fo"X64\RELEASE\\" /Fd"X64\RELEASE\VC141.PDB" /Gd /TP F:\FANSHAWE\TERM 2\ARTIFICIAL INTELLIGENCE\PROJECT1\PROJECT1\STB_IMAGE.CPP
^F:\FANSHAWE\TERM 2\ARTIFICIAL INTELLIGENCE\PROJECT1\PROJECT1\MAIN.CPP
/c /Zi /nologo /W3 /WX- /diagnostics:classic /sdl /O2 /Oi /GL /D NDEBUG /D _CONSOLE /D _UNICODE /D UNICODE /Gm- /EHsc /MD /GS /Gy /fp:precise /Zc:wchar_t /Zc:forScope /Zc:inline /Fo"X64\RELEASE\\" /Fd"X64\RELEASE\VC141.PDB" /Gd /TP F:\FANSHAWE\TERM 2\ARTIFICIAL INTELLIGENCE\PROJECT1\PROJECT1\MAIN.CPP
^F:\FANSHAWE\TERM 2\ARTIFICIAL INTELLIGENCE\PROJECT1\PROJECT1\UTILITIES.CPP
/c /Zi /nologo /W3 /WX- /diagnostics:classic /sdl /O2 /Oi /GL /D NDEBUG /D _CONSOLE /D _UNICODE /D UNICODE /Gm- /EHsc /MD /GS /Gy /fp:precise /Zc:wchar_t /Zc:forScope /Zc:inline /Fo"X64\RELEASE\\" /Fd"X64\RELEASE\VC141.PDB" /Gd /TP F:\FANSHAWE\TERM 2\ARTIFICIAL INTELLIGENCE\PROJECT1\PROJECT1\UTILITIES.CPP
^F:\FANSHAWE\TERM 2\ARTIFICIAL INTELLIGENCE\PROJECT1\PROJECT1\GLAD.C
/c /Zi /nologo /W3 /WX- /diagnostics:classic /sdl /O2 /Oi /GL /D NDEBUG /D _CONSOLE /D _UNICODE /D UNICODE /Gm- /EHsc /MD /GS /Gy /fp:precise /Zc:wchar_t /Zc:forScope /Zc:inline /Fo"X64\RELEASE\\" /Fd"X64\RELEASE\VC141.PDB" /Gd /TC F:\FANSHAWE\TERM 2\ARTIFICIAL INTELLIGENCE\PROJECT1\PROJECT1\GLAD.C
