#Command:  
C:\WINDOWS\MICROSOFT.NET\ASSEMBLY\GAC_32\MSCORLIB\V4.0_4.0.0.0__B77A5C561934E089\MSCORLIB.DLL
C:\PROGRAM FILES (X86)\MICROSOFT VISUAL STUDIO\2017\ENTERPRISE\VC\TOOLS\MSVC\14.11.25503\BIN\HOSTX86\X64\MICROSOFT.VISUALSTUDIO.TELEMETRY.DLL
