#Command:  
^F:\FANSHAWE\TERM 1\MEDIA FUNDAMENTALS\MEDIAPROJECT\FINALMEDIAPROJECT\VS_PROJECT\CMAKEFILES\3.9.2\COMPILERIDC\DEBUG\CMAKECCOMPILERID.OBJ
C:\USERS\AK\APPDATA\LOCAL\MICROSOFT\WINDOWS\INETCACHE\COUNTERS2.DAT
C:\USERS\AK\APPDATA\LOCAL\MICROSOFT\WINDOWS\INETCACHE\IE\H2BNMRKI\DYNTELCONFIG[1].CACHE
C:\WINDOWS\MICROSOFT.NET\ASSEMBLY\GAC_MSIL\SYSTEM.RESOURCES.RESOURCEMANAGER\V4.0_4.0.0.0__B03F5F7F11D50A3A\SYSTEM.RESOURCES.RESOURCEMANAGER.DLL
C:\WINDOWS\MICROSOFT.NET\ASSEMBLY\GAC_MSIL\SYSTEM.RUNTIME.EXTENSIONS\V4.0_4.0.0.0__B03F5F7F11D50A3A\SYSTEM.RUNTIME.EXTENSIONS.DLL
C:\WINDOWS\MICROSOFT.NET\ASSEMBLY\GAC_MSIL\SYSTEM.GLOBALIZATION\V4.0_4.0.0.0__B03F5F7F11D50A3A\SYSTEM.GLOBALIZATION.DLL
C:\WINDOWS\MICROSOFT.NET\ASSEMBLY\GAC_MSIL\SYSTEM.RUNTIME.INTEROPSERVICES\V4.0_4.0.0.0__B03F5F7F11D50A3A\SYSTEM.RUNTIME.INTEROPSERVICES.DLL
