#Command:  
^F:\FANSHAWE\TERM 1\MEDIA FUNDAMENTALS\MEDIAPROJECT\FINALMEDIAPROJECT\VS_PROJECT\CMAKEFILES\3.9.2\COMPILERIDC\DEBUG\CMAKECCOMPILERID.OBJ
C:\WINDOWS\MICROSOFT.NET\FRAMEWORK\V2.0.50727\MSCORWKS.DLL
C:\WINDOWS\MICROSOFT.NET\FRAMEWORK\V4.0.30319\CLR.DLL
C:\PROGRAM FILES (X86)\MICROSOFT VISUAL STUDIO\2017\ENTERPRISE\VC\TOOLS\MSVC\14.11.25503\BIN\HOSTX86\X86\VCTIP.EXE
C:\WINDOWS\MICROSOFT.NET\FRAMEWORK\V4.0.30319\CLR.DLL
C:\WINDOWS\MICROSOFT.NET\FRAMEWORK\V4.0.30319\CONFIG\MACHINE.CONFIG
C:\USERS\AK\APPDATA\LOCAL\MICROSOFT\CLR_V4.0_32\USAGELOGS\VCTIP.EXE.LOG
C:\WINDOWS\GLOBALIZATION\SORTING\SORTDEFAULT.NLS
C:\WINDOWS\MICROSOFT.NET\ASSEMBLY\GAC_32\MSCORLIB\V4.0_4.0.0.0__B77A5C561934E089\MSCORLIB.DLL
C:\WINDOWS\ASSEMBLY\NATIVEIMAGES_V4.0.30319_32\MSCORLIB\1B2E7F5CC7171797D3AAC21369BB10CF\MSCORLIB.NI.DLL
C:\WINDOWS\ASSEMBLY\NATIVEIMAGES_V4.0.30319_32\MSCORLIB\1B2E7F5CC7171797D3AAC21369BB10CF\MSCORLIB.NI.DLL.AUX
C:\WINDOWS\MICROSOFT.NET\ASSEMBLY\GAC_32\MSCORLIB\V4.0_4.0.0.0__B77A5C561934E089\MSCORLIB.DLL
C:\PROGRAM FILES (X86)\MICROSOFT VISUAL STUDIO\2017\ENTERPRISE\VC\TOOLS\MSVC\14.11.25503\BIN\HOSTX86\X86\VCTIP.EXE
C:\WINDOWS\SYSTEM32\TZRES.DLL
C:\USERS\AK\APPDATA\LOCAL\MICROSOFT\VSCOMMON\15.0\SQM\VCTOOLSTELEMETRY.DAT.TMP
C:\WINDOWS\ASSEMBLY\PUBPOL57.DAT
C:\WINDOWS\MICROSOFT.NET\FRAMEWORK\V4.0.30319\CONFIG\MACHINE.CONFIG
C:\PROGRAM FILES (X86)\MICROSOFT VISUAL STUDIO\2017\ENTERPRISE\VC\TOOLS\MSVC\14.11.25503\BIN\HOSTX86\X86\MICROSOFT.VISUALSTUDIO.TELEMETRY.DLL
C:\WINDOWS\ASSEMBLY\NATIVEIMAGES_V4.0.30319_32\MICROSOFT.VF87AED9A#\0EBE4E3184F3E48B9924311FD169020C\MICROSOFT.VISUALSTUDIO.TELEMETRY.NI.DLL
C:\WINDOWS\ASSEMBLY\NATIVEIMAGES_V4.0.30319_32\MICROSOFT.VF87AED9A#\0EBE4E3184F3E48B9924311FD169020C\MICROSOFT.VISUALSTUDIO.TELEMETRY.NI.DLL.AUX
C:\PROGRAM FILES (X86)\MICROSOFT VISUAL STUDIO\2017\ENTERPRISE\VC\TOOLS\MSVC\14.11.25503\BIN\HOSTX86\X86\MICROSOFT.VISUALSTUDIO.TELEMETRY.DLL
C:\WINDOWS\ASSEMBLY\NATIVEIMAGES_V4.0.30319_32\MICROSOFT.VF87AED9A#\0EBE4E3184F3E48B9924311FD169020C\MICROSOFT.VISUALSTUDIO.TELEMETRY.NI.DLL
C:\WINDOWS\ASSEMBLY\NATIVEIMAGES_V4.0.30319_32\MICROSOFT.VF87AED9A#\0EBE4E3184F3E48B9924311FD169020C\MICROSOFT.VISUALSTUDIO.TELEMETRY.NI.DLL.AUX
C:\PROGRAM FILES (X86)\MICROSOFT VISUAL STUDIO\2017\ENTERPRISE\VC\TOOLS\MSVC\14.11.25503\BIN\HOSTX86\X86\MICROSOFT.VISUALSTUDIO.TELEMETRY.DLL
C:\PROGRAM FILES (X86)\MICROSOFT VISUAL STUDIO\2017\ENTERPRISE\VC\TOOLS\MSVC\14.11.25503\BIN\HOSTX86\X86\MICROSOFT.VISUALSTUDIO.UTILITIES.INTERNAL.DLL
C:\WINDOWS\ASSEMBLY\NATIVEIMAGES_V4.0.30319_32\MICROSOFT.VDE5ED89A#\B4F765D0632DCDACFC12AD3F9C510C21\MICROSOFT.VISUALSTUDIO.UTILITIES.INTERNAL.NI.DLL
C:\WINDOWS\ASSEMBLY\NATIVEIMAGES_V4.0.30319_32\MICROSOFT.VDE5ED89A#\B4F765D0632DCDACFC12AD3F9C510C21\MICROSOFT.VISUALSTUDIO.UTILITIES.INTERNAL.NI.DLL.AUX
C:\PROGRAM FILES (X86)\MICROSOFT VISUAL STUDIO\2017\ENTERPRISE\VC\TOOLS\MSVC\14.11.25503\BIN\HOSTX86\X86\MICROSOFT.VISUALSTUDIO.UTILITIES.INTERNAL.DLL
C:\WINDOWS\ASSEMBLY\NATIVEIMAGES_V4.0.30319_32\MICROSOFT.VDE5ED89A#\B4F765D0632DCDACFC12AD3F9C510C21\MICROSOFT.VISUALSTUDIO.UTILITIES.INTERNAL.NI.DLL
C:\WINDOWS\ASSEMBLY\NATIVEIMAGES_V4.0.30319_32\MICROSOFT.VDE5ED89A#\B4F765D0632DCDACFC12AD3F9C510C21\MICROSOFT.VISUALSTUDIO.UTILITIES.INTERNAL.NI.DLL.AUX
C:\PROGRAM FILES (X86)\MICROSOFT VISUAL STUDIO\2017\ENTERPRISE\VC\TOOLS\MSVC\14.11.25503\BIN\HOSTX86\X86\MICROSOFT.VISUALSTUDIO.UTILITIES.INTERNAL.DLL
C:\WINDOWS\MICROSOFT.NET\ASSEMBLY\GAC_MSIL\SYSTEM.CORE\V4.0_4.0.0.0__B77A5C561934E089\SYSTEM.CORE.DLL
C:\WINDOWS\ASSEMBLY\NATIVEIMAGES_V4.0.30319_32\SYSTEM.CORE\47DA8DA45970F16B48E1D146C7B05B86\SYSTEM.CORE.NI.DLL
C:\WINDOWS\ASSEMBLY\NATIVEIMAGES_V4.0.30319_32\SYSTEM.CORE\47DA8DA45970F16B48E1D146C7B05B86\SYSTEM.CORE.NI.DLL.AUX
C:\WINDOWS\MICROSOFT.NET\ASSEMBLY\GAC_MSIL\SYSTEM.CORE\V4.0_4.0.0.0__B77A5C561934E089\SYSTEM.CORE.DLL
C:\WINDOWS\MICROSOFT.NET\ASSEMBLY\GAC_MSIL\SYSTEM\V4.0_4.0.0.0__B77A5C561934E089\SYSTEM.DLL
C:\WINDOWS\ASSEMBLY\NATIVEIMAGES_V4.0.30319_32\SYSTEM\3F854FEDBADEC6AD04FFDFD963FC7839\SYSTEM.NI.DLL
C:\WINDOWS\ASSEMBLY\NATIVEIMAGES_V4.0.30319_32\SYSTEM\3F854FEDBADEC6AD04FFDFD963FC7839\SYSTEM.NI.DLL.AUX
C:\WINDOWS\MICROSOFT.NET\ASSEMBLY\GAC_MSIL\SYSTEM\V4.0_4.0.0.0__B77A5C561934E089\SYSTEM.DLL
C:\WINDOWS\MICROSOFT.NET\ASSEMBLY\GAC_MSIL\SYSTEM.CONFIGURATION\V4.0_4.0.0.0__B03F5F7F11D50A3A\SYSTEM.CONFIGURATION.DLL
C:\WINDOWS\MICROSOFT.NET\ASSEMBLY\GAC_MSIL\SYSTEM.XML\V4.0_4.0.0.0__B77A5C561934E089\SYSTEM.XML.DLL
C:\WINDOWS\MICROSOFT.NET\ASSEMBLY\GAC_MSIL\SYSTEM.NUMERICS\V4.0_4.0.0.0__B77A5C561934E089\SYSTEM.NUMERICS.DLL
C:\WINDOWS\MICROSOFT.NET\ASSEMBLY\GAC_MSIL\SYSTEM.SECURITY\V4.0_4.0.0.0__B03F5F7F11D50A3A\SYSTEM.SECURITY.DLL
C:\WINDOWS\SYSTEM32\EN-US\TZRES.DLL.MUI
C:\PROGRAM FILES (X86)\MICROSOFT VISUAL STUDIO\2017\ENTERPRISE\VC\TOOLS\MSVC\14.11.25503\BIN\HOSTX86\X86\VCTIP.EXE
C:\WINDOWS\SYSTEM32\WINNLSRES.DLL
C:\PROGRAM FILES (X86)\MICROSOFT VISUAL STUDIO\2017\ENTERPRISE\VC\TOOLS\MSVC\14.11.25503\BIN\HOSTX86\X86\MICROSOFT.VISUALSTUDIO.TELEMETRY.DLL
C:\PROGRAM FILES (X86)\MICROSOFT VISUAL STUDIO\2017\ENTERPRISE\VC\TOOLS\MSVC\14.11.25503\BIN\HOSTX86\X86\MICROSOFT.VISUALSTUDIO.REMOTECONTROL.DLL
C:\WINDOWS\ASSEMBLY\NATIVEIMAGES_V4.0.30319_32\MICROSOFT.V8F370856#\7192AF3A615CB76ECF6D254A93FFE8B0\MICROSOFT.VISUALSTUDIO.REMOTECONTROL.NI.DLL
C:\WINDOWS\ASSEMBLY\NATIVEIMAGES_V4.0.30319_32\MICROSOFT.V8F370856#\7192AF3A615CB76ECF6D254A93FFE8B0\MICROSOFT.VISUALSTUDIO.REMOTECONTROL.NI.DLL.AUX
C:\PROGRAM FILES (X86)\MICROSOFT VISUAL STUDIO\2017\ENTERPRISE\VC\TOOLS\MSVC\14.11.25503\BIN\HOSTX86\X86\MICROSOFT.VISUALSTUDIO.REMOTECONTROL.DLL
C:\WINDOWS\ASSEMBLY\NATIVEIMAGES_V4.0.30319_32\MICROSOFT.V8F370856#\7192AF3A615CB76ECF6D254A93FFE8B0\MICROSOFT.VISUALSTUDIO.REMOTECONTROL.NI.DLL
C:\WINDOWS\ASSEMBLY\NATIVEIMAGES_V4.0.30319_32\MICROSOFT.V8F370856#\7192AF3A615CB76ECF6D254A93FFE8B0\MICROSOFT.VISUALSTUDIO.REMOTECONTROL.NI.DLL.AUX
