#Command:  
^F:\FANSHAWE\TERM 1\MEDIA FUNDAMENTALS\MEDIAPROJECT\FINALMEDIAPROJECT\VS_PROJECT\CMAKEFILES\3.9.2\COMPILERIDC\DEBUG\CMAKECCOMPILERID.OBJ
C:\USERS\AK\APPDATA\LOCAL\MICROSOFT\WINDOWS\INETCACHE\IE\H2BNMRKI\DYNTELCONFIG[1].CACHE
