#Command:  
^F:\FANSHAWE\TERM 1\MEDIA FUNDAMENTALS\MEDIAPROJECT\FINALMEDIAPROJECT\VS_PROJECT\CMAKEFILES\3.9.2\COMPILERIDC\DEBUG\CMAKECCOMPILERID.OBJ
C:\USERS\AK\APPDATA\LOCAL\MICROSOFT\VSAPPLICATIONINSIGHTS\VSTELAIF-312CBD79-9DBB-4C48-A7DA-3CC2A931CB70\20171208014850_EE588C234AB14DB286A7A5646FA1623E.TMP
