^F:\FANSHAWE\NETWORK-PROGRAMMING\NETWORKPROJECT3\SERVERAPP\BUFFER.CPP|F:\FANSHAWE\NETWORK-PROGRAMMING\NETWORKPROJECT3\SERVERAPP\CLIENTMODEL.CPP|F:\FANSHAWE\NETWORK-PROGRAMMING\NETWORKPROJECT3\SERVERAPP\SERVERMAIN.CPP|F:\FANSHAWE\NETWORK-PROGRAMMING\NETWORKPROJECT3\SERVERAPP\STUFF.CPP
F:\FANSHAWE\NETWORK-PROGRAMMING\NETWORKPROJECT3\SERVERAPP\DEBUG\VC141.PDB
F:\FANSHAWE\NETWORK-PROGRAMMING\NETWORKPROJECT3\SERVERAPP\DEBUG\VC141.IDB
F:\FANSHAWE\NETWORK-PROGRAMMING\NETWORKPROJECT3\SERVERAPP\DEBUG\BUFFER.OBJ
F:\FANSHAWE\NETWORK-PROGRAMMING\NETWORKPROJECT3\SERVERAPP\DEBUG\CLIENTMODEL.OBJ
F:\FANSHAWE\NETWORK-PROGRAMMING\NETWORKPROJECT3\SERVERAPP\DEBUG\SERVERMAIN.OBJ
F:\FANSHAWE\NETWORK-PROGRAMMING\NETWORKPROJECT3\SERVERAPP\DEBUG\STUFF.OBJ
^F:\FANSHAWE\NETWORK-PROGRAMMING\NETWORKPROJECT3\SERVERAPP\BUFFER.CPP
F:\FANSHAWE\NETWORK-PROGRAMMING\NETWORKPROJECT3\SERVERAPP\DEBUG\VC141.PDB
^F:\FANSHAWE\NETWORK-PROGRAMMING\NETWORKPROJECT3\SERVERAPP\CLIENTMODEL.CPP
F:\FANSHAWE\NETWORK-PROGRAMMING\NETWORKPROJECT3\SERVERAPP\DEBUG\VC141.PDB
^F:\FANSHAWE\NETWORK-PROGRAMMING\NETWORKPROJECT3\SERVERAPP\SERVERMAIN.CPP
F:\FANSHAWE\NETWORK-PROGRAMMING\NETWORKPROJECT3\SERVERAPP\DEBUG\VC141.PDB
^F:\FANSHAWE\NETWORK-PROGRAMMING\NETWORKPROJECT3\SERVERAPP\STUFF.CPP
F:\FANSHAWE\NETWORK-PROGRAMMING\NETWORKPROJECT3\SERVERAPP\DEBUG\VC141.PDB
