^F:\FANSHAWE\TERM 2\GAMEJAM\SOURCE\X64\DEBUG\CAIGAMEOBJECT.OBJ|F:\FANSHAWE\TERM 2\GAMEJAM\SOURCE\X64\DEBUG\CANIMATIONSTATE.OBJ|F:\FANSHAWE\TERM 2\GAMEJAM\SOURCE\X64\DEBUG\CCAMERA.OBJ|F:\FANSHAWE\TERM 2\GAMEJAM\SOURCE\X64\DEBUG\CDEBUGRENDERER.OBJ|F:\FANSHAWE\TERM 2\GAMEJAM\SOURCE\X64\DEBUG\CFBO.OBJ|F:\FANSHAWE\TERM 2\GAMEJAM\SOURCE\X64\DEBUG\CGAMEOBJECT.OBJ|F:\FANSHAWE\TERM 2\GAMEJAM\SOURCE\X64\DEBUG\CGLFWCALLS.OBJ|F:\FANSHAWE\TERM 2\GAMEJAM\SOURCE\X64\DEBUG\CMAP.OBJ|F:\FANSHAWE\TERM 2\GAMEJAM\SOURCE\X64\DEBUG\CMAPCELL.OBJ|F:\FANSHAWE\TERM 2\GAMEJAM\SOURCE\X64\DEBUG\CMAPLOADER.OBJ|F:\FANSHAWE\TERM 2\GAMEJAM\SOURCE\X64\DEBUG\CMENU.OBJ|F:\FANSHAWE\TERM 2\GAMEJAM\SOURCE\X64\DEBUG\CMENULOADER.OBJ|F:\FANSHAWE\TERM 2\GAMEJAM\SOURCE\X64\DEBUG\CMENUOBJ.OBJ|F:\FANSHAWE\TERM 2\GAMEJAM\SOURCE\X64\DEBUG\CMESH.OBJ|F:\FANSHAWE\TERM 2\GAMEJAM\SOURCE\X64\DEBUG\CMODEL.OBJ|F:\FANSHAWE\TERM 2\GAMEJAM\SOURCE\X64\DEBUG\CPARTICLE.OBJ|F:\FANSHAWE\TERM 2\GAMEJAM\SOURCE\X64\DEBUG\CPARTICLEEMITTER.OBJ|F:\FANSHAWE\TERM 2\GAMEJAM\SOURCE\X64\DEBUG\CPATH.OBJ|F:\FANSHAWE\TERM 2\GAMEJAM\SOURCE\X64\DEBUG\CPLAYERGAMEOBJECT.OBJ|F:\FANSHAWE\TERM 2\GAMEJAM\SOURCE\X64\DEBUG\CSHADER.OBJ|F:\FANSHAWE\TERM 2\GAMEJAM\SOURCE\X64\DEBUG\CSHADERMANAGER.OBJ|F:\FANSHAWE\TERM 2\GAMEJAM\SOURCE\X64\DEBUG\CSKINNEDMESH.OBJ|F:\FANSHAWE\TERM 2\GAMEJAM\SOURCE\X64\DEBUG\EXTERNOBJCALLS.OBJ|F:\FANSHAWE\TERM 2\GAMEJAM\SOURCE\X64\DEBUG\FILEUTILITIES.OBJ|F:\FANSHAWE\TERM 2\GAMEJAM\SOURCE\X64\DEBUG\GLAD.OBJ|F:\FANSHAWE\TERM 2\GAMEJAM\SOURCE\X64\DEBUG\MAIN.OBJ|F:\FANSHAWE\TERM 2\GAMEJAM\SOURCE\X64\DEBUG\PHYSICS.OBJ|F:\FANSHAWE\TERM 2\GAMEJAM\SOURCE\X64\DEBUG\SCENELOADER.OBJ|F:\FANSHAWE\TERM 2\GAMEJAM\SOURCE\X64\DEBUG\STB_IMAGE.OBJ|F:\FANSHAWE\TERM 2\GAMEJAM\SOURCE\X64\DEBUG\UTILITIES.OBJ|F:\FANSHAWE\TERM 2\GAMEJAM\SOURCE\X64\DEBUG\UTILS.OBJ
C:\WINDOWS\GLOBALIZATION\SORTING\SORTDEFAULT.NLS
C:\PROGRAM FILES (X86)\WINDOWS KITS\10\LIB\10.0.15063.0\UM\X64\KERNEL32.LIB
C:\PROGRAM FILES (X86)\WINDOWS KITS\10\LIB\10.0.15063.0\UM\X64\USER32.LIB
C:\PROGRAM FILES (X86)\WINDOWS KITS\10\LIB\10.0.15063.0\UM\X64\GDI32.LIB
C:\PROGRAM FILES (X86)\WINDOWS KITS\10\LIB\10.0.15063.0\UM\X64\WINSPOOL.LIB
C:\PROGRAM FILES (X86)\WINDOWS KITS\10\LIB\10.0.15063.0\UM\X64\COMDLG32.LIB
C:\PROGRAM FILES (X86)\WINDOWS KITS\10\LIB\10.0.15063.0\UM\X64\ADVAPI32.LIB
C:\PROGRAM FILES (X86)\WINDOWS KITS\10\LIB\10.0.15063.0\UM\X64\SHELL32.LIB
C:\PROGRAM FILES (X86)\WINDOWS KITS\10\LIB\10.0.15063.0\UM\X64\OLE32.LIB
C:\PROGRAM FILES (X86)\WINDOWS KITS\10\LIB\10.0.15063.0\UM\X64\OLEAUT32.LIB
C:\PROGRAM FILES (X86)\WINDOWS KITS\10\LIB\10.0.15063.0\UM\X64\UUID.LIB
C:\PROGRAM FILES (X86)\WINDOWS KITS\10\LIB\10.0.15063.0\UM\X64\ODBC32.LIB
C:\PROGRAM FILES (X86)\WINDOWS KITS\10\LIB\10.0.15063.0\UM\X64\ODBCCP32.LIB
F:\FANSHAWE\TERM 2\GAMEJAM\X64\DEBUG\PHYSICSWORLD.LIB
F:\FANSHAWE\TERM 2\GAMEJAM\EXTERN\LIB\DEBUG64\FREETYPE.LIB
F:\FANSHAWE\TERM 2\GAMEJAM\EXTERN\LIB\DEBUG64\ASSIMP-VC140-MT.LIB
F:\FANSHAWE\TERM 2\GAMEJAM\EXTERN\LIB\DEBUG64\GLFW3_64.LIB
F:\FANSHAWE\TERM 2\GAMEJAM\SOURCE\X64\DEBUG\CAIGAMEOBJECT.OBJ
F:\FANSHAWE\TERM 2\GAMEJAM\SOURCE\X64\DEBUG\CANIMATIONSTATE.OBJ
F:\FANSHAWE\TERM 2\GAMEJAM\SOURCE\X64\DEBUG\CCAMERA.OBJ
F:\FANSHAWE\TERM 2\GAMEJAM\SOURCE\X64\DEBUG\CDEBUGRENDERER.OBJ
F:\FANSHAWE\TERM 2\GAMEJAM\SOURCE\X64\DEBUG\CFBO.OBJ
F:\FANSHAWE\TERM 2\GAMEJAM\SOURCE\X64\DEBUG\CGAMEOBJECT.OBJ
F:\FANSHAWE\TERM 2\GAMEJAM\SOURCE\X64\DEBUG\CGLFWCALLS.OBJ
F:\FANSHAWE\TERM 2\GAMEJAM\SOURCE\X64\DEBUG\CMAP.OBJ
F:\FANSHAWE\TERM 2\GAMEJAM\SOURCE\X64\DEBUG\CMAPCELL.OBJ
F:\FANSHAWE\TERM 2\GAMEJAM\SOURCE\X64\DEBUG\CMAPLOADER.OBJ
F:\FANSHAWE\TERM 2\GAMEJAM\SOURCE\X64\DEBUG\CMENU.OBJ
F:\FANSHAWE\TERM 2\GAMEJAM\SOURCE\X64\DEBUG\CMENULOADER.OBJ
F:\FANSHAWE\TERM 2\GAMEJAM\SOURCE\X64\DEBUG\CMENUOBJ.OBJ
F:\FANSHAWE\TERM 2\GAMEJAM\SOURCE\X64\DEBUG\CMESH.OBJ
F:\FANSHAWE\TERM 2\GAMEJAM\SOURCE\X64\DEBUG\CMODEL.OBJ
F:\FANSHAWE\TERM 2\GAMEJAM\SOURCE\X64\DEBUG\CPARTICLE.OBJ
F:\FANSHAWE\TERM 2\GAMEJAM\SOURCE\X64\DEBUG\CPARTICLEEMITTER.OBJ
F:\FANSHAWE\TERM 2\GAMEJAM\SOURCE\X64\DEBUG\CPATH.OBJ
F:\FANSHAWE\TERM 2\GAMEJAM\SOURCE\X64\DEBUG\CPLAYERGAMEOBJECT.OBJ
F:\FANSHAWE\TERM 2\GAMEJAM\SOURCE\X64\DEBUG\CSHADER.OBJ
F:\FANSHAWE\TERM 2\GAMEJAM\SOURCE\X64\DEBUG\CSHADERMANAGER.OBJ
F:\FANSHAWE\TERM 2\GAMEJAM\SOURCE\X64\DEBUG\EXTERNOBJCALLS.OBJ
F:\FANSHAWE\TERM 2\GAMEJAM\SOURCE\X64\DEBUG\FILEUTILITIES.OBJ
F:\FANSHAWE\TERM 2\GAMEJAM\SOURCE\X64\DEBUG\CSKINNEDMESH.OBJ
F:\FANSHAWE\TERM 2\GAMEJAM\SOURCE\X64\DEBUG\GLAD.OBJ
F:\FANSHAWE\TERM 2\GAMEJAM\SOURCE\X64\DEBUG\PHYSICS.OBJ
F:\FANSHAWE\TERM 2\GAMEJAM\SOURCE\X64\DEBUG\SCENELOADER.OBJ
F:\FANSHAWE\TERM 2\GAMEJAM\SOURCE\X64\DEBUG\STB_IMAGE.OBJ
F:\FANSHAWE\TERM 2\GAMEJAM\SOURCE\X64\DEBUG\MAIN.OBJ
F:\FANSHAWE\TERM 2\GAMEJAM\SOURCE\X64\DEBUG\UTILITIES.OBJ
F:\FANSHAWE\TERM 2\GAMEJAM\SOURCE\X64\DEBUG\UTILS.OBJ
C:\WINDOWS\SYSTEM32\TZRES.DLL
C:\PROGRAM FILES (X86)\MICROSOFT VISUAL STUDIO\2017\ENTERPRISE\VC\TOOLS\MSVC\14.11.25503\LIB\X64\MSVCPRTD.LIB
C:\PROGRAM FILES (X86)\MICROSOFT VISUAL STUDIO\2017\ENTERPRISE\VC\TOOLS\MSVC\14.11.25503\LIB\X64\MSVCRTD.LIB
C:\PROGRAM FILES (X86)\MICROSOFT VISUAL STUDIO\2017\ENTERPRISE\VC\TOOLS\MSVC\14.11.25503\LIB\X64\OLDNAMES.LIB
C:\PROGRAM FILES (X86)\WINDOWS KITS\10\LIB\10.0.15063.0\UM\X64\SAPI.LIB
C:\PROGRAM FILES (X86)\MICROSOFT VISUAL STUDIO\2017\ENTERPRISE\VC\TOOLS\MSVC\14.11.25503\ATLMFC\LIB\X64\ATLS.LIB
C:\PROGRAM FILES (X86)\WINDOWS KITS\10\LIB\10.0.15063.0\UM\X64\SHLWAPI.LIB
C:\PROGRAM FILES (X86)\MICROSOFT VISUAL STUDIO\2017\ENTERPRISE\VC\TOOLS\MSVC\14.11.25503\LIB\X64\LIBCMTD.LIB
C:\PROGRAM FILES (X86)\MICROSOFT VISUAL STUDIO\2017\ENTERPRISE\VC\TOOLS\MSVC\14.11.25503\LIB\X64\VCRUNTIMED.LIB
C:\PROGRAM FILES (X86)\WINDOWS KITS\10\LIB\10.0.15063.0\UCRT\X64\UCRTD.LIB
^F:\FANSHAWE\PORTFOLIO\GAMEJAM\SOURCE\X64\DEBUG\CAIGAMEOBJECT.OBJ|F:\FANSHAWE\PORTFOLIO\GAMEJAM\SOURCE\X64\DEBUG\CANIMATIONSTATE.OBJ|F:\FANSHAWE\PORTFOLIO\GAMEJAM\SOURCE\X64\DEBUG\CCAMERA.OBJ|F:\FANSHAWE\PORTFOLIO\GAMEJAM\SOURCE\X64\DEBUG\CDEBUGRENDERER.OBJ|F:\FANSHAWE\PORTFOLIO\GAMEJAM\SOURCE\X64\DEBUG\CFBO.OBJ|F:\FANSHAWE\PORTFOLIO\GAMEJAM\SOURCE\X64\DEBUG\CGAMEOBJECT.OBJ|F:\FANSHAWE\PORTFOLIO\GAMEJAM\SOURCE\X64\DEBUG\CGLFWCALLS.OBJ|F:\FANSHAWE\PORTFOLIO\GAMEJAM\SOURCE\X64\DEBUG\CMAP.OBJ|F:\FANSHAWE\PORTFOLIO\GAMEJAM\SOURCE\X64\DEBUG\CMAPCELL.OBJ|F:\FANSHAWE\PORTFOLIO\GAMEJAM\SOURCE\X64\DEBUG\CMAPLOADER.OBJ|F:\FANSHAWE\PORTFOLIO\GAMEJAM\SOURCE\X64\DEBUG\CMENU.OBJ|F:\FANSHAWE\PORTFOLIO\GAMEJAM\SOURCE\X64\DEBUG\CMENULOADER.OBJ|F:\FANSHAWE\PORTFOLIO\GAMEJAM\SOURCE\X64\DEBUG\CMENUOBJ.OBJ|F:\FANSHAWE\PORTFOLIO\GAMEJAM\SOURCE\X64\DEBUG\CMESH.OBJ|F:\FANSHAWE\PORTFOLIO\GAMEJAM\SOURCE\X64\DEBUG\CMODEL.OBJ|F:\FANSHAWE\PORTFOLIO\GAMEJAM\SOURCE\X64\DEBUG\CPARTICLE.OBJ|F:\FANSHAWE\PORTFOLIO\GAMEJAM\SOURCE\X64\DEBUG\CPARTICLEEMITTER.OBJ|F:\FANSHAWE\PORTFOLIO\GAMEJAM\SOURCE\X64\DEBUG\CPATH.OBJ|F:\FANSHAWE\PORTFOLIO\GAMEJAM\SOURCE\X64\DEBUG\CPLAYERGAMEOBJECT.OBJ|F:\FANSHAWE\PORTFOLIO\GAMEJAM\SOURCE\X64\DEBUG\CSHADER.OBJ|F:\FANSHAWE\PORTFOLIO\GAMEJAM\SOURCE\X64\DEBUG\CSHADERMANAGER.OBJ|F:\FANSHAWE\PORTFOLIO\GAMEJAM\SOURCE\X64\DEBUG\CSKINNEDMESH.OBJ|F:\FANSHAWE\PORTFOLIO\GAMEJAM\SOURCE\X64\DEBUG\EXTERNOBJCALLS.OBJ|F:\FANSHAWE\PORTFOLIO\GAMEJAM\SOURCE\X64\DEBUG\FILEUTILITIES.OBJ|F:\FANSHAWE\PORTFOLIO\GAMEJAM\SOURCE\X64\DEBUG\GLAD.OBJ|F:\FANSHAWE\PORTFOLIO\GAMEJAM\SOURCE\X64\DEBUG\MAIN.OBJ|F:\FANSHAWE\PORTFOLIO\GAMEJAM\SOURCE\X64\DEBUG\PHYSICS.OBJ|F:\FANSHAWE\PORTFOLIO\GAMEJAM\SOURCE\X64\DEBUG\SCENELOADER.OBJ|F:\FANSHAWE\PORTFOLIO\GAMEJAM\SOURCE\X64\DEBUG\STB_IMAGE.OBJ|F:\FANSHAWE\PORTFOLIO\GAMEJAM\SOURCE\X64\DEBUG\UTILITIES.OBJ|F:\FANSHAWE\PORTFOLIO\GAMEJAM\SOURCE\X64\DEBUG\UTILS.OBJ
C:\WINDOWS\GLOBALIZATION\SORTING\SORTDEFAULT.NLS
C:\PROGRAM FILES (X86)\WINDOWS KITS\10\LIB\10.0.15063.0\UM\X64\KERNEL32.LIB
C:\PROGRAM FILES (X86)\WINDOWS KITS\10\LIB\10.0.15063.0\UM\X64\USER32.LIB
C:\PROGRAM FILES (X86)\WINDOWS KITS\10\LIB\10.0.15063.0\UM\X64\GDI32.LIB
C:\PROGRAM FILES (X86)\WINDOWS KITS\10\LIB\10.0.15063.0\UM\X64\WINSPOOL.LIB
C:\PROGRAM FILES (X86)\WINDOWS KITS\10\LIB\10.0.15063.0\UM\X64\COMDLG32.LIB
C:\PROGRAM FILES (X86)\WINDOWS KITS\10\LIB\10.0.15063.0\UM\X64\ADVAPI32.LIB
C:\PROGRAM FILES (X86)\WINDOWS KITS\10\LIB\10.0.15063.0\UM\X64\SHELL32.LIB
C:\PROGRAM FILES (X86)\WINDOWS KITS\10\LIB\10.0.15063.0\UM\X64\OLE32.LIB
C:\PROGRAM FILES (X86)\WINDOWS KITS\10\LIB\10.0.15063.0\UM\X64\OLEAUT32.LIB
C:\PROGRAM FILES (X86)\WINDOWS KITS\10\LIB\10.0.15063.0\UM\X64\UUID.LIB
C:\PROGRAM FILES (X86)\WINDOWS KITS\10\LIB\10.0.15063.0\UM\X64\ODBC32.LIB
C:\PROGRAM FILES (X86)\WINDOWS KITS\10\LIB\10.0.15063.0\UM\X64\ODBCCP32.LIB
F:\FANSHAWE\PORTFOLIO\GAMEJAM\X64\DEBUG\PHYSICSWORLD.LIB
F:\FANSHAWE\PORTFOLIO\GAMEJAM\EXTERN\LIB\DEBUG64\FREETYPE.LIB
F:\FANSHAWE\PORTFOLIO\GAMEJAM\EXTERN\LIB\DEBUG64\ASSIMP-VC140-MT.LIB
F:\FANSHAWE\PORTFOLIO\GAMEJAM\EXTERN\LIB\DEBUG64\GLFW3_64.LIB
F:\FANSHAWE\PORTFOLIO\GAMEJAM\SOURCE\X64\DEBUG\CAIGAMEOBJECT.OBJ
F:\FANSHAWE\PORTFOLIO\GAMEJAM\SOURCE\X64\DEBUG\CANIMATIONSTATE.OBJ
F:\FANSHAWE\PORTFOLIO\GAMEJAM\SOURCE\X64\DEBUG\CCAMERA.OBJ
F:\FANSHAWE\PORTFOLIO\GAMEJAM\SOURCE\X64\DEBUG\CDEBUGRENDERER.OBJ
F:\FANSHAWE\PORTFOLIO\GAMEJAM\SOURCE\X64\DEBUG\CFBO.OBJ
F:\FANSHAWE\PORTFOLIO\GAMEJAM\SOURCE\X64\DEBUG\CGAMEOBJECT.OBJ
F:\FANSHAWE\PORTFOLIO\GAMEJAM\SOURCE\X64\DEBUG\CGLFWCALLS.OBJ
F:\FANSHAWE\PORTFOLIO\GAMEJAM\SOURCE\X64\DEBUG\CMAP.OBJ
F:\FANSHAWE\PORTFOLIO\GAMEJAM\SOURCE\X64\DEBUG\CMAPCELL.OBJ
F:\FANSHAWE\PORTFOLIO\GAMEJAM\SOURCE\X64\DEBUG\CMAPLOADER.OBJ
F:\FANSHAWE\PORTFOLIO\GAMEJAM\SOURCE\X64\DEBUG\CMENU.OBJ
F:\FANSHAWE\PORTFOLIO\GAMEJAM\SOURCE\X64\DEBUG\CMENULOADER.OBJ
F:\FANSHAWE\PORTFOLIO\GAMEJAM\SOURCE\X64\DEBUG\CMENUOBJ.OBJ
F:\FANSHAWE\PORTFOLIO\GAMEJAM\SOURCE\X64\DEBUG\CMESH.OBJ
F:\FANSHAWE\PORTFOLIO\GAMEJAM\SOURCE\X64\DEBUG\CMODEL.OBJ
F:\FANSHAWE\PORTFOLIO\GAMEJAM\SOURCE\X64\DEBUG\CPARTICLE.OBJ
F:\FANSHAWE\PORTFOLIO\GAMEJAM\SOURCE\X64\DEBUG\CPARTICLEEMITTER.OBJ
F:\FANSHAWE\PORTFOLIO\GAMEJAM\SOURCE\X64\DEBUG\CPATH.OBJ
F:\FANSHAWE\PORTFOLIO\GAMEJAM\SOURCE\X64\DEBUG\CPLAYERGAMEOBJECT.OBJ
F:\FANSHAWE\PORTFOLIO\GAMEJAM\SOURCE\X64\DEBUG\CSHADER.OBJ
F:\FANSHAWE\PORTFOLIO\GAMEJAM\SOURCE\X64\DEBUG\CSHADERMANAGER.OBJ
F:\FANSHAWE\PORTFOLIO\GAMEJAM\SOURCE\X64\DEBUG\EXTERNOBJCALLS.OBJ
F:\FANSHAWE\PORTFOLIO\GAMEJAM\SOURCE\X64\DEBUG\FILEUTILITIES.OBJ
F:\FANSHAWE\PORTFOLIO\GAMEJAM\SOURCE\X64\DEBUG\CSKINNEDMESH.OBJ
F:\FANSHAWE\PORTFOLIO\GAMEJAM\SOURCE\X64\DEBUG\GLAD.OBJ
F:\FANSHAWE\PORTFOLIO\GAMEJAM\SOURCE\X64\DEBUG\PHYSICS.OBJ
F:\FANSHAWE\PORTFOLIO\GAMEJAM\SOURCE\X64\DEBUG\SCENELOADER.OBJ
F:\FANSHAWE\PORTFOLIO\GAMEJAM\SOURCE\X64\DEBUG\STB_IMAGE.OBJ
F:\FANSHAWE\PORTFOLIO\GAMEJAM\SOURCE\X64\DEBUG\MAIN.OBJ
F:\FANSHAWE\PORTFOLIO\GAMEJAM\SOURCE\X64\DEBUG\UTILITIES.OBJ
F:\FANSHAWE\PORTFOLIO\GAMEJAM\SOURCE\X64\DEBUG\UTILS.OBJ
C:\WINDOWS\SYSTEM32\TZRES.DLL
C:\PROGRAM FILES (X86)\MICROSOFT VISUAL STUDIO\2017\ENTERPRISE\VC\TOOLS\MSVC\14.11.25503\LIB\X64\MSVCPRTD.LIB
C:\PROGRAM FILES (X86)\MICROSOFT VISUAL STUDIO\2017\ENTERPRISE\VC\TOOLS\MSVC\14.11.25503\LIB\X64\MSVCRTD.LIB
C:\PROGRAM FILES (X86)\MICROSOFT VISUAL STUDIO\2017\ENTERPRISE\VC\TOOLS\MSVC\14.11.25503\LIB\X64\OLDNAMES.LIB
C:\PROGRAM FILES (X86)\WINDOWS KITS\10\LIB\10.0.15063.0\UM\X64\SAPI.LIB
C:\PROGRAM FILES (X86)\MICROSOFT VISUAL STUDIO\2017\ENTERPRISE\VC\TOOLS\MSVC\14.11.25503\ATLMFC\LIB\X64\ATLS.LIB
C:\PROGRAM FILES (X86)\WINDOWS KITS\10\LIB\10.0.15063.0\UM\X64\SHLWAPI.LIB
C:\PROGRAM FILES (X86)\MICROSOFT VISUAL STUDIO\2017\ENTERPRISE\VC\TOOLS\MSVC\14.11.25503\LIB\X64\LIBCMTD.LIB
C:\PROGRAM FILES (X86)\MICROSOFT VISUAL STUDIO\2017\ENTERPRISE\VC\TOOLS\MSVC\14.11.25503\LIB\X64\VCRUNTIMED.LIB
C:\PROGRAM FILES (X86)\WINDOWS KITS\10\LIB\10.0.15063.0\UCRT\X64\UCRTD.LIB
C:\PROGRAM FILES (X86)\MICROSOFT VISUAL STUDIO\2017\ENTERPRISE\VC\TOOLS\MSVC\14.11.25503\BIN\HOSTX86\X64\1033\LINKUI.DLL
C:\PROGRAM FILES (X86)\WINDOWS KITS\10\BIN\10.0.15063.0\X86\RC.EXE
C:\PROGRAM FILES (X86)\MICROSOFT VISUAL STUDIO\2017\ENTERPRISE\VC\TOOLS\MSVC\14.11.25503\BIN\HOSTX86\X86\CVTRES.EXE
