^C:\USERS\AK\DOWNLOADS\PROJECT2\PROJECT4\PROJECT4\BULLET3COLLISION\BROADPHASECOLLISION\B3DYNAMICBVH.CPP
/c /ZI /nologo /W3 /WX- /diagnostics:classic /sdl /Od /Oy- /D WIN32 /D _DEBUG /D _CONSOLE /D _UNICODE /D UNICODE /Gm /EHsc /RTC1 /MDd /GS /fp:precise /Zc:wchar_t /Zc:forScope /Zc:inline /Fo"DEBUG\\" /Fd"DEBUG\VC141.PDB" /Gd /TP /analyze- C:\USERS\AK\DOWNLOADS\PROJECT2\PROJECT4\PROJECT4\BULLET3COLLISION\BROADPHASECOLLISION\B3DYNAMICBVH.CPP
^C:\USERS\AK\DOWNLOADS\PROJECT2\PROJECT4\PROJECT4\BULLET3COLLISION\BROADPHASECOLLISION\B3DYNAMICBVHBROADPHASE.CPP
/c /ZI /nologo /W3 /WX- /diagnostics:classic /sdl /Od /Oy- /D WIN32 /D _DEBUG /D _CONSOLE /D _UNICODE /D UNICODE /Gm /EHsc /RTC1 /MDd /GS /fp:precise /Zc:wchar_t /Zc:forScope /Zc:inline /Fo"DEBUG\\" /Fd"DEBUG\VC141.PDB" /Gd /TP /analyze- C:\USERS\AK\DOWNLOADS\PROJECT2\PROJECT4\PROJECT4\BULLET3COLLISION\BROADPHASECOLLISION\B3DYNAMICBVHBROADPHASE.CPP
^C:\USERS\AK\DOWNLOADS\PROJECT2\PROJECT4\PROJECT4\BULLET3COLLISION\BROADPHASECOLLISION\B3OVERLAPPINGPAIRCACHE.CPP
/c /ZI /nologo /W3 /WX- /diagnostics:classic /sdl /Od /Oy- /D WIN32 /D _DEBUG /D _CONSOLE /D _UNICODE /D UNICODE /Gm /EHsc /RTC1 /MDd /GS /fp:precise /Zc:wchar_t /Zc:forScope /Zc:inline /Fo"DEBUG\\" /Fd"DEBUG\VC141.PDB" /Gd /TP /analyze- C:\USERS\AK\DOWNLOADS\PROJECT2\PROJECT4\PROJECT4\BULLET3COLLISION\BROADPHASECOLLISION\B3OVERLAPPINGPAIRCACHE.CPP
^C:\USERS\AK\DOWNLOADS\PROJECT2\PROJECT4\PROJECT4\BULLET3COLLISION\NARROWPHASECOLLISION\B3CONVEXUTILITY.CPP
/c /ZI /nologo /W3 /WX- /diagnostics:classic /sdl /Od /Oy- /D WIN32 /D _DEBUG /D _CONSOLE /D _UNICODE /D UNICODE /Gm /EHsc /RTC1 /MDd /GS /fp:precise /Zc:wchar_t /Zc:forScope /Zc:inline /Fo"DEBUG\\" /Fd"DEBUG\VC141.PDB" /Gd /TP /analyze- C:\USERS\AK\DOWNLOADS\PROJECT2\PROJECT4\PROJECT4\BULLET3COLLISION\NARROWPHASECOLLISION\B3CONVEXUTILITY.CPP
^C:\USERS\AK\DOWNLOADS\PROJECT2\PROJECT4\PROJECT4\BULLET3COLLISION\NARROWPHASECOLLISION\B3CPUNARROWPHASE.CPP
/c /ZI /nologo /W3 /WX- /diagnostics:classic /sdl /Od /Oy- /D WIN32 /D _DEBUG /D _CONSOLE /D _UNICODE /D UNICODE /Gm /EHsc /RTC1 /MDd /GS /fp:precise /Zc:wchar_t /Zc:forScope /Zc:inline /Fo"DEBUG\\" /Fd"DEBUG\VC141.PDB" /Gd /TP /analyze- C:\USERS\AK\DOWNLOADS\PROJECT2\PROJECT4\PROJECT4\BULLET3COLLISION\NARROWPHASECOLLISION\B3CPUNARROWPHASE.CPP
^C:\USERS\AK\DOWNLOADS\PROJECT2\PROJECT4\PROJECT4\BULLET3COMMON\B3ALIGNEDALLOCATOR.CPP
/c /ZI /nologo /W3 /WX- /diagnostics:classic /sdl /Od /Oy- /D WIN32 /D _DEBUG /D _CONSOLE /D _UNICODE /D UNICODE /Gm /EHsc /RTC1 /MDd /GS /fp:precise /Zc:wchar_t /Zc:forScope /Zc:inline /Fo"DEBUG\\" /Fd"DEBUG\VC141.PDB" /Gd /TP /analyze- C:\USERS\AK\DOWNLOADS\PROJECT2\PROJECT4\PROJECT4\BULLET3COMMON\B3ALIGNEDALLOCATOR.CPP
^C:\USERS\AK\DOWNLOADS\PROJECT2\PROJECT4\PROJECT4\BULLET3COMMON\B3LOGGING.CPP
/c /ZI /nologo /W3 /WX- /diagnostics:classic /sdl /Od /Oy- /D WIN32 /D _DEBUG /D _CONSOLE /D _UNICODE /D UNICODE /Gm /EHsc /RTC1 /MDd /GS /fp:precise /Zc:wchar_t /Zc:forScope /Zc:inline /Fo"DEBUG\\" /Fd"DEBUG\VC141.PDB" /Gd /TP /analyze- C:\USERS\AK\DOWNLOADS\PROJECT2\PROJECT4\PROJECT4\BULLET3COMMON\B3LOGGING.CPP
^C:\USERS\AK\DOWNLOADS\PROJECT2\PROJECT4\PROJECT4\BULLET3COMMON\B3VECTOR3.CPP
/c /ZI /nologo /W3 /WX- /diagnostics:classic /sdl /Od /Oy- /D WIN32 /D _DEBUG /D _CONSOLE /D _UNICODE /D UNICODE /Gm /EHsc /RTC1 /MDd /GS /fp:precise /Zc:wchar_t /Zc:forScope /Zc:inline /Fo"DEBUG\\" /Fd"DEBUG\VC141.PDB" /Gd /TP /analyze- C:\USERS\AK\DOWNLOADS\PROJECT2\PROJECT4\PROJECT4\BULLET3COMMON\B3VECTOR3.CPP
^C:\USERS\AK\DOWNLOADS\PROJECT2\PROJECT4\PROJECT4\BULLET3DYNAMICS\B3CPURIGIDBODYPIPELINE.CPP
/c /ZI /nologo /W3 /WX- /diagnostics:classic /sdl /Od /Oy- /D WIN32 /D _DEBUG /D _CONSOLE /D _UNICODE /D UNICODE /Gm /EHsc /RTC1 /MDd /GS /fp:precise /Zc:wchar_t /Zc:forScope /Zc:inline /Fo"DEBUG\\" /Fd"DEBUG\VC141.PDB" /Gd /TP /analyze- C:\USERS\AK\DOWNLOADS\PROJECT2\PROJECT4\PROJECT4\BULLET3DYNAMICS\B3CPURIGIDBODYPIPELINE.CPP
^C:\USERS\AK\DOWNLOADS\PROJECT2\PROJECT4\PROJECT4\BULLET3DYNAMICS\CONSTRAINTSOLVER\B3FIXEDCONSTRAINT.CPP
/c /ZI /nologo /W3 /WX- /diagnostics:classic /sdl /Od /Oy- /D WIN32 /D _DEBUG /D _CONSOLE /D _UNICODE /D UNICODE /Gm /EHsc /RTC1 /MDd /GS /fp:precise /Zc:wchar_t /Zc:forScope /Zc:inline /Fo"DEBUG\\" /Fd"DEBUG\VC141.PDB" /Gd /TP /analyze- C:\USERS\AK\DOWNLOADS\PROJECT2\PROJECT4\PROJECT4\BULLET3DYNAMICS\CONSTRAINTSOLVER\B3FIXEDCONSTRAINT.CPP
^C:\USERS\AK\DOWNLOADS\PROJECT2\PROJECT4\PROJECT4\BULLET3DYNAMICS\CONSTRAINTSOLVER\B3GENERIC6DOFCONSTRAINT.CPP
/c /ZI /nologo /W3 /WX- /diagnostics:classic /sdl /Od /Oy- /D WIN32 /D _DEBUG /D _CONSOLE /D _UNICODE /D UNICODE /Gm /EHsc /RTC1 /MDd /GS /fp:precise /Zc:wchar_t /Zc:forScope /Zc:inline /Fo"DEBUG\\" /Fd"DEBUG\VC141.PDB" /Gd /TP /analyze- C:\USERS\AK\DOWNLOADS\PROJECT2\PROJECT4\PROJECT4\BULLET3DYNAMICS\CONSTRAINTSOLVER\B3GENERIC6DOFCONSTRAINT.CPP
^C:\USERS\AK\DOWNLOADS\PROJECT2\PROJECT4\PROJECT4\BULLET3DYNAMICS\CONSTRAINTSOLVER\B3PGSJACOBISOLVER.CPP
/c /ZI /nologo /W3 /WX- /diagnostics:classic /sdl /Od /Oy- /D WIN32 /D _DEBUG /D _CONSOLE /D _UNICODE /D UNICODE /Gm /EHsc /RTC1 /MDd /GS /fp:precise /Zc:wchar_t /Zc:forScope /Zc:inline /Fo"DEBUG\\" /Fd"DEBUG\VC141.PDB" /Gd /TP /analyze- C:\USERS\AK\DOWNLOADS\PROJECT2\PROJECT4\PROJECT4\BULLET3DYNAMICS\CONSTRAINTSOLVER\B3PGSJACOBISOLVER.CPP
^C:\USERS\AK\DOWNLOADS\PROJECT2\PROJECT4\PROJECT4\BULLET3DYNAMICS\CONSTRAINTSOLVER\B3POINT2POINTCONSTRAINT.CPP
/c /ZI /nologo /W3 /WX- /diagnostics:classic /sdl /Od /Oy- /D WIN32 /D _DEBUG /D _CONSOLE /D _UNICODE /D UNICODE /Gm /EHsc /RTC1 /MDd /GS /fp:precise /Zc:wchar_t /Zc:forScope /Zc:inline /Fo"DEBUG\\" /Fd"DEBUG\VC141.PDB" /Gd /TP /analyze- C:\USERS\AK\DOWNLOADS\PROJECT2\PROJECT4\PROJECT4\BULLET3DYNAMICS\CONSTRAINTSOLVER\B3POINT2POINTCONSTRAINT.CPP
^C:\USERS\AK\DOWNLOADS\PROJECT2\PROJECT4\PROJECT4\BULLET3DYNAMICS\CONSTRAINTSOLVER\B3TYPEDCONSTRAINT.CPP
/c /ZI /nologo /W3 /WX- /diagnostics:classic /sdl /Od /Oy- /D WIN32 /D _DEBUG /D _CONSOLE /D _UNICODE /D UNICODE /Gm /EHsc /RTC1 /MDd /GS /fp:precise /Zc:wchar_t /Zc:forScope /Zc:inline /Fo"DEBUG\\" /Fd"DEBUG\VC141.PDB" /Gd /TP /analyze- C:\USERS\AK\DOWNLOADS\PROJECT2\PROJECT4\PROJECT4\BULLET3DYNAMICS\CONSTRAINTSOLVER\B3TYPEDCONSTRAINT.CPP
^C:\USERS\AK\DOWNLOADS\PROJECT2\PROJECT4\PROJECT4\BULLET3GEOMETRY\B3CONVEXHULLCOMPUTER.CPP
/c /ZI /nologo /W3 /WX- /diagnostics:classic /sdl /Od /Oy- /D WIN32 /D _DEBUG /D _CONSOLE /D _UNICODE /D UNICODE /Gm /EHsc /RTC1 /MDd /GS /fp:precise /Zc:wchar_t /Zc:forScope /Zc:inline /Fo"DEBUG\\" /Fd"DEBUG\VC141.PDB" /Gd /TP /analyze- C:\USERS\AK\DOWNLOADS\PROJECT2\PROJECT4\PROJECT4\BULLET3GEOMETRY\B3CONVEXHULLCOMPUTER.CPP
^C:\USERS\AK\DOWNLOADS\PROJECT2\PROJECT4\PROJECT4\BULLET3GEOMETRY\B3GEOMETRYUTIL.CPP
/c /ZI /nologo /W3 /WX- /diagnostics:classic /sdl /Od /Oy- /D WIN32 /D _DEBUG /D _CONSOLE /D _UNICODE /D UNICODE /Gm /EHsc /RTC1 /MDd /GS /fp:precise /Zc:wchar_t /Zc:forScope /Zc:inline /Fo"DEBUG\\" /Fd"DEBUG\VC141.PDB" /Gd /TP /analyze- C:\USERS\AK\DOWNLOADS\PROJECT2\PROJECT4\PROJECT4\BULLET3GEOMETRY\B3GEOMETRYUTIL.CPP
^C:\USERS\AK\DOWNLOADS\PROJECT2\PROJECT4\PROJECT4\BULLET3SERIALIZE\BULLET2FILELOADER\B3BULLETFILE.CPP
/c /ZI /nologo /W3 /WX- /diagnostics:classic /sdl /Od /Oy- /D WIN32 /D _DEBUG /D _CONSOLE /D _UNICODE /D UNICODE /Gm /EHsc /RTC1 /MDd /GS /fp:precise /Zc:wchar_t /Zc:forScope /Zc:inline /Fo"DEBUG\\" /Fd"DEBUG\VC141.PDB" /Gd /TP /analyze- C:\USERS\AK\DOWNLOADS\PROJECT2\PROJECT4\PROJECT4\BULLET3SERIALIZE\BULLET2FILELOADER\B3BULLETFILE.CPP
^C:\USERS\AK\DOWNLOADS\PROJECT2\PROJECT4\PROJECT4\BULLET3SERIALIZE\BULLET2FILELOADER\B3CHUNK.CPP
/c /ZI /nologo /W3 /WX- /diagnostics:classic /sdl /Od /Oy- /D WIN32 /D _DEBUG /D _CONSOLE /D _UNICODE /D UNICODE /Gm /EHsc /RTC1 /MDd /GS /fp:precise /Zc:wchar_t /Zc:forScope /Zc:inline /Fo"DEBUG\\" /Fd"DEBUG\VC141.PDB" /Gd /TP /analyze- C:\USERS\AK\DOWNLOADS\PROJECT2\PROJECT4\PROJECT4\BULLET3SERIALIZE\BULLET2FILELOADER\B3CHUNK.CPP
^C:\USERS\AK\DOWNLOADS\PROJECT2\PROJECT4\PROJECT4\BULLET3SERIALIZE\BULLET2FILELOADER\B3DNA.CPP
/c /ZI /nologo /W3 /WX- /diagnostics:classic /sdl /Od /Oy- /D WIN32 /D _DEBUG /D _CONSOLE /D _UNICODE /D UNICODE /Gm /EHsc /RTC1 /MDd /GS /fp:precise /Zc:wchar_t /Zc:forScope /Zc:inline /Fo"DEBUG\\" /Fd"DEBUG\VC141.PDB" /Gd /TP /analyze- C:\USERS\AK\DOWNLOADS\PROJECT2\PROJECT4\PROJECT4\BULLET3SERIALIZE\BULLET2FILELOADER\B3DNA.CPP
^C:\USERS\AK\DOWNLOADS\PROJECT2\PROJECT4\PROJECT4\BULLET3SERIALIZE\BULLET2FILELOADER\B3FILE.CPP
/c /ZI /nologo /W3 /WX- /diagnostics:classic /sdl /Od /Oy- /D WIN32 /D _DEBUG /D _CONSOLE /D _UNICODE /D UNICODE /Gm /EHsc /RTC1 /MDd /GS /fp:precise /Zc:wchar_t /Zc:forScope /Zc:inline /Fo"DEBUG\\" /Fd"DEBUG\VC141.PDB" /Gd /TP /analyze- C:\USERS\AK\DOWNLOADS\PROJECT2\PROJECT4\PROJECT4\BULLET3SERIALIZE\BULLET2FILELOADER\B3FILE.CPP
^C:\USERS\AK\DOWNLOADS\PROJECT2\PROJECT4\PROJECT4\BULLET3SERIALIZE\BULLET2FILELOADER\B3SERIALIZER.CPP
/c /ZI /nologo /W3 /WX- /diagnostics:classic /sdl /Od /Oy- /D WIN32 /D _DEBUG /D _CONSOLE /D _UNICODE /D UNICODE /Gm /EHsc /RTC1 /MDd /GS /fp:precise /Zc:wchar_t /Zc:forScope /Zc:inline /Fo"DEBUG\\" /Fd"DEBUG\VC141.PDB" /Gd /TP /analyze- C:\USERS\AK\DOWNLOADS\PROJECT2\PROJECT4\PROJECT4\BULLET3SERIALIZE\BULLET2FILELOADER\B3SERIALIZER.CPP
^C:\USERS\AK\DOWNLOADS\PROJECT2\PROJECT4\PROJECT4\BULLETCOLLISION\BROADPHASECOLLISION\BTAXISSWEEP3.CPP
/c /ZI /nologo /W3 /WX- /diagnostics:classic /sdl /Od /Oy- /D WIN32 /D _DEBUG /D _CONSOLE /D _UNICODE /D UNICODE /Gm /EHsc /RTC1 /MDd /GS /fp:precise /Zc:wchar_t /Zc:forScope /Zc:inline /Fo"DEBUG\\" /Fd"DEBUG\VC141.PDB" /Gd /TP /analyze- C:\USERS\AK\DOWNLOADS\PROJECT2\PROJECT4\PROJECT4\BULLETCOLLISION\BROADPHASECOLLISION\BTAXISSWEEP3.CPP
^C:\USERS\AK\DOWNLOADS\PROJECT2\PROJECT4\PROJECT4\BULLETCOLLISION\BROADPHASECOLLISION\BTBROADPHASEPROXY.CPP
/c /ZI /nologo /W3 /WX- /diagnostics:classic /sdl /Od /Oy- /D WIN32 /D _DEBUG /D _CONSOLE /D _UNICODE /D UNICODE /Gm /EHsc /RTC1 /MDd /GS /fp:precise /Zc:wchar_t /Zc:forScope /Zc:inline /Fo"DEBUG\\" /Fd"DEBUG\VC141.PDB" /Gd /TP /analyze- C:\USERS\AK\DOWNLOADS\PROJECT2\PROJECT4\PROJECT4\BULLETCOLLISION\BROADPHASECOLLISION\BTBROADPHASEPROXY.CPP
^C:\USERS\AK\DOWNLOADS\PROJECT2\PROJECT4\PROJECT4\BULLETCOLLISION\BROADPHASECOLLISION\BTCOLLISIONALGORITHM.CPP
/c /ZI /nologo /W3 /WX- /diagnostics:classic /sdl /Od /Oy- /D WIN32 /D _DEBUG /D _CONSOLE /D _UNICODE /D UNICODE /Gm /EHsc /RTC1 /MDd /GS /fp:precise /Zc:wchar_t /Zc:forScope /Zc:inline /Fo"DEBUG\\" /Fd"DEBUG\VC141.PDB" /Gd /TP /analyze- C:\USERS\AK\DOWNLOADS\PROJECT2\PROJECT4\PROJECT4\BULLETCOLLISION\BROADPHASECOLLISION\BTCOLLISIONALGORITHM.CPP
^C:\USERS\AK\DOWNLOADS\PROJECT2\PROJECT4\PROJECT4\BULLETCOLLISION\BROADPHASECOLLISION\BTDBVT.CPP
/c /ZI /nologo /W3 /WX- /diagnostics:classic /sdl /Od /Oy- /D WIN32 /D _DEBUG /D _CONSOLE /D _UNICODE /D UNICODE /Gm /EHsc /RTC1 /MDd /GS /fp:precise /Zc:wchar_t /Zc:forScope /Zc:inline /Fo"DEBUG\\" /Fd"DEBUG\VC141.PDB" /Gd /TP /analyze- C:\USERS\AK\DOWNLOADS\PROJECT2\PROJECT4\PROJECT4\BULLETCOLLISION\BROADPHASECOLLISION\BTDBVT.CPP
^C:\USERS\AK\DOWNLOADS\PROJECT2\PROJECT4\PROJECT4\BULLETCOLLISION\BROADPHASECOLLISION\BTDBVTBROADPHASE.CPP
/c /ZI /nologo /W3 /WX- /diagnostics:classic /sdl /Od /Oy- /D WIN32 /D _DEBUG /D _CONSOLE /D _UNICODE /D UNICODE /Gm /EHsc /RTC1 /MDd /GS /fp:precise /Zc:wchar_t /Zc:forScope /Zc:inline /Fo"DEBUG\\" /Fd"DEBUG\VC141.PDB" /Gd /TP /analyze- C:\USERS\AK\DOWNLOADS\PROJECT2\PROJECT4\PROJECT4\BULLETCOLLISION\BROADPHASECOLLISION\BTDBVTBROADPHASE.CPP
^C:\USERS\AK\DOWNLOADS\PROJECT2\PROJECT4\PROJECT4\BULLETCOLLISION\BROADPHASECOLLISION\BTDISPATCHER.CPP
/c /ZI /nologo /W3 /WX- /diagnostics:classic /sdl /Od /Oy- /D WIN32 /D _DEBUG /D _CONSOLE /D _UNICODE /D UNICODE /Gm /EHsc /RTC1 /MDd /GS /fp:precise /Zc:wchar_t /Zc:forScope /Zc:inline /Fo"DEBUG\\" /Fd"DEBUG\VC141.PDB" /Gd /TP /analyze- C:\USERS\AK\DOWNLOADS\PROJECT2\PROJECT4\PROJECT4\BULLETCOLLISION\BROADPHASECOLLISION\BTDISPATCHER.CPP
^C:\USERS\AK\DOWNLOADS\PROJECT2\PROJECT4\PROJECT4\BULLETCOLLISION\BROADPHASECOLLISION\BTOVERLAPPINGPAIRCACHE.CPP
/c /ZI /nologo /W3 /WX- /diagnostics:classic /sdl /Od /Oy- /D WIN32 /D _DEBUG /D _CONSOLE /D _UNICODE /D UNICODE /Gm /EHsc /RTC1 /MDd /GS /fp:precise /Zc:wchar_t /Zc:forScope /Zc:inline /Fo"DEBUG\\" /Fd"DEBUG\VC141.PDB" /Gd /TP /analyze- C:\USERS\AK\DOWNLOADS\PROJECT2\PROJECT4\PROJECT4\BULLETCOLLISION\BROADPHASECOLLISION\BTOVERLAPPINGPAIRCACHE.CPP
^C:\USERS\AK\DOWNLOADS\PROJECT2\PROJECT4\PROJECT4\BULLETCOLLISION\BROADPHASECOLLISION\BTQUANTIZEDBVH.CPP
/c /ZI /nologo /W3 /WX- /diagnostics:classic /sdl /Od /Oy- /D WIN32 /D _DEBUG /D _CONSOLE /D _UNICODE /D UNICODE /Gm /EHsc /RTC1 /MDd /GS /fp:precise /Zc:wchar_t /Zc:forScope /Zc:inline /Fo"DEBUG\\" /Fd"DEBUG\VC141.PDB" /Gd /TP /analyze- C:\USERS\AK\DOWNLOADS\PROJECT2\PROJECT4\PROJECT4\BULLETCOLLISION\BROADPHASECOLLISION\BTQUANTIZEDBVH.CPP
^C:\USERS\AK\DOWNLOADS\PROJECT2\PROJECT4\PROJECT4\BULLETCOLLISION\BROADPHASECOLLISION\BTSIMPLEBROADPHASE.CPP
/c /ZI /nologo /W3 /WX- /diagnostics:classic /sdl /Od /Oy- /D WIN32 /D _DEBUG /D _CONSOLE /D _UNICODE /D UNICODE /Gm /EHsc /RTC1 /MDd /GS /fp:precise /Zc:wchar_t /Zc:forScope /Zc:inline /Fo"DEBUG\\" /Fd"DEBUG\VC141.PDB" /Gd /TP /analyze- C:\USERS\AK\DOWNLOADS\PROJECT2\PROJECT4\PROJECT4\BULLETCOLLISION\BROADPHASECOLLISION\BTSIMPLEBROADPHASE.CPP
^C:\USERS\AK\DOWNLOADS\PROJECT2\PROJECT4\PROJECT4\BULLETCOLLISION\COLLISIONDISPATCH\BTACTIVATINGCOLLISIONALGORITHM.CPP
/c /ZI /nologo /W3 /WX- /diagnostics:classic /sdl /Od /Oy- /D WIN32 /D _DEBUG /D _CONSOLE /D _UNICODE /D UNICODE /Gm /EHsc /RTC1 /MDd /GS /fp:precise /Zc:wchar_t /Zc:forScope /Zc:inline /Fo"DEBUG\\" /Fd"DEBUG\VC141.PDB" /Gd /TP /analyze- C:\USERS\AK\DOWNLOADS\PROJECT2\PROJECT4\PROJECT4\BULLETCOLLISION\COLLISIONDISPATCH\BTACTIVATINGCOLLISIONALGORITHM.CPP
^C:\USERS\AK\DOWNLOADS\PROJECT2\PROJECT4\PROJECT4\BULLETCOLLISION\COLLISIONDISPATCH\BTBOX2DBOX2DCOLLISIONALGORITHM.CPP
/c /ZI /nologo /W3 /WX- /diagnostics:classic /sdl /Od /Oy- /D WIN32 /D _DEBUG /D _CONSOLE /D _UNICODE /D UNICODE /Gm /EHsc /RTC1 /MDd /GS /fp:precise /Zc:wchar_t /Zc:forScope /Zc:inline /Fo"DEBUG\\" /Fd"DEBUG\VC141.PDB" /Gd /TP /analyze- C:\USERS\AK\DOWNLOADS\PROJECT2\PROJECT4\PROJECT4\BULLETCOLLISION\COLLISIONDISPATCH\BTBOX2DBOX2DCOLLISIONALGORITHM.CPP
^C:\USERS\AK\DOWNLOADS\PROJECT2\PROJECT4\PROJECT4\BULLETCOLLISION\COLLISIONDISPATCH\BTBOXBOXCOLLISIONALGORITHM.CPP
/c /ZI /nologo /W3 /WX- /diagnostics:classic /sdl /Od /Oy- /D WIN32 /D _DEBUG /D _CONSOLE /D _UNICODE /D UNICODE /Gm /EHsc /RTC1 /MDd /GS /fp:precise /Zc:wchar_t /Zc:forScope /Zc:inline /Fo"DEBUG\\" /Fd"DEBUG\VC141.PDB" /Gd /TP /analyze- C:\USERS\AK\DOWNLOADS\PROJECT2\PROJECT4\PROJECT4\BULLETCOLLISION\COLLISIONDISPATCH\BTBOXBOXCOLLISIONALGORITHM.CPP
^C:\USERS\AK\DOWNLOADS\PROJECT2\PROJECT4\PROJECT4\BULLETCOLLISION\COLLISIONDISPATCH\BTBOXBOXDETECTOR.CPP
/c /ZI /nologo /W3 /WX- /diagnostics:classic /sdl /Od /Oy- /D WIN32 /D _DEBUG /D _CONSOLE /D _UNICODE /D UNICODE /Gm /EHsc /RTC1 /MDd /GS /fp:precise /Zc:wchar_t /Zc:forScope /Zc:inline /Fo"DEBUG\\" /Fd"DEBUG\VC141.PDB" /Gd /TP /analyze- C:\USERS\AK\DOWNLOADS\PROJECT2\PROJECT4\PROJECT4\BULLETCOLLISION\COLLISIONDISPATCH\BTBOXBOXDETECTOR.CPP
^C:\USERS\AK\DOWNLOADS\PROJECT2\PROJECT4\PROJECT4\BULLETCOLLISION\COLLISIONDISPATCH\BTCOLLISIONDISPATCHER.CPP
/c /ZI /nologo /W3 /WX- /diagnostics:classic /sdl /Od /Oy- /D WIN32 /D _DEBUG /D _CONSOLE /D _UNICODE /D UNICODE /Gm /EHsc /RTC1 /MDd /GS /fp:precise /Zc:wchar_t /Zc:forScope /Zc:inline /Fo"DEBUG\\" /Fd"DEBUG\VC141.PDB" /Gd /TP /analyze- C:\USERS\AK\DOWNLOADS\PROJECT2\PROJECT4\PROJECT4\BULLETCOLLISION\COLLISIONDISPATCH\BTCOLLISIONDISPATCHER.CPP
^C:\USERS\AK\DOWNLOADS\PROJECT2\PROJECT4\PROJECT4\BULLETCOLLISION\COLLISIONDISPATCH\BTCOLLISIONDISPATCHERMT.CPP
/c /ZI /nologo /W3 /WX- /diagnostics:classic /sdl /Od /Oy- /D WIN32 /D _DEBUG /D _CONSOLE /D _UNICODE /D UNICODE /Gm /EHsc /RTC1 /MDd /GS /fp:precise /Zc:wchar_t /Zc:forScope /Zc:inline /Fo"DEBUG\\" /Fd"DEBUG\VC141.PDB" /Gd /TP /analyze- C:\USERS\AK\DOWNLOADS\PROJECT2\PROJECT4\PROJECT4\BULLETCOLLISION\COLLISIONDISPATCH\BTCOLLISIONDISPATCHERMT.CPP
^C:\USERS\AK\DOWNLOADS\PROJECT2\PROJECT4\PROJECT4\BULLETCOLLISION\COLLISIONDISPATCH\BTCOLLISIONOBJECT.CPP
/c /ZI /nologo /W3 /WX- /diagnostics:classic /sdl /Od /Oy- /D WIN32 /D _DEBUG /D _CONSOLE /D _UNICODE /D UNICODE /Gm /EHsc /RTC1 /MDd /GS /fp:precise /Zc:wchar_t /Zc:forScope /Zc:inline /Fo"DEBUG\\" /Fd"DEBUG\VC141.PDB" /Gd /TP /analyze- C:\USERS\AK\DOWNLOADS\PROJECT2\PROJECT4\PROJECT4\BULLETCOLLISION\COLLISIONDISPATCH\BTCOLLISIONOBJECT.CPP
^C:\USERS\AK\DOWNLOADS\PROJECT2\PROJECT4\PROJECT4\BULLETCOLLISION\COLLISIONDISPATCH\BTCOLLISIONWORLD.CPP
/c /ZI /nologo /W3 /WX- /diagnostics:classic /sdl /Od /Oy- /D WIN32 /D _DEBUG /D _CONSOLE /D _UNICODE /D UNICODE /Gm /EHsc /RTC1 /MDd /GS /fp:precise /Zc:wchar_t /Zc:forScope /Zc:inline /Fo"DEBUG\\" /Fd"DEBUG\VC141.PDB" /Gd /TP /analyze- C:\USERS\AK\DOWNLOADS\PROJECT2\PROJECT4\PROJECT4\BULLETCOLLISION\COLLISIONDISPATCH\BTCOLLISIONWORLD.CPP
^C:\USERS\AK\DOWNLOADS\PROJECT2\PROJECT4\PROJECT4\BULLETCOLLISION\COLLISIONDISPATCH\BTCOLLISIONWORLDIMPORTER.CPP
/c /ZI /nologo /W3 /WX- /diagnostics:classic /sdl /Od /Oy- /D WIN32 /D _DEBUG /D _CONSOLE /D _UNICODE /D UNICODE /Gm /EHsc /RTC1 /MDd /GS /fp:precise /Zc:wchar_t /Zc:forScope /Zc:inline /Fo"DEBUG\\" /Fd"DEBUG\VC141.PDB" /Gd /TP /analyze- C:\USERS\AK\DOWNLOADS\PROJECT2\PROJECT4\PROJECT4\BULLETCOLLISION\COLLISIONDISPATCH\BTCOLLISIONWORLDIMPORTER.CPP
^C:\USERS\AK\DOWNLOADS\PROJECT2\PROJECT4\PROJECT4\BULLETCOLLISION\COLLISIONDISPATCH\BTCOMPOUNDCOLLISIONALGORITHM.CPP
/c /ZI /nologo /W3 /WX- /diagnostics:classic /sdl /Od /Oy- /D WIN32 /D _DEBUG /D _CONSOLE /D _UNICODE /D UNICODE /Gm /EHsc /RTC1 /MDd /GS /fp:precise /Zc:wchar_t /Zc:forScope /Zc:inline /Fo"DEBUG\\" /Fd"DEBUG\VC141.PDB" /Gd /TP /analyze- C:\USERS\AK\DOWNLOADS\PROJECT2\PROJECT4\PROJECT4\BULLETCOLLISION\COLLISIONDISPATCH\BTCOMPOUNDCOLLISIONALGORITHM.CPP
^C:\USERS\AK\DOWNLOADS\PROJECT2\PROJECT4\PROJECT4\BULLETCOLLISION\COLLISIONDISPATCH\BTCOMPOUNDCOMPOUNDCOLLISIONALGORITHM.CPP
/c /ZI /nologo /W3 /WX- /diagnostics:classic /sdl /Od /Oy- /D WIN32 /D _DEBUG /D _CONSOLE /D _UNICODE /D UNICODE /Gm /EHsc /RTC1 /MDd /GS /fp:precise /Zc:wchar_t /Zc:forScope /Zc:inline /Fo"DEBUG\\" /Fd"DEBUG\VC141.PDB" /Gd /TP /analyze- C:\USERS\AK\DOWNLOADS\PROJECT2\PROJECT4\PROJECT4\BULLETCOLLISION\COLLISIONDISPATCH\BTCOMPOUNDCOMPOUNDCOLLISIONALGORITHM.CPP
^C:\USERS\AK\DOWNLOADS\PROJECT2\PROJECT4\PROJECT4\BULLETCOLLISION\COLLISIONDISPATCH\BTCONVEX2DCONVEX2DALGORITHM.CPP
/c /ZI /nologo /W3 /WX- /diagnostics:classic /sdl /Od /Oy- /D WIN32 /D _DEBUG /D _CONSOLE /D _UNICODE /D UNICODE /Gm /EHsc /RTC1 /MDd /GS /fp:precise /Zc:wchar_t /Zc:forScope /Zc:inline /Fo"DEBUG\\" /Fd"DEBUG\VC141.PDB" /Gd /TP /analyze- C:\USERS\AK\DOWNLOADS\PROJECT2\PROJECT4\PROJECT4\BULLETCOLLISION\COLLISIONDISPATCH\BTCONVEX2DCONVEX2DALGORITHM.CPP
^C:\USERS\AK\DOWNLOADS\PROJECT2\PROJECT4\PROJECT4\BULLETCOLLISION\COLLISIONDISPATCH\BTCONVEXCONCAVECOLLISIONALGORITHM.CPP
/c /ZI /nologo /W3 /WX- /diagnostics:classic /sdl /Od /Oy- /D WIN32 /D _DEBUG /D _CONSOLE /D _UNICODE /D UNICODE /Gm /EHsc /RTC1 /MDd /GS /fp:precise /Zc:wchar_t /Zc:forScope /Zc:inline /Fo"DEBUG\\" /Fd"DEBUG\VC141.PDB" /Gd /TP /analyze- C:\USERS\AK\DOWNLOADS\PROJECT2\PROJECT4\PROJECT4\BULLETCOLLISION\COLLISIONDISPATCH\BTCONVEXCONCAVECOLLISIONALGORITHM.CPP
^C:\USERS\AK\DOWNLOADS\PROJECT2\PROJECT4\PROJECT4\BULLETCOLLISION\COLLISIONDISPATCH\BTCONVEXCONVEXALGORITHM.CPP
/c /ZI /nologo /W3 /WX- /diagnostics:classic /sdl /Od /Oy- /D WIN32 /D _DEBUG /D _CONSOLE /D _UNICODE /D UNICODE /Gm /EHsc /RTC1 /MDd /GS /fp:precise /Zc:wchar_t /Zc:forScope /Zc:inline /Fo"DEBUG\\" /Fd"DEBUG\VC141.PDB" /Gd /TP /analyze- C:\USERS\AK\DOWNLOADS\PROJECT2\PROJECT4\PROJECT4\BULLETCOLLISION\COLLISIONDISPATCH\BTCONVEXCONVEXALGORITHM.CPP
^C:\USERS\AK\DOWNLOADS\PROJECT2\PROJECT4\PROJECT4\BULLETCOLLISION\COLLISIONDISPATCH\BTCONVEXPLANECOLLISIONALGORITHM.CPP
/c /ZI /nologo /W3 /WX- /diagnostics:classic /sdl /Od /Oy- /D WIN32 /D _DEBUG /D _CONSOLE /D _UNICODE /D UNICODE /Gm /EHsc /RTC1 /MDd /GS /fp:precise /Zc:wchar_t /Zc:forScope /Zc:inline /Fo"DEBUG\\" /Fd"DEBUG\VC141.PDB" /Gd /TP /analyze- C:\USERS\AK\DOWNLOADS\PROJECT2\PROJECT4\PROJECT4\BULLETCOLLISION\COLLISIONDISPATCH\BTCONVEXPLANECOLLISIONALGORITHM.CPP
^C:\USERS\AK\DOWNLOADS\PROJECT2\PROJECT4\PROJECT4\BULLETCOLLISION\COLLISIONDISPATCH\BTDEFAULTCOLLISIONCONFIGURATION.CPP
/c /ZI /nologo /W3 /WX- /diagnostics:classic /sdl /Od /Oy- /D WIN32 /D _DEBUG /D _CONSOLE /D _UNICODE /D UNICODE /Gm /EHsc /RTC1 /MDd /GS /fp:precise /Zc:wchar_t /Zc:forScope /Zc:inline /Fo"DEBUG\\" /Fd"DEBUG\VC141.PDB" /Gd /TP /analyze- C:\USERS\AK\DOWNLOADS\PROJECT2\PROJECT4\PROJECT4\BULLETCOLLISION\COLLISIONDISPATCH\BTDEFAULTCOLLISIONCONFIGURATION.CPP
^C:\USERS\AK\DOWNLOADS\PROJECT2\PROJECT4\PROJECT4\BULLETCOLLISION\COLLISIONDISPATCH\BTEMPTYCOLLISIONALGORITHM.CPP
/c /ZI /nologo /W3 /WX- /diagnostics:classic /sdl /Od /Oy- /D WIN32 /D _DEBUG /D _CONSOLE /D _UNICODE /D UNICODE /Gm /EHsc /RTC1 /MDd /GS /fp:precise /Zc:wchar_t /Zc:forScope /Zc:inline /Fo"DEBUG\\" /Fd"DEBUG\VC141.PDB" /Gd /TP /analyze- C:\USERS\AK\DOWNLOADS\PROJECT2\PROJECT4\PROJECT4\BULLETCOLLISION\COLLISIONDISPATCH\BTEMPTYCOLLISIONALGORITHM.CPP
^C:\USERS\AK\DOWNLOADS\PROJECT2\PROJECT4\PROJECT4\BULLETCOLLISION\COLLISIONDISPATCH\BTGHOSTOBJECT.CPP
/c /ZI /nologo /W3 /WX- /diagnostics:classic /sdl /Od /Oy- /D WIN32 /D _DEBUG /D _CONSOLE /D _UNICODE /D UNICODE /Gm /EHsc /RTC1 /MDd /GS /fp:precise /Zc:wchar_t /Zc:forScope /Zc:inline /Fo"DEBUG\\" /Fd"DEBUG\VC141.PDB" /Gd /TP /analyze- C:\USERS\AK\DOWNLOADS\PROJECT2\PROJECT4\PROJECT4\BULLETCOLLISION\COLLISIONDISPATCH\BTGHOSTOBJECT.CPP
^C:\USERS\AK\DOWNLOADS\PROJECT2\PROJECT4\PROJECT4\BULLETCOLLISION\COLLISIONDISPATCH\BTHASHEDSIMPLEPAIRCACHE.CPP
/c /ZI /nologo /W3 /WX- /diagnostics:classic /sdl /Od /Oy- /D WIN32 /D _DEBUG /D _CONSOLE /D _UNICODE /D UNICODE /Gm /EHsc /RTC1 /MDd /GS /fp:precise /Zc:wchar_t /Zc:forScope /Zc:inline /Fo"DEBUG\\" /Fd"DEBUG\VC141.PDB" /Gd /TP /analyze- C:\USERS\AK\DOWNLOADS\PROJECT2\PROJECT4\PROJECT4\BULLETCOLLISION\COLLISIONDISPATCH\BTHASHEDSIMPLEPAIRCACHE.CPP
^C:\USERS\AK\DOWNLOADS\PROJECT2\PROJECT4\PROJECT4\BULLETCOLLISION\COLLISIONDISPATCH\BTINTERNALEDGEUTILITY.CPP
/c /ZI /nologo /W3 /WX- /diagnostics:classic /sdl /Od /Oy- /D WIN32 /D _DEBUG /D _CONSOLE /D _UNICODE /D UNICODE /Gm /EHsc /RTC1 /MDd /GS /fp:precise /Zc:wchar_t /Zc:forScope /Zc:inline /Fo"DEBUG\\" /Fd"DEBUG\VC141.PDB" /Gd /TP /analyze- C:\USERS\AK\DOWNLOADS\PROJECT2\PROJECT4\PROJECT4\BULLETCOLLISION\COLLISIONDISPATCH\BTINTERNALEDGEUTILITY.CPP
^C:\USERS\AK\DOWNLOADS\PROJECT2\PROJECT4\PROJECT4\BULLETCOLLISION\COLLISIONDISPATCH\BTMANIFOLDRESULT.CPP
/c /ZI /nologo /W3 /WX- /diagnostics:classic /sdl /Od /Oy- /D WIN32 /D _DEBUG /D _CONSOLE /D _UNICODE /D UNICODE /Gm /EHsc /RTC1 /MDd /GS /fp:precise /Zc:wchar_t /Zc:forScope /Zc:inline /Fo"DEBUG\\" /Fd"DEBUG\VC141.PDB" /Gd /TP /analyze- C:\USERS\AK\DOWNLOADS\PROJECT2\PROJECT4\PROJECT4\BULLETCOLLISION\COLLISIONDISPATCH\BTMANIFOLDRESULT.CPP
^C:\USERS\AK\DOWNLOADS\PROJECT2\PROJECT4\PROJECT4\BULLETCOLLISION\COLLISIONDISPATCH\BTSIMULATIONISLANDMANAGER.CPP
/c /ZI /nologo /W3 /WX- /diagnostics:classic /sdl /Od /Oy- /D WIN32 /D _DEBUG /D _CONSOLE /D _UNICODE /D UNICODE /Gm /EHsc /RTC1 /MDd /GS /fp:precise /Zc:wchar_t /Zc:forScope /Zc:inline /Fo"DEBUG\\" /Fd"DEBUG\VC141.PDB" /Gd /TP /analyze- C:\USERS\AK\DOWNLOADS\PROJECT2\PROJECT4\PROJECT4\BULLETCOLLISION\COLLISIONDISPATCH\BTSIMULATIONISLANDMANAGER.CPP
^C:\USERS\AK\DOWNLOADS\PROJECT2\PROJECT4\PROJECT4\BULLETCOLLISION\COLLISIONDISPATCH\BTSPHEREBOXCOLLISIONALGORITHM.CPP
/c /ZI /nologo /W3 /WX- /diagnostics:classic /sdl /Od /Oy- /D WIN32 /D _DEBUG /D _CONSOLE /D _UNICODE /D UNICODE /Gm /EHsc /RTC1 /MDd /GS /fp:precise /Zc:wchar_t /Zc:forScope /Zc:inline /Fo"DEBUG\\" /Fd"DEBUG\VC141.PDB" /Gd /TP /analyze- C:\USERS\AK\DOWNLOADS\PROJECT2\PROJECT4\PROJECT4\BULLETCOLLISION\COLLISIONDISPATCH\BTSPHEREBOXCOLLISIONALGORITHM.CPP
^C:\USERS\AK\DOWNLOADS\PROJECT2\PROJECT4\PROJECT4\BULLETCOLLISION\COLLISIONDISPATCH\BTSPHERESPHERECOLLISIONALGORITHM.CPP
/c /ZI /nologo /W3 /WX- /diagnostics:classic /sdl /Od /Oy- /D WIN32 /D _DEBUG /D _CONSOLE /D _UNICODE /D UNICODE /Gm /EHsc /RTC1 /MDd /GS /fp:precise /Zc:wchar_t /Zc:forScope /Zc:inline /Fo"DEBUG\\" /Fd"DEBUG\VC141.PDB" /Gd /TP /analyze- C:\USERS\AK\DOWNLOADS\PROJECT2\PROJECT4\PROJECT4\BULLETCOLLISION\COLLISIONDISPATCH\BTSPHERESPHERECOLLISIONALGORITHM.CPP
^C:\USERS\AK\DOWNLOADS\PROJECT2\PROJECT4\PROJECT4\BULLETCOLLISION\COLLISIONDISPATCH\BTSPHERETRIANGLECOLLISIONALGORITHM.CPP
/c /ZI /nologo /W3 /WX- /diagnostics:classic /sdl /Od /Oy- /D WIN32 /D _DEBUG /D _CONSOLE /D _UNICODE /D UNICODE /Gm /EHsc /RTC1 /MDd /GS /fp:precise /Zc:wchar_t /Zc:forScope /Zc:inline /Fo"DEBUG\\" /Fd"DEBUG\VC141.PDB" /Gd /TP /analyze- C:\USERS\AK\DOWNLOADS\PROJECT2\PROJECT4\PROJECT4\BULLETCOLLISION\COLLISIONDISPATCH\BTSPHERETRIANGLECOLLISIONALGORITHM.CPP
^C:\USERS\AK\DOWNLOADS\PROJECT2\PROJECT4\PROJECT4\BULLETCOLLISION\COLLISIONDISPATCH\BTUNIONFIND.CPP
/c /ZI /nologo /W3 /WX- /diagnostics:classic /sdl /Od /Oy- /D WIN32 /D _DEBUG /D _CONSOLE /D _UNICODE /D UNICODE /Gm /EHsc /RTC1 /MDd /GS /fp:precise /Zc:wchar_t /Zc:forScope /Zc:inline /Fo"DEBUG\\" /Fd"DEBUG\VC141.PDB" /Gd /TP /analyze- C:\USERS\AK\DOWNLOADS\PROJECT2\PROJECT4\PROJECT4\BULLETCOLLISION\COLLISIONDISPATCH\BTUNIONFIND.CPP
^C:\USERS\AK\DOWNLOADS\PROJECT2\PROJECT4\PROJECT4\BULLETCOLLISION\COLLISIONDISPATCH\SPHERETRIANGLEDETECTOR.CPP
/c /ZI /nologo /W3 /WX- /diagnostics:classic /sdl /Od /Oy- /D WIN32 /D _DEBUG /D _CONSOLE /D _UNICODE /D UNICODE /Gm /EHsc /RTC1 /MDd /GS /fp:precise /Zc:wchar_t /Zc:forScope /Zc:inline /Fo"DEBUG\\" /Fd"DEBUG\VC141.PDB" /Gd /TP /analyze- C:\USERS\AK\DOWNLOADS\PROJECT2\PROJECT4\PROJECT4\BULLETCOLLISION\COLLISIONDISPATCH\SPHERETRIANGLEDETECTOR.CPP
^C:\USERS\AK\DOWNLOADS\PROJECT2\PROJECT4\PROJECT4\BULLETCOLLISION\COLLISIONSHAPES\BTBOX2DSHAPE.CPP
/c /ZI /nologo /W3 /WX- /diagnostics:classic /sdl /Od /Oy- /D WIN32 /D _DEBUG /D _CONSOLE /D _UNICODE /D UNICODE /Gm /EHsc /RTC1 /MDd /GS /fp:precise /Zc:wchar_t /Zc:forScope /Zc:inline /Fo"DEBUG\\" /Fd"DEBUG\VC141.PDB" /Gd /TP /analyze- C:\USERS\AK\DOWNLOADS\PROJECT2\PROJECT4\PROJECT4\BULLETCOLLISION\COLLISIONSHAPES\BTBOX2DSHAPE.CPP
^C:\USERS\AK\DOWNLOADS\PROJECT2\PROJECT4\PROJECT4\BULLETCOLLISION\COLLISIONSHAPES\BTBOXSHAPE.CPP
/c /ZI /nologo /W3 /WX- /diagnostics:classic /sdl /Od /Oy- /D WIN32 /D _DEBUG /D _CONSOLE /D _UNICODE /D UNICODE /Gm /EHsc /RTC1 /MDd /GS /fp:precise /Zc:wchar_t /Zc:forScope /Zc:inline /Fo"DEBUG\\" /Fd"DEBUG\VC141.PDB" /Gd /TP /analyze- C:\USERS\AK\DOWNLOADS\PROJECT2\PROJECT4\PROJECT4\BULLETCOLLISION\COLLISIONSHAPES\BTBOXSHAPE.CPP
^C:\USERS\AK\DOWNLOADS\PROJECT2\PROJECT4\PROJECT4\BULLETCOLLISION\COLLISIONSHAPES\BTBVHTRIANGLEMESHSHAPE.CPP
/c /ZI /nologo /W3 /WX- /diagnostics:classic /sdl /Od /Oy- /D WIN32 /D _DEBUG /D _CONSOLE /D _UNICODE /D UNICODE /Gm /EHsc /RTC1 /MDd /GS /fp:precise /Zc:wchar_t /Zc:forScope /Zc:inline /Fo"DEBUG\\" /Fd"DEBUG\VC141.PDB" /Gd /TP /analyze- C:\USERS\AK\DOWNLOADS\PROJECT2\PROJECT4\PROJECT4\BULLETCOLLISION\COLLISIONSHAPES\BTBVHTRIANGLEMESHSHAPE.CPP
^C:\USERS\AK\DOWNLOADS\PROJECT2\PROJECT4\PROJECT4\BULLETCOLLISION\COLLISIONSHAPES\BTCAPSULESHAPE.CPP
/c /ZI /nologo /W3 /WX- /diagnostics:classic /sdl /Od /Oy- /D WIN32 /D _DEBUG /D _CONSOLE /D _UNICODE /D UNICODE /Gm /EHsc /RTC1 /MDd /GS /fp:precise /Zc:wchar_t /Zc:forScope /Zc:inline /Fo"DEBUG\\" /Fd"DEBUG\VC141.PDB" /Gd /TP /analyze- C:\USERS\AK\DOWNLOADS\PROJECT2\PROJECT4\PROJECT4\BULLETCOLLISION\COLLISIONSHAPES\BTCAPSULESHAPE.CPP
^C:\USERS\AK\DOWNLOADS\PROJECT2\PROJECT4\PROJECT4\BULLETCOLLISION\COLLISIONSHAPES\BTCOLLISIONSHAPE.CPP
/c /ZI /nologo /W3 /WX- /diagnostics:classic /sdl /Od /Oy- /D WIN32 /D _DEBUG /D _CONSOLE /D _UNICODE /D UNICODE /Gm /EHsc /RTC1 /MDd /GS /fp:precise /Zc:wchar_t /Zc:forScope /Zc:inline /Fo"DEBUG\\" /Fd"DEBUG\VC141.PDB" /Gd /TP /analyze- C:\USERS\AK\DOWNLOADS\PROJECT2\PROJECT4\PROJECT4\BULLETCOLLISION\COLLISIONSHAPES\BTCOLLISIONSHAPE.CPP
^C:\USERS\AK\DOWNLOADS\PROJECT2\PROJECT4\PROJECT4\BULLETCOLLISION\COLLISIONSHAPES\BTCOMPOUNDSHAPE.CPP
/c /ZI /nologo /W3 /WX- /diagnostics:classic /sdl /Od /Oy- /D WIN32 /D _DEBUG /D _CONSOLE /D _UNICODE /D UNICODE /Gm /EHsc /RTC1 /MDd /GS /fp:precise /Zc:wchar_t /Zc:forScope /Zc:inline /Fo"DEBUG\\" /Fd"DEBUG\VC141.PDB" /Gd /TP /analyze- C:\USERS\AK\DOWNLOADS\PROJECT2\PROJECT4\PROJECT4\BULLETCOLLISION\COLLISIONSHAPES\BTCOMPOUNDSHAPE.CPP
^C:\USERS\AK\DOWNLOADS\PROJECT2\PROJECT4\PROJECT4\BULLETCOLLISION\COLLISIONSHAPES\BTCONCAVESHAPE.CPP
/c /ZI /nologo /W3 /WX- /diagnostics:classic /sdl /Od /Oy- /D WIN32 /D _DEBUG /D _CONSOLE /D _UNICODE /D UNICODE /Gm /EHsc /RTC1 /MDd /GS /fp:precise /Zc:wchar_t /Zc:forScope /Zc:inline /Fo"DEBUG\\" /Fd"DEBUG\VC141.PDB" /Gd /TP /analyze- C:\USERS\AK\DOWNLOADS\PROJECT2\PROJECT4\PROJECT4\BULLETCOLLISION\COLLISIONSHAPES\BTCONCAVESHAPE.CPP
^C:\USERS\AK\DOWNLOADS\PROJECT2\PROJECT4\PROJECT4\BULLETCOLLISION\COLLISIONSHAPES\BTCONESHAPE.CPP
/c /ZI /nologo /W3 /WX- /diagnostics:classic /sdl /Od /Oy- /D WIN32 /D _DEBUG /D _CONSOLE /D _UNICODE /D UNICODE /Gm /EHsc /RTC1 /MDd /GS /fp:precise /Zc:wchar_t /Zc:forScope /Zc:inline /Fo"DEBUG\\" /Fd"DEBUG\VC141.PDB" /Gd /TP /analyze- C:\USERS\AK\DOWNLOADS\PROJECT2\PROJECT4\PROJECT4\BULLETCOLLISION\COLLISIONSHAPES\BTCONESHAPE.CPP
^C:\USERS\AK\DOWNLOADS\PROJECT2\PROJECT4\PROJECT4\BULLETCOLLISION\COLLISIONSHAPES\BTCONVEX2DSHAPE.CPP
/c /ZI /nologo /W3 /WX- /diagnostics:classic /sdl /Od /Oy- /D WIN32 /D _DEBUG /D _CONSOLE /D _UNICODE /D UNICODE /Gm /EHsc /RTC1 /MDd /GS /fp:precise /Zc:wchar_t /Zc:forScope /Zc:inline /Fo"DEBUG\\" /Fd"DEBUG\VC141.PDB" /Gd /TP /analyze- C:\USERS\AK\DOWNLOADS\PROJECT2\PROJECT4\PROJECT4\BULLETCOLLISION\COLLISIONSHAPES\BTCONVEX2DSHAPE.CPP
^C:\USERS\AK\DOWNLOADS\PROJECT2\PROJECT4\PROJECT4\BULLETCOLLISION\COLLISIONSHAPES\BTCONVEXHULLSHAPE.CPP
/c /ZI /nologo /W3 /WX- /diagnostics:classic /sdl /Od /Oy- /D WIN32 /D _DEBUG /D _CONSOLE /D _UNICODE /D UNICODE /Gm /EHsc /RTC1 /MDd /GS /fp:precise /Zc:wchar_t /Zc:forScope /Zc:inline /Fo"DEBUG\\" /Fd"DEBUG\VC141.PDB" /Gd /TP /analyze- C:\USERS\AK\DOWNLOADS\PROJECT2\PROJECT4\PROJECT4\BULLETCOLLISION\COLLISIONSHAPES\BTCONVEXHULLSHAPE.CPP
^C:\USERS\AK\DOWNLOADS\PROJECT2\PROJECT4\PROJECT4\BULLETCOLLISION\COLLISIONSHAPES\BTCONVEXINTERNALSHAPE.CPP
/c /ZI /nologo /W3 /WX- /diagnostics:classic /sdl /Od /Oy- /D WIN32 /D _DEBUG /D _CONSOLE /D _UNICODE /D UNICODE /Gm /EHsc /RTC1 /MDd /GS /fp:precise /Zc:wchar_t /Zc:forScope /Zc:inline /Fo"DEBUG\\" /Fd"DEBUG\VC141.PDB" /Gd /TP /analyze- C:\USERS\AK\DOWNLOADS\PROJECT2\PROJECT4\PROJECT4\BULLETCOLLISION\COLLISIONSHAPES\BTCONVEXINTERNALSHAPE.CPP
^C:\USERS\AK\DOWNLOADS\PROJECT2\PROJECT4\PROJECT4\BULLETCOLLISION\COLLISIONSHAPES\BTCONVEXPOINTCLOUDSHAPE.CPP
/c /ZI /nologo /W3 /WX- /diagnostics:classic /sdl /Od /Oy- /D WIN32 /D _DEBUG /D _CONSOLE /D _UNICODE /D UNICODE /Gm /EHsc /RTC1 /MDd /GS /fp:precise /Zc:wchar_t /Zc:forScope /Zc:inline /Fo"DEBUG\\" /Fd"DEBUG\VC141.PDB" /Gd /TP /analyze- C:\USERS\AK\DOWNLOADS\PROJECT2\PROJECT4\PROJECT4\BULLETCOLLISION\COLLISIONSHAPES\BTCONVEXPOINTCLOUDSHAPE.CPP
^C:\USERS\AK\DOWNLOADS\PROJECT2\PROJECT4\PROJECT4\BULLETCOLLISION\COLLISIONSHAPES\BTCONVEXPOLYHEDRON.CPP
/c /ZI /nologo /W3 /WX- /diagnostics:classic /sdl /Od /Oy- /D WIN32 /D _DEBUG /D _CONSOLE /D _UNICODE /D UNICODE /Gm /EHsc /RTC1 /MDd /GS /fp:precise /Zc:wchar_t /Zc:forScope /Zc:inline /Fo"DEBUG\\" /Fd"DEBUG\VC141.PDB" /Gd /TP /analyze- C:\USERS\AK\DOWNLOADS\PROJECT2\PROJECT4\PROJECT4\BULLETCOLLISION\COLLISIONSHAPES\BTCONVEXPOLYHEDRON.CPP
^C:\USERS\AK\DOWNLOADS\PROJECT2\PROJECT4\PROJECT4\BULLETCOLLISION\COLLISIONSHAPES\BTCONVEXSHAPE.CPP
/c /ZI /nologo /W3 /WX- /diagnostics:classic /sdl /Od /Oy- /D WIN32 /D _DEBUG /D _CONSOLE /D _UNICODE /D UNICODE /Gm /EHsc /RTC1 /MDd /GS /fp:precise /Zc:wchar_t /Zc:forScope /Zc:inline /Fo"DEBUG\\" /Fd"DEBUG\VC141.PDB" /Gd /TP /analyze- C:\USERS\AK\DOWNLOADS\PROJECT2\PROJECT4\PROJECT4\BULLETCOLLISION\COLLISIONSHAPES\BTCONVEXSHAPE.CPP
^C:\USERS\AK\DOWNLOADS\PROJECT2\PROJECT4\PROJECT4\BULLETCOLLISION\COLLISIONSHAPES\BTCONVEXTRIANGLEMESHSHAPE.CPP
/c /ZI /nologo /W3 /WX- /diagnostics:classic /sdl /Od /Oy- /D WIN32 /D _DEBUG /D _CONSOLE /D _UNICODE /D UNICODE /Gm /EHsc /RTC1 /MDd /GS /fp:precise /Zc:wchar_t /Zc:forScope /Zc:inline /Fo"DEBUG\\" /Fd"DEBUG\VC141.PDB" /Gd /TP /analyze- C:\USERS\AK\DOWNLOADS\PROJECT2\PROJECT4\PROJECT4\BULLETCOLLISION\COLLISIONSHAPES\BTCONVEXTRIANGLEMESHSHAPE.CPP
^C:\USERS\AK\DOWNLOADS\PROJECT2\PROJECT4\PROJECT4\BULLETCOLLISION\COLLISIONSHAPES\BTCYLINDERSHAPE.CPP
/c /ZI /nologo /W3 /WX- /diagnostics:classic /sdl /Od /Oy- /D WIN32 /D _DEBUG /D _CONSOLE /D _UNICODE /D UNICODE /Gm /EHsc /RTC1 /MDd /GS /fp:precise /Zc:wchar_t /Zc:forScope /Zc:inline /Fo"DEBUG\\" /Fd"DEBUG\VC141.PDB" /Gd /TP /analyze- C:\USERS\AK\DOWNLOADS\PROJECT2\PROJECT4\PROJECT4\BULLETCOLLISION\COLLISIONSHAPES\BTCYLINDERSHAPE.CPP
^C:\USERS\AK\DOWNLOADS\PROJECT2\PROJECT4\PROJECT4\BULLETCOLLISION\COLLISIONSHAPES\BTEMPTYSHAPE.CPP
/c /ZI /nologo /W3 /WX- /diagnostics:classic /sdl /Od /Oy- /D WIN32 /D _DEBUG /D _CONSOLE /D _UNICODE /D UNICODE /Gm /EHsc /RTC1 /MDd /GS /fp:precise /Zc:wchar_t /Zc:forScope /Zc:inline /Fo"DEBUG\\" /Fd"DEBUG\VC141.PDB" /Gd /TP /analyze- C:\USERS\AK\DOWNLOADS\PROJECT2\PROJECT4\PROJECT4\BULLETCOLLISION\COLLISIONSHAPES\BTEMPTYSHAPE.CPP
^C:\USERS\AK\DOWNLOADS\PROJECT2\PROJECT4\PROJECT4\BULLETCOLLISION\COLLISIONSHAPES\BTHEIGHTFIELDTERRAINSHAPE.CPP
/c /ZI /nologo /W3 /WX- /diagnostics:classic /sdl /Od /Oy- /D WIN32 /D _DEBUG /D _CONSOLE /D _UNICODE /D UNICODE /Gm /EHsc /RTC1 /MDd /GS /fp:precise /Zc:wchar_t /Zc:forScope /Zc:inline /Fo"DEBUG\\" /Fd"DEBUG\VC141.PDB" /Gd /TP /analyze- C:\USERS\AK\DOWNLOADS\PROJECT2\PROJECT4\PROJECT4\BULLETCOLLISION\COLLISIONSHAPES\BTHEIGHTFIELDTERRAINSHAPE.CPP
^C:\USERS\AK\DOWNLOADS\PROJECT2\PROJECT4\PROJECT4\BULLETCOLLISION\COLLISIONSHAPES\BTMINKOWSKISUMSHAPE.CPP
/c /ZI /nologo /W3 /WX- /diagnostics:classic /sdl /Od /Oy- /D WIN32 /D _DEBUG /D _CONSOLE /D _UNICODE /D UNICODE /Gm /EHsc /RTC1 /MDd /GS /fp:precise /Zc:wchar_t /Zc:forScope /Zc:inline /Fo"DEBUG\\" /Fd"DEBUG\VC141.PDB" /Gd /TP /analyze- C:\USERS\AK\DOWNLOADS\PROJECT2\PROJECT4\PROJECT4\BULLETCOLLISION\COLLISIONSHAPES\BTMINKOWSKISUMSHAPE.CPP
^C:\USERS\AK\DOWNLOADS\PROJECT2\PROJECT4\PROJECT4\BULLETCOLLISION\COLLISIONSHAPES\BTMULTIMATERIALTRIANGLEMESHSHAPE.CPP
/c /ZI /nologo /W3 /WX- /diagnostics:classic /sdl /Od /Oy- /D WIN32 /D _DEBUG /D _CONSOLE /D _UNICODE /D UNICODE /Gm /EHsc /RTC1 /MDd /GS /fp:precise /Zc:wchar_t /Zc:forScope /Zc:inline /Fo"DEBUG\\" /Fd"DEBUG\VC141.PDB" /Gd /TP /analyze- C:\USERS\AK\DOWNLOADS\PROJECT2\PROJECT4\PROJECT4\BULLETCOLLISION\COLLISIONSHAPES\BTMULTIMATERIALTRIANGLEMESHSHAPE.CPP
^C:\USERS\AK\DOWNLOADS\PROJECT2\PROJECT4\PROJECT4\BULLETCOLLISION\COLLISIONSHAPES\BTMULTISPHERESHAPE.CPP
/c /ZI /nologo /W3 /WX- /diagnostics:classic /sdl /Od /Oy- /D WIN32 /D _DEBUG /D _CONSOLE /D _UNICODE /D UNICODE /Gm /EHsc /RTC1 /MDd /GS /fp:precise /Zc:wchar_t /Zc:forScope /Zc:inline /Fo"DEBUG\\" /Fd"DEBUG\VC141.PDB" /Gd /TP /analyze- C:\USERS\AK\DOWNLOADS\PROJECT2\PROJECT4\PROJECT4\BULLETCOLLISION\COLLISIONSHAPES\BTMULTISPHERESHAPE.CPP
^C:\USERS\AK\DOWNLOADS\PROJECT2\PROJECT4\PROJECT4\BULLETCOLLISION\COLLISIONSHAPES\BTOPTIMIZEDBVH.CPP
/c /ZI /nologo /W3 /WX- /diagnostics:classic /sdl /Od /Oy- /D WIN32 /D _DEBUG /D _CONSOLE /D _UNICODE /D UNICODE /Gm /EHsc /RTC1 /MDd /GS /fp:precise /Zc:wchar_t /Zc:forScope /Zc:inline /Fo"DEBUG\\" /Fd"DEBUG\VC141.PDB" /Gd /TP /analyze- C:\USERS\AK\DOWNLOADS\PROJECT2\PROJECT4\PROJECT4\BULLETCOLLISION\COLLISIONSHAPES\BTOPTIMIZEDBVH.CPP
^C:\USERS\AK\DOWNLOADS\PROJECT2\PROJECT4\PROJECT4\BULLETCOLLISION\COLLISIONSHAPES\BTPOLYHEDRALCONVEXSHAPE.CPP
/c /ZI /nologo /W3 /WX- /diagnostics:classic /sdl /Od /Oy- /D WIN32 /D _DEBUG /D _CONSOLE /D _UNICODE /D UNICODE /Gm /EHsc /RTC1 /MDd /GS /fp:precise /Zc:wchar_t /Zc:forScope /Zc:inline /Fo"DEBUG\\" /Fd"DEBUG\VC141.PDB" /Gd /TP /analyze- C:\USERS\AK\DOWNLOADS\PROJECT2\PROJECT4\PROJECT4\BULLETCOLLISION\COLLISIONSHAPES\BTPOLYHEDRALCONVEXSHAPE.CPP
^C:\USERS\AK\DOWNLOADS\PROJECT2\PROJECT4\PROJECT4\BULLETCOLLISION\COLLISIONSHAPES\BTSCALEDBVHTRIANGLEMESHSHAPE.CPP
/c /ZI /nologo /W3 /WX- /diagnostics:classic /sdl /Od /Oy- /D WIN32 /D _DEBUG /D _CONSOLE /D _UNICODE /D UNICODE /Gm /EHsc /RTC1 /MDd /GS /fp:precise /Zc:wchar_t /Zc:forScope /Zc:inline /Fo"DEBUG\\" /Fd"DEBUG\VC141.PDB" /Gd /TP /analyze- C:\USERS\AK\DOWNLOADS\PROJECT2\PROJECT4\PROJECT4\BULLETCOLLISION\COLLISIONSHAPES\BTSCALEDBVHTRIANGLEMESHSHAPE.CPP
^C:\USERS\AK\DOWNLOADS\PROJECT2\PROJECT4\PROJECT4\BULLETCOLLISION\COLLISIONSHAPES\BTSHAPEHULL.CPP
/c /ZI /nologo /W3 /WX- /diagnostics:classic /sdl /Od /Oy- /D WIN32 /D _DEBUG /D _CONSOLE /D _UNICODE /D UNICODE /Gm /EHsc /RTC1 /MDd /GS /fp:precise /Zc:wchar_t /Zc:forScope /Zc:inline /Fo"DEBUG\\" /Fd"DEBUG\VC141.PDB" /Gd /TP /analyze- C:\USERS\AK\DOWNLOADS\PROJECT2\PROJECT4\PROJECT4\BULLETCOLLISION\COLLISIONSHAPES\BTSHAPEHULL.CPP
^C:\USERS\AK\DOWNLOADS\PROJECT2\PROJECT4\PROJECT4\BULLETCOLLISION\COLLISIONSHAPES\BTSPHERESHAPE.CPP
/c /ZI /nologo /W3 /WX- /diagnostics:classic /sdl /Od /Oy- /D WIN32 /D _DEBUG /D _CONSOLE /D _UNICODE /D UNICODE /Gm /EHsc /RTC1 /MDd /GS /fp:precise /Zc:wchar_t /Zc:forScope /Zc:inline /Fo"DEBUG\\" /Fd"DEBUG\VC141.PDB" /Gd /TP /analyze- C:\USERS\AK\DOWNLOADS\PROJECT2\PROJECT4\PROJECT4\BULLETCOLLISION\COLLISIONSHAPES\BTSPHERESHAPE.CPP
^C:\USERS\AK\DOWNLOADS\PROJECT2\PROJECT4\PROJECT4\BULLETCOLLISION\COLLISIONSHAPES\BTSTATICPLANESHAPE.CPP
/c /ZI /nologo /W3 /WX- /diagnostics:classic /sdl /Od /Oy- /D WIN32 /D _DEBUG /D _CONSOLE /D _UNICODE /D UNICODE /Gm /EHsc /RTC1 /MDd /GS /fp:precise /Zc:wchar_t /Zc:forScope /Zc:inline /Fo"DEBUG\\" /Fd"DEBUG\VC141.PDB" /Gd /TP /analyze- C:\USERS\AK\DOWNLOADS\PROJECT2\PROJECT4\PROJECT4\BULLETCOLLISION\COLLISIONSHAPES\BTSTATICPLANESHAPE.CPP
^C:\USERS\AK\DOWNLOADS\PROJECT2\PROJECT4\PROJECT4\BULLETCOLLISION\COLLISIONSHAPES\BTSTRIDINGMESHINTERFACE.CPP
/c /ZI /nologo /W3 /WX- /diagnostics:classic /sdl /Od /Oy- /D WIN32 /D _DEBUG /D _CONSOLE /D _UNICODE /D UNICODE /Gm /EHsc /RTC1 /MDd /GS /fp:precise /Zc:wchar_t /Zc:forScope /Zc:inline /Fo"DEBUG\\" /Fd"DEBUG\VC141.PDB" /Gd /TP /analyze- C:\USERS\AK\DOWNLOADS\PROJECT2\PROJECT4\PROJECT4\BULLETCOLLISION\COLLISIONSHAPES\BTSTRIDINGMESHINTERFACE.CPP
^C:\USERS\AK\DOWNLOADS\PROJECT2\PROJECT4\PROJECT4\BULLETCOLLISION\COLLISIONSHAPES\BTTETRAHEDRONSHAPE.CPP
/c /ZI /nologo /W3 /WX- /diagnostics:classic /sdl /Od /Oy- /D WIN32 /D _DEBUG /D _CONSOLE /D _UNICODE /D UNICODE /Gm /EHsc /RTC1 /MDd /GS /fp:precise /Zc:wchar_t /Zc:forScope /Zc:inline /Fo"DEBUG\\" /Fd"DEBUG\VC141.PDB" /Gd /TP /analyze- C:\USERS\AK\DOWNLOADS\PROJECT2\PROJECT4\PROJECT4\BULLETCOLLISION\COLLISIONSHAPES\BTTETRAHEDRONSHAPE.CPP
^C:\USERS\AK\DOWNLOADS\PROJECT2\PROJECT4\PROJECT4\BULLETCOLLISION\COLLISIONSHAPES\BTTRIANGLEBUFFER.CPP
/c /ZI /nologo /W3 /WX- /diagnostics:classic /sdl /Od /Oy- /D WIN32 /D _DEBUG /D _CONSOLE /D _UNICODE /D UNICODE /Gm /EHsc /RTC1 /MDd /GS /fp:precise /Zc:wchar_t /Zc:forScope /Zc:inline /Fo"DEBUG\\" /Fd"DEBUG\VC141.PDB" /Gd /TP /analyze- C:\USERS\AK\DOWNLOADS\PROJECT2\PROJECT4\PROJECT4\BULLETCOLLISION\COLLISIONSHAPES\BTTRIANGLEBUFFER.CPP
^C:\USERS\AK\DOWNLOADS\PROJECT2\PROJECT4\PROJECT4\BULLETCOLLISION\COLLISIONSHAPES\BTTRIANGLECALLBACK.CPP
/c /ZI /nologo /W3 /WX- /diagnostics:classic /sdl /Od /Oy- /D WIN32 /D _DEBUG /D _CONSOLE /D _UNICODE /D UNICODE /Gm /EHsc /RTC1 /MDd /GS /fp:precise /Zc:wchar_t /Zc:forScope /Zc:inline /Fo"DEBUG\\" /Fd"DEBUG\VC141.PDB" /Gd /TP /analyze- C:\USERS\AK\DOWNLOADS\PROJECT2\PROJECT4\PROJECT4\BULLETCOLLISION\COLLISIONSHAPES\BTTRIANGLECALLBACK.CPP
^C:\USERS\AK\DOWNLOADS\PROJECT2\PROJECT4\PROJECT4\BULLETCOLLISION\COLLISIONSHAPES\BTTRIANGLEINDEXVERTEXARRAY.CPP
/c /ZI /nologo /W3 /WX- /diagnostics:classic /sdl /Od /Oy- /D WIN32 /D _DEBUG /D _CONSOLE /D _UNICODE /D UNICODE /Gm /EHsc /RTC1 /MDd /GS /fp:precise /Zc:wchar_t /Zc:forScope /Zc:inline /Fo"DEBUG\\" /Fd"DEBUG\VC141.PDB" /Gd /TP /analyze- C:\USERS\AK\DOWNLOADS\PROJECT2\PROJECT4\PROJECT4\BULLETCOLLISION\COLLISIONSHAPES\BTTRIANGLEINDEXVERTEXARRAY.CPP
^C:\USERS\AK\DOWNLOADS\PROJECT2\PROJECT4\PROJECT4\BULLETCOLLISION\COLLISIONSHAPES\BTTRIANGLEINDEXVERTEXMATERIALARRAY.CPP
/c /ZI /nologo /W3 /WX- /diagnostics:classic /sdl /Od /Oy- /D WIN32 /D _DEBUG /D _CONSOLE /D _UNICODE /D UNICODE /Gm /EHsc /RTC1 /MDd /GS /fp:precise /Zc:wchar_t /Zc:forScope /Zc:inline /Fo"DEBUG\\" /Fd"DEBUG\VC141.PDB" /Gd /TP /analyze- C:\USERS\AK\DOWNLOADS\PROJECT2\PROJECT4\PROJECT4\BULLETCOLLISION\COLLISIONSHAPES\BTTRIANGLEINDEXVERTEXMATERIALARRAY.CPP
^C:\USERS\AK\DOWNLOADS\PROJECT2\PROJECT4\PROJECT4\BULLETCOLLISION\COLLISIONSHAPES\BTTRIANGLEMESH.CPP
/c /ZI /nologo /W3 /WX- /diagnostics:classic /sdl /Od /Oy- /D WIN32 /D _DEBUG /D _CONSOLE /D _UNICODE /D UNICODE /Gm /EHsc /RTC1 /MDd /GS /fp:precise /Zc:wchar_t /Zc:forScope /Zc:inline /Fo"DEBUG\\" /Fd"DEBUG\VC141.PDB" /Gd /TP /analyze- C:\USERS\AK\DOWNLOADS\PROJECT2\PROJECT4\PROJECT4\BULLETCOLLISION\COLLISIONSHAPES\BTTRIANGLEMESH.CPP
^C:\USERS\AK\DOWNLOADS\PROJECT2\PROJECT4\PROJECT4\BULLETCOLLISION\COLLISIONSHAPES\BTTRIANGLEMESHSHAPE.CPP
/c /ZI /nologo /W3 /WX- /diagnostics:classic /sdl /Od /Oy- /D WIN32 /D _DEBUG /D _CONSOLE /D _UNICODE /D UNICODE /Gm /EHsc /RTC1 /MDd /GS /fp:precise /Zc:wchar_t /Zc:forScope /Zc:inline /Fo"DEBUG\\" /Fd"DEBUG\VC141.PDB" /Gd /TP /analyze- C:\USERS\AK\DOWNLOADS\PROJECT2\PROJECT4\PROJECT4\BULLETCOLLISION\COLLISIONSHAPES\BTTRIANGLEMESHSHAPE.CPP
^C:\USERS\AK\DOWNLOADS\PROJECT2\PROJECT4\PROJECT4\BULLETCOLLISION\COLLISIONSHAPES\BTUNIFORMSCALINGSHAPE.CPP
/c /ZI /nologo /W3 /WX- /diagnostics:classic /sdl /Od /Oy- /D WIN32 /D _DEBUG /D _CONSOLE /D _UNICODE /D UNICODE /Gm /EHsc /RTC1 /MDd /GS /fp:precise /Zc:wchar_t /Zc:forScope /Zc:inline /Fo"DEBUG\\" /Fd"DEBUG\VC141.PDB" /Gd /TP /analyze- C:\USERS\AK\DOWNLOADS\PROJECT2\PROJECT4\PROJECT4\BULLETCOLLISION\COLLISIONSHAPES\BTUNIFORMSCALINGSHAPE.CPP
^C:\USERS\AK\DOWNLOADS\PROJECT2\PROJECT4\PROJECT4\BULLETCOLLISION\GIMPACT\BTCONTACTPROCESSING.CPP
/c /ZI /nologo /W3 /WX- /diagnostics:classic /sdl /Od /Oy- /D WIN32 /D _DEBUG /D _CONSOLE /D _UNICODE /D UNICODE /Gm /EHsc /RTC1 /MDd /GS /fp:precise /Zc:wchar_t /Zc:forScope /Zc:inline /Fo"DEBUG\\" /Fd"DEBUG\VC141.PDB" /Gd /TP /analyze- C:\USERS\AK\DOWNLOADS\PROJECT2\PROJECT4\PROJECT4\BULLETCOLLISION\GIMPACT\BTCONTACTPROCESSING.CPP
^C:\USERS\AK\DOWNLOADS\PROJECT2\PROJECT4\PROJECT4\BULLETCOLLISION\GIMPACT\BTGENERICPOOLALLOCATOR.CPP
/c /ZI /nologo /W3 /WX- /diagnostics:classic /sdl /Od /Oy- /D WIN32 /D _DEBUG /D _CONSOLE /D _UNICODE /D UNICODE /Gm /EHsc /RTC1 /MDd /GS /fp:precise /Zc:wchar_t /Zc:forScope /Zc:inline /Fo"DEBUG\\" /Fd"DEBUG\VC141.PDB" /Gd /TP /analyze- C:\USERS\AK\DOWNLOADS\PROJECT2\PROJECT4\PROJECT4\BULLETCOLLISION\GIMPACT\BTGENERICPOOLALLOCATOR.CPP
^C:\USERS\AK\DOWNLOADS\PROJECT2\PROJECT4\PROJECT4\BULLETCOLLISION\GIMPACT\BTGIMPACTBVH.CPP
/c /ZI /nologo /W3 /WX- /diagnostics:classic /sdl /Od /Oy- /D WIN32 /D _DEBUG /D _CONSOLE /D _UNICODE /D UNICODE /Gm /EHsc /RTC1 /MDd /GS /fp:precise /Zc:wchar_t /Zc:forScope /Zc:inline /Fo"DEBUG\\" /Fd"DEBUG\VC141.PDB" /Gd /TP /analyze- C:\USERS\AK\DOWNLOADS\PROJECT2\PROJECT4\PROJECT4\BULLETCOLLISION\GIMPACT\BTGIMPACTBVH.CPP
^C:\USERS\AK\DOWNLOADS\PROJECT2\PROJECT4\PROJECT4\BULLETCOLLISION\GIMPACT\BTGIMPACTCOLLISIONALGORITHM.CPP
/c /ZI /nologo /W3 /WX- /diagnostics:classic /sdl /Od /Oy- /D WIN32 /D _DEBUG /D _CONSOLE /D _UNICODE /D UNICODE /Gm /EHsc /RTC1 /MDd /GS /fp:precise /Zc:wchar_t /Zc:forScope /Zc:inline /Fo"DEBUG\\" /Fd"DEBUG\VC141.PDB" /Gd /TP /analyze- C:\USERS\AK\DOWNLOADS\PROJECT2\PROJECT4\PROJECT4\BULLETCOLLISION\GIMPACT\BTGIMPACTCOLLISIONALGORITHM.CPP
^C:\USERS\AK\DOWNLOADS\PROJECT2\PROJECT4\PROJECT4\BULLETCOLLISION\GIMPACT\BTGIMPACTQUANTIZEDBVH.CPP
/c /ZI /nologo /W3 /WX- /diagnostics:classic /sdl /Od /Oy- /D WIN32 /D _DEBUG /D _CONSOLE /D _UNICODE /D UNICODE /Gm /EHsc /RTC1 /MDd /GS /fp:precise /Zc:wchar_t /Zc:forScope /Zc:inline /Fo"DEBUG\\" /Fd"DEBUG\VC141.PDB" /Gd /TP /analyze- C:\USERS\AK\DOWNLOADS\PROJECT2\PROJECT4\PROJECT4\BULLETCOLLISION\GIMPACT\BTGIMPACTQUANTIZEDBVH.CPP
^C:\USERS\AK\DOWNLOADS\PROJECT2\PROJECT4\PROJECT4\BULLETCOLLISION\GIMPACT\BTGIMPACTSHAPE.CPP
/c /ZI /nologo /W3 /WX- /diagnostics:classic /sdl /Od /Oy- /D WIN32 /D _DEBUG /D _CONSOLE /D _UNICODE /D UNICODE /Gm /EHsc /RTC1 /MDd /GS /fp:precise /Zc:wchar_t /Zc:forScope /Zc:inline /Fo"DEBUG\\" /Fd"DEBUG\VC141.PDB" /Gd /TP /analyze- C:\USERS\AK\DOWNLOADS\PROJECT2\PROJECT4\PROJECT4\BULLETCOLLISION\GIMPACT\BTGIMPACTSHAPE.CPP
^C:\USERS\AK\DOWNLOADS\PROJECT2\PROJECT4\PROJECT4\BULLETCOLLISION\GIMPACT\BTTRIANGLESHAPEEX.CPP
/c /ZI /nologo /W3 /WX- /diagnostics:classic /sdl /Od /Oy- /D WIN32 /D _DEBUG /D _CONSOLE /D _UNICODE /D UNICODE /Gm /EHsc /RTC1 /MDd /GS /fp:precise /Zc:wchar_t /Zc:forScope /Zc:inline /Fo"DEBUG\\" /Fd"DEBUG\VC141.PDB" /Gd /TP /analyze- C:\USERS\AK\DOWNLOADS\PROJECT2\PROJECT4\PROJECT4\BULLETCOLLISION\GIMPACT\BTTRIANGLESHAPEEX.CPP
^C:\USERS\AK\DOWNLOADS\PROJECT2\PROJECT4\PROJECT4\BULLETCOLLISION\GIMPACT\GIM_BOX_SET.CPP
/c /ZI /nologo /W3 /WX- /diagnostics:classic /sdl /Od /Oy- /D WIN32 /D _DEBUG /D _CONSOLE /D _UNICODE /D UNICODE /Gm /EHsc /RTC1 /MDd /GS /fp:precise /Zc:wchar_t /Zc:forScope /Zc:inline /Fo"DEBUG\\" /Fd"DEBUG\VC141.PDB" /Gd /TP /analyze- C:\USERS\AK\DOWNLOADS\PROJECT2\PROJECT4\PROJECT4\BULLETCOLLISION\GIMPACT\GIM_BOX_SET.CPP
^C:\USERS\AK\DOWNLOADS\PROJECT2\PROJECT4\PROJECT4\BULLETCOLLISION\GIMPACT\GIM_CONTACT.CPP
/c /ZI /nologo /W3 /WX- /diagnostics:classic /sdl /Od /Oy- /D WIN32 /D _DEBUG /D _CONSOLE /D _UNICODE /D UNICODE /Gm /EHsc /RTC1 /MDd /GS /fp:precise /Zc:wchar_t /Zc:forScope /Zc:inline /Fo"DEBUG\\" /Fd"DEBUG\VC141.PDB" /Gd /TP /analyze- C:\USERS\AK\DOWNLOADS\PROJECT2\PROJECT4\PROJECT4\BULLETCOLLISION\GIMPACT\GIM_CONTACT.CPP
^C:\USERS\AK\DOWNLOADS\PROJECT2\PROJECT4\PROJECT4\BULLETCOLLISION\GIMPACT\GIM_MEMORY.CPP
/c /ZI /nologo /W3 /WX- /diagnostics:classic /sdl /Od /Oy- /D WIN32 /D _DEBUG /D _CONSOLE /D _UNICODE /D UNICODE /Gm /EHsc /RTC1 /MDd /GS /fp:precise /Zc:wchar_t /Zc:forScope /Zc:inline /Fo"DEBUG\\" /Fd"DEBUG\VC141.PDB" /Gd /TP /analyze- C:\USERS\AK\DOWNLOADS\PROJECT2\PROJECT4\PROJECT4\BULLETCOLLISION\GIMPACT\GIM_MEMORY.CPP
^C:\USERS\AK\DOWNLOADS\PROJECT2\PROJECT4\PROJECT4\BULLETCOLLISION\GIMPACT\GIM_TRI_COLLISION.CPP
/c /ZI /nologo /W3 /WX- /diagnostics:classic /sdl /Od /Oy- /D WIN32 /D _DEBUG /D _CONSOLE /D _UNICODE /D UNICODE /Gm /EHsc /RTC1 /MDd /GS /fp:precise /Zc:wchar_t /Zc:forScope /Zc:inline /Fo"DEBUG\\" /Fd"DEBUG\VC141.PDB" /Gd /TP /analyze- C:\USERS\AK\DOWNLOADS\PROJECT2\PROJECT4\PROJECT4\BULLETCOLLISION\GIMPACT\GIM_TRI_COLLISION.CPP
^C:\USERS\AK\DOWNLOADS\PROJECT2\PROJECT4\PROJECT4\BULLETCOLLISION\NARROWPHASECOLLISION\BTCONTINUOUSCONVEXCOLLISION.CPP
/c /ZI /nologo /W3 /WX- /diagnostics:classic /sdl /Od /Oy- /D WIN32 /D _DEBUG /D _CONSOLE /D _UNICODE /D UNICODE /Gm /EHsc /RTC1 /MDd /GS /fp:precise /Zc:wchar_t /Zc:forScope /Zc:inline /Fo"DEBUG\\" /Fd"DEBUG\VC141.PDB" /Gd /TP /analyze- C:\USERS\AK\DOWNLOADS\PROJECT2\PROJECT4\PROJECT4\BULLETCOLLISION\NARROWPHASECOLLISION\BTCONTINUOUSCONVEXCOLLISION.CPP
^C:\USERS\AK\DOWNLOADS\PROJECT2\PROJECT4\PROJECT4\BULLETCOLLISION\NARROWPHASECOLLISION\BTCONVEXCAST.CPP
/c /ZI /nologo /W3 /WX- /diagnostics:classic /sdl /Od /Oy- /D WIN32 /D _DEBUG /D _CONSOLE /D _UNICODE /D UNICODE /Gm /EHsc /RTC1 /MDd /GS /fp:precise /Zc:wchar_t /Zc:forScope /Zc:inline /Fo"DEBUG\\" /Fd"DEBUG\VC141.PDB" /Gd /TP /analyze- C:\USERS\AK\DOWNLOADS\PROJECT2\PROJECT4\PROJECT4\BULLETCOLLISION\NARROWPHASECOLLISION\BTCONVEXCAST.CPP
^C:\USERS\AK\DOWNLOADS\PROJECT2\PROJECT4\PROJECT4\BULLETCOLLISION\NARROWPHASECOLLISION\BTGJKCONVEXCAST.CPP
/c /ZI /nologo /W3 /WX- /diagnostics:classic /sdl /Od /Oy- /D WIN32 /D _DEBUG /D _CONSOLE /D _UNICODE /D UNICODE /Gm /EHsc /RTC1 /MDd /GS /fp:precise /Zc:wchar_t /Zc:forScope /Zc:inline /Fo"DEBUG\\" /Fd"DEBUG\VC141.PDB" /Gd /TP /analyze- C:\USERS\AK\DOWNLOADS\PROJECT2\PROJECT4\PROJECT4\BULLETCOLLISION\NARROWPHASECOLLISION\BTGJKCONVEXCAST.CPP
^C:\USERS\AK\DOWNLOADS\PROJECT2\PROJECT4\PROJECT4\BULLETCOLLISION\NARROWPHASECOLLISION\BTGJKEPA2.CPP
/c /ZI /nologo /W3 /WX- /diagnostics:classic /sdl /Od /Oy- /D WIN32 /D _DEBUG /D _CONSOLE /D _UNICODE /D UNICODE /Gm /EHsc /RTC1 /MDd /GS /fp:precise /Zc:wchar_t /Zc:forScope /Zc:inline /Fo"DEBUG\\" /Fd"DEBUG\VC141.PDB" /Gd /TP /analyze- C:\USERS\AK\DOWNLOADS\PROJECT2\PROJECT4\PROJECT4\BULLETCOLLISION\NARROWPHASECOLLISION\BTGJKEPA2.CPP
^C:\USERS\AK\DOWNLOADS\PROJECT2\PROJECT4\PROJECT4\BULLETCOLLISION\NARROWPHASECOLLISION\BTGJKEPAPENETRATIONDEPTHSOLVER.CPP
/c /ZI /nologo /W3 /WX- /diagnostics:classic /sdl /Od /Oy- /D WIN32 /D _DEBUG /D _CONSOLE /D _UNICODE /D UNICODE /Gm /EHsc /RTC1 /MDd /GS /fp:precise /Zc:wchar_t /Zc:forScope /Zc:inline /Fo"DEBUG\\" /Fd"DEBUG\VC141.PDB" /Gd /TP /analyze- C:\USERS\AK\DOWNLOADS\PROJECT2\PROJECT4\PROJECT4\BULLETCOLLISION\NARROWPHASECOLLISION\BTGJKEPAPENETRATIONDEPTHSOLVER.CPP
^C:\USERS\AK\DOWNLOADS\PROJECT2\PROJECT4\PROJECT4\BULLETCOLLISION\NARROWPHASECOLLISION\BTGJKPAIRDETECTOR.CPP
/c /ZI /nologo /W3 /WX- /diagnostics:classic /sdl /Od /Oy- /D WIN32 /D _DEBUG /D _CONSOLE /D _UNICODE /D UNICODE /Gm /EHsc /RTC1 /MDd /GS /fp:precise /Zc:wchar_t /Zc:forScope /Zc:inline /Fo"DEBUG\\" /Fd"DEBUG\VC141.PDB" /Gd /TP /analyze- C:\USERS\AK\DOWNLOADS\PROJECT2\PROJECT4\PROJECT4\BULLETCOLLISION\NARROWPHASECOLLISION\BTGJKPAIRDETECTOR.CPP
^C:\USERS\AK\DOWNLOADS\PROJECT2\PROJECT4\PROJECT4\BULLETCOLLISION\NARROWPHASECOLLISION\BTMINKOWSKIPENETRATIONDEPTHSOLVER.CPP
/c /ZI /nologo /W3 /WX- /diagnostics:classic /sdl /Od /Oy- /D WIN32 /D _DEBUG /D _CONSOLE /D _UNICODE /D UNICODE /Gm /EHsc /RTC1 /MDd /GS /fp:precise /Zc:wchar_t /Zc:forScope /Zc:inline /Fo"DEBUG\\" /Fd"DEBUG\VC141.PDB" /Gd /TP /analyze- C:\USERS\AK\DOWNLOADS\PROJECT2\PROJECT4\PROJECT4\BULLETCOLLISION\NARROWPHASECOLLISION\BTMINKOWSKIPENETRATIONDEPTHSOLVER.CPP
^C:\USERS\AK\DOWNLOADS\PROJECT2\PROJECT4\PROJECT4\BULLETCOLLISION\NARROWPHASECOLLISION\BTPERSISTENTMANIFOLD.CPP
/c /ZI /nologo /W3 /WX- /diagnostics:classic /sdl /Od /Oy- /D WIN32 /D _DEBUG /D _CONSOLE /D _UNICODE /D UNICODE /Gm /EHsc /RTC1 /MDd /GS /fp:precise /Zc:wchar_t /Zc:forScope /Zc:inline /Fo"DEBUG\\" /Fd"DEBUG\VC141.PDB" /Gd /TP /analyze- C:\USERS\AK\DOWNLOADS\PROJECT2\PROJECT4\PROJECT4\BULLETCOLLISION\NARROWPHASECOLLISION\BTPERSISTENTMANIFOLD.CPP
^C:\USERS\AK\DOWNLOADS\PROJECT2\PROJECT4\PROJECT4\BULLETCOLLISION\NARROWPHASECOLLISION\BTPOLYHEDRALCONTACTCLIPPING.CPP
/c /ZI /nologo /W3 /WX- /diagnostics:classic /sdl /Od /Oy- /D WIN32 /D _DEBUG /D _CONSOLE /D _UNICODE /D UNICODE /Gm /EHsc /RTC1 /MDd /GS /fp:precise /Zc:wchar_t /Zc:forScope /Zc:inline /Fo"DEBUG\\" /Fd"DEBUG\VC141.PDB" /Gd /TP /analyze- C:\USERS\AK\DOWNLOADS\PROJECT2\PROJECT4\PROJECT4\BULLETCOLLISION\NARROWPHASECOLLISION\BTPOLYHEDRALCONTACTCLIPPING.CPP
^C:\USERS\AK\DOWNLOADS\PROJECT2\PROJECT4\PROJECT4\BULLETCOLLISION\NARROWPHASECOLLISION\BTRAYCASTCALLBACK.CPP
/c /ZI /nologo /W3 /WX- /diagnostics:classic /sdl /Od /Oy- /D WIN32 /D _DEBUG /D _CONSOLE /D _UNICODE /D UNICODE /Gm /EHsc /RTC1 /MDd /GS /fp:precise /Zc:wchar_t /Zc:forScope /Zc:inline /Fo"DEBUG\\" /Fd"DEBUG\VC141.PDB" /Gd /TP /analyze- C:\USERS\AK\DOWNLOADS\PROJECT2\PROJECT4\PROJECT4\BULLETCOLLISION\NARROWPHASECOLLISION\BTRAYCASTCALLBACK.CPP
^C:\USERS\AK\DOWNLOADS\PROJECT2\PROJECT4\PROJECT4\BULLETCOLLISION\NARROWPHASECOLLISION\BTSUBSIMPLEXCONVEXCAST.CPP
/c /ZI /nologo /W3 /WX- /diagnostics:classic /sdl /Od /Oy- /D WIN32 /D _DEBUG /D _CONSOLE /D _UNICODE /D UNICODE /Gm /EHsc /RTC1 /MDd /GS /fp:precise /Zc:wchar_t /Zc:forScope /Zc:inline /Fo"DEBUG\\" /Fd"DEBUG\VC141.PDB" /Gd /TP /analyze- C:\USERS\AK\DOWNLOADS\PROJECT2\PROJECT4\PROJECT4\BULLETCOLLISION\NARROWPHASECOLLISION\BTSUBSIMPLEXCONVEXCAST.CPP
^C:\USERS\AK\DOWNLOADS\PROJECT2\PROJECT4\PROJECT4\BULLETCOLLISION\NARROWPHASECOLLISION\BTVORONOISIMPLEXSOLVER.CPP
/c /ZI /nologo /W3 /WX- /diagnostics:classic /sdl /Od /Oy- /D WIN32 /D _DEBUG /D _CONSOLE /D _UNICODE /D UNICODE /Gm /EHsc /RTC1 /MDd /GS /fp:precise /Zc:wchar_t /Zc:forScope /Zc:inline /Fo"DEBUG\\" /Fd"DEBUG\VC141.PDB" /Gd /TP /analyze- C:\USERS\AK\DOWNLOADS\PROJECT2\PROJECT4\PROJECT4\BULLETCOLLISION\NARROWPHASECOLLISION\BTVORONOISIMPLEXSOLVER.CPP
^C:\USERS\AK\DOWNLOADS\PROJECT2\PROJECT4\PROJECT4\BULLETDYNAMICS\CHARACTER\BTKINEMATICCHARACTERCONTROLLER.CPP
/c /ZI /nologo /W3 /WX- /diagnostics:classic /sdl /Od /Oy- /D WIN32 /D _DEBUG /D _CONSOLE /D _UNICODE /D UNICODE /Gm /EHsc /RTC1 /MDd /GS /fp:precise /Zc:wchar_t /Zc:forScope /Zc:inline /Fo"DEBUG\\" /Fd"DEBUG\VC141.PDB" /Gd /TP /analyze- C:\USERS\AK\DOWNLOADS\PROJECT2\PROJECT4\PROJECT4\BULLETDYNAMICS\CHARACTER\BTKINEMATICCHARACTERCONTROLLER.CPP
^C:\USERS\AK\DOWNLOADS\PROJECT2\PROJECT4\PROJECT4\BULLETDYNAMICS\CONSTRAINTSOLVER\BTCONETWISTCONSTRAINT.CPP
/c /ZI /nologo /W3 /WX- /diagnostics:classic /sdl /Od /Oy- /D WIN32 /D _DEBUG /D _CONSOLE /D _UNICODE /D UNICODE /Gm /EHsc /RTC1 /MDd /GS /fp:precise /Zc:wchar_t /Zc:forScope /Zc:inline /Fo"DEBUG\\" /Fd"DEBUG\VC141.PDB" /Gd /TP /analyze- C:\USERS\AK\DOWNLOADS\PROJECT2\PROJECT4\PROJECT4\BULLETDYNAMICS\CONSTRAINTSOLVER\BTCONETWISTCONSTRAINT.CPP
^C:\USERS\AK\DOWNLOADS\PROJECT2\PROJECT4\PROJECT4\BULLETDYNAMICS\CONSTRAINTSOLVER\BTCONTACTCONSTRAINT.CPP
/c /ZI /nologo /W3 /WX- /diagnostics:classic /sdl /Od /Oy- /D WIN32 /D _DEBUG /D _CONSOLE /D _UNICODE /D UNICODE /Gm /EHsc /RTC1 /MDd /GS /fp:precise /Zc:wchar_t /Zc:forScope /Zc:inline /Fo"DEBUG\\" /Fd"DEBUG\VC141.PDB" /Gd /TP /analyze- C:\USERS\AK\DOWNLOADS\PROJECT2\PROJECT4\PROJECT4\BULLETDYNAMICS\CONSTRAINTSOLVER\BTCONTACTCONSTRAINT.CPP
^C:\USERS\AK\DOWNLOADS\PROJECT2\PROJECT4\PROJECT4\BULLETDYNAMICS\CONSTRAINTSOLVER\BTFIXEDCONSTRAINT.CPP
/c /ZI /nologo /W3 /WX- /diagnostics:classic /sdl /Od /Oy- /D WIN32 /D _DEBUG /D _CONSOLE /D _UNICODE /D UNICODE /Gm /EHsc /RTC1 /MDd /GS /fp:precise /Zc:wchar_t /Zc:forScope /Zc:inline /Fo"DEBUG\\" /Fd"DEBUG\VC141.PDB" /Gd /TP /analyze- C:\USERS\AK\DOWNLOADS\PROJECT2\PROJECT4\PROJECT4\BULLETDYNAMICS\CONSTRAINTSOLVER\BTFIXEDCONSTRAINT.CPP
^C:\USERS\AK\DOWNLOADS\PROJECT2\PROJECT4\PROJECT4\BULLETDYNAMICS\CONSTRAINTSOLVER\BTGEARCONSTRAINT.CPP
/c /ZI /nologo /W3 /WX- /diagnostics:classic /sdl /Od /Oy- /D WIN32 /D _DEBUG /D _CONSOLE /D _UNICODE /D UNICODE /Gm /EHsc /RTC1 /MDd /GS /fp:precise /Zc:wchar_t /Zc:forScope /Zc:inline /Fo"DEBUG\\" /Fd"DEBUG\VC141.PDB" /Gd /TP /analyze- C:\USERS\AK\DOWNLOADS\PROJECT2\PROJECT4\PROJECT4\BULLETDYNAMICS\CONSTRAINTSOLVER\BTGEARCONSTRAINT.CPP
^C:\USERS\AK\DOWNLOADS\PROJECT2\PROJECT4\PROJECT4\BULLETDYNAMICS\CONSTRAINTSOLVER\BTGENERIC6DOFCONSTRAINT.CPP
/c /ZI /nologo /W3 /WX- /diagnostics:classic /sdl /Od /Oy- /D WIN32 /D _DEBUG /D _CONSOLE /D _UNICODE /D UNICODE /Gm /EHsc /RTC1 /MDd /GS /fp:precise /Zc:wchar_t /Zc:forScope /Zc:inline /Fo"DEBUG\\" /Fd"DEBUG\VC141.PDB" /Gd /TP /analyze- C:\USERS\AK\DOWNLOADS\PROJECT2\PROJECT4\PROJECT4\BULLETDYNAMICS\CONSTRAINTSOLVER\BTGENERIC6DOFCONSTRAINT.CPP
^C:\USERS\AK\DOWNLOADS\PROJECT2\PROJECT4\PROJECT4\BULLETDYNAMICS\CONSTRAINTSOLVER\BTGENERIC6DOFSPRING2CONSTRAINT.CPP
/c /ZI /nologo /W3 /WX- /diagnostics:classic /sdl /Od /Oy- /D WIN32 /D _DEBUG /D _CONSOLE /D _UNICODE /D UNICODE /Gm /EHsc /RTC1 /MDd /GS /fp:precise /Zc:wchar_t /Zc:forScope /Zc:inline /Fo"DEBUG\\" /Fd"DEBUG\VC141.PDB" /Gd /TP /analyze- C:\USERS\AK\DOWNLOADS\PROJECT2\PROJECT4\PROJECT4\BULLETDYNAMICS\CONSTRAINTSOLVER\BTGENERIC6DOFSPRING2CONSTRAINT.CPP
^C:\USERS\AK\DOWNLOADS\PROJECT2\PROJECT4\PROJECT4\BULLETDYNAMICS\CONSTRAINTSOLVER\BTGENERIC6DOFSPRINGCONSTRAINT.CPP
/c /ZI /nologo /W3 /WX- /diagnostics:classic /sdl /Od /Oy- /D WIN32 /D _DEBUG /D _CONSOLE /D _UNICODE /D UNICODE /Gm /EHsc /RTC1 /MDd /GS /fp:precise /Zc:wchar_t /Zc:forScope /Zc:inline /Fo"DEBUG\\" /Fd"DEBUG\VC141.PDB" /Gd /TP /analyze- C:\USERS\AK\DOWNLOADS\PROJECT2\PROJECT4\PROJECT4\BULLETDYNAMICS\CONSTRAINTSOLVER\BTGENERIC6DOFSPRINGCONSTRAINT.CPP
^C:\USERS\AK\DOWNLOADS\PROJECT2\PROJECT4\PROJECT4\BULLETDYNAMICS\CONSTRAINTSOLVER\BTHINGE2CONSTRAINT.CPP
/c /ZI /nologo /W3 /WX- /diagnostics:classic /sdl /Od /Oy- /D WIN32 /D _DEBUG /D _CONSOLE /D _UNICODE /D UNICODE /Gm /EHsc /RTC1 /MDd /GS /fp:precise /Zc:wchar_t /Zc:forScope /Zc:inline /Fo"DEBUG\\" /Fd"DEBUG\VC141.PDB" /Gd /TP /analyze- C:\USERS\AK\DOWNLOADS\PROJECT2\PROJECT4\PROJECT4\BULLETDYNAMICS\CONSTRAINTSOLVER\BTHINGE2CONSTRAINT.CPP
^C:\USERS\AK\DOWNLOADS\PROJECT2\PROJECT4\PROJECT4\BULLETDYNAMICS\CONSTRAINTSOLVER\BTHINGECONSTRAINT.CPP
/c /ZI /nologo /W3 /WX- /diagnostics:classic /sdl /Od /Oy- /D WIN32 /D _DEBUG /D _CONSOLE /D _UNICODE /D UNICODE /Gm /EHsc /RTC1 /MDd /GS /fp:precise /Zc:wchar_t /Zc:forScope /Zc:inline /Fo"DEBUG\\" /Fd"DEBUG\VC141.PDB" /Gd /TP /analyze- C:\USERS\AK\DOWNLOADS\PROJECT2\PROJECT4\PROJECT4\BULLETDYNAMICS\CONSTRAINTSOLVER\BTHINGECONSTRAINT.CPP
^C:\USERS\AK\DOWNLOADS\PROJECT2\PROJECT4\PROJECT4\BULLETDYNAMICS\CONSTRAINTSOLVER\BTNNCGCONSTRAINTSOLVER.CPP
/c /ZI /nologo /W3 /WX- /diagnostics:classic /sdl /Od /Oy- /D WIN32 /D _DEBUG /D _CONSOLE /D _UNICODE /D UNICODE /Gm /EHsc /RTC1 /MDd /GS /fp:precise /Zc:wchar_t /Zc:forScope /Zc:inline /Fo"DEBUG\\" /Fd"DEBUG\VC141.PDB" /Gd /TP /analyze- C:\USERS\AK\DOWNLOADS\PROJECT2\PROJECT4\PROJECT4\BULLETDYNAMICS\CONSTRAINTSOLVER\BTNNCGCONSTRAINTSOLVER.CPP
^C:\USERS\AK\DOWNLOADS\PROJECT2\PROJECT4\PROJECT4\BULLETDYNAMICS\CONSTRAINTSOLVER\BTPOINT2POINTCONSTRAINT.CPP
/c /ZI /nologo /W3 /WX- /diagnostics:classic /sdl /Od /Oy- /D WIN32 /D _DEBUG /D _CONSOLE /D _UNICODE /D UNICODE /Gm /EHsc /RTC1 /MDd /GS /fp:precise /Zc:wchar_t /Zc:forScope /Zc:inline /Fo"DEBUG\\" /Fd"DEBUG\VC141.PDB" /Gd /TP /analyze- C:\USERS\AK\DOWNLOADS\PROJECT2\PROJECT4\PROJECT4\BULLETDYNAMICS\CONSTRAINTSOLVER\BTPOINT2POINTCONSTRAINT.CPP
^C:\USERS\AK\DOWNLOADS\PROJECT2\PROJECT4\PROJECT4\BULLETDYNAMICS\CONSTRAINTSOLVER\BTSEQUENTIALIMPULSECONSTRAINTSOLVER.CPP
/c /ZI /nologo /W3 /WX- /diagnostics:classic /sdl /Od /Oy- /D WIN32 /D _DEBUG /D _CONSOLE /D _UNICODE /D UNICODE /Gm /EHsc /RTC1 /MDd /GS /fp:precise /Zc:wchar_t /Zc:forScope /Zc:inline /Fo"DEBUG\\" /Fd"DEBUG\VC141.PDB" /Gd /TP /analyze- C:\USERS\AK\DOWNLOADS\PROJECT2\PROJECT4\PROJECT4\BULLETDYNAMICS\CONSTRAINTSOLVER\BTSEQUENTIALIMPULSECONSTRAINTSOLVER.CPP
^C:\USERS\AK\DOWNLOADS\PROJECT2\PROJECT4\PROJECT4\BULLETDYNAMICS\CONSTRAINTSOLVER\BTSLIDERCONSTRAINT.CPP
/c /ZI /nologo /W3 /WX- /diagnostics:classic /sdl /Od /Oy- /D WIN32 /D _DEBUG /D _CONSOLE /D _UNICODE /D UNICODE /Gm /EHsc /RTC1 /MDd /GS /fp:precise /Zc:wchar_t /Zc:forScope /Zc:inline /Fo"DEBUG\\" /Fd"DEBUG\VC141.PDB" /Gd /TP /analyze- C:\USERS\AK\DOWNLOADS\PROJECT2\PROJECT4\PROJECT4\BULLETDYNAMICS\CONSTRAINTSOLVER\BTSLIDERCONSTRAINT.CPP
^C:\USERS\AK\DOWNLOADS\PROJECT2\PROJECT4\PROJECT4\BULLETDYNAMICS\CONSTRAINTSOLVER\BTSOLVE2LINEARCONSTRAINT.CPP
/c /ZI /nologo /W3 /WX- /diagnostics:classic /sdl /Od /Oy- /D WIN32 /D _DEBUG /D _CONSOLE /D _UNICODE /D UNICODE /Gm /EHsc /RTC1 /MDd /GS /fp:precise /Zc:wchar_t /Zc:forScope /Zc:inline /Fo"DEBUG\\" /Fd"DEBUG\VC141.PDB" /Gd /TP /analyze- C:\USERS\AK\DOWNLOADS\PROJECT2\PROJECT4\PROJECT4\BULLETDYNAMICS\CONSTRAINTSOLVER\BTSOLVE2LINEARCONSTRAINT.CPP
^C:\USERS\AK\DOWNLOADS\PROJECT2\PROJECT4\PROJECT4\BULLETDYNAMICS\CONSTRAINTSOLVER\BTTYPEDCONSTRAINT.CPP
/c /ZI /nologo /W3 /WX- /diagnostics:classic /sdl /Od /Oy- /D WIN32 /D _DEBUG /D _CONSOLE /D _UNICODE /D UNICODE /Gm /EHsc /RTC1 /MDd /GS /fp:precise /Zc:wchar_t /Zc:forScope /Zc:inline /Fo"DEBUG\\" /Fd"DEBUG\VC141.PDB" /Gd /TP /analyze- C:\USERS\AK\DOWNLOADS\PROJECT2\PROJECT4\PROJECT4\BULLETDYNAMICS\CONSTRAINTSOLVER\BTTYPEDCONSTRAINT.CPP
^C:\USERS\AK\DOWNLOADS\PROJECT2\PROJECT4\PROJECT4\BULLETDYNAMICS\CONSTRAINTSOLVER\BTUNIVERSALCONSTRAINT.CPP
/c /ZI /nologo /W3 /WX- /diagnostics:classic /sdl /Od /Oy- /D WIN32 /D _DEBUG /D _CONSOLE /D _UNICODE /D UNICODE /Gm /EHsc /RTC1 /MDd /GS /fp:precise /Zc:wchar_t /Zc:forScope /Zc:inline /Fo"DEBUG\\" /Fd"DEBUG\VC141.PDB" /Gd /TP /analyze- C:\USERS\AK\DOWNLOADS\PROJECT2\PROJECT4\PROJECT4\BULLETDYNAMICS\CONSTRAINTSOLVER\BTUNIVERSALCONSTRAINT.CPP
^C:\USERS\AK\DOWNLOADS\PROJECT2\PROJECT4\PROJECT4\BULLETDYNAMICS\DYNAMICS\BTDISCRETEDYNAMICSWORLD.CPP
/c /ZI /nologo /W3 /WX- /diagnostics:classic /sdl /Od /Oy- /D WIN32 /D _DEBUG /D _CONSOLE /D _UNICODE /D UNICODE /Gm /EHsc /RTC1 /MDd /GS /fp:precise /Zc:wchar_t /Zc:forScope /Zc:inline /Fo"DEBUG\\" /Fd"DEBUG\VC141.PDB" /Gd /TP /analyze- C:\USERS\AK\DOWNLOADS\PROJECT2\PROJECT4\PROJECT4\BULLETDYNAMICS\DYNAMICS\BTDISCRETEDYNAMICSWORLD.CPP
^C:\USERS\AK\DOWNLOADS\PROJECT2\PROJECT4\PROJECT4\BULLETDYNAMICS\DYNAMICS\BTDISCRETEDYNAMICSWORLDMT.CPP
/c /ZI /nologo /W3 /WX- /diagnostics:classic /sdl /Od /Oy- /D WIN32 /D _DEBUG /D _CONSOLE /D _UNICODE /D UNICODE /Gm /EHsc /RTC1 /MDd /GS /fp:precise /Zc:wchar_t /Zc:forScope /Zc:inline /Fo"DEBUG\\" /Fd"DEBUG\VC141.PDB" /Gd /TP /analyze- C:\USERS\AK\DOWNLOADS\PROJECT2\PROJECT4\PROJECT4\BULLETDYNAMICS\DYNAMICS\BTDISCRETEDYNAMICSWORLDMT.CPP
^C:\USERS\AK\DOWNLOADS\PROJECT2\PROJECT4\PROJECT4\BULLETDYNAMICS\DYNAMICS\BTRIGIDBODY.CPP
/c /ZI /nologo /W3 /WX- /diagnostics:classic /sdl /Od /Oy- /D WIN32 /D _DEBUG /D _CONSOLE /D _UNICODE /D UNICODE /Gm /EHsc /RTC1 /MDd /GS /fp:precise /Zc:wchar_t /Zc:forScope /Zc:inline /Fo"DEBUG\\" /Fd"DEBUG\VC141.PDB" /Gd /TP /analyze- C:\USERS\AK\DOWNLOADS\PROJECT2\PROJECT4\PROJECT4\BULLETDYNAMICS\DYNAMICS\BTRIGIDBODY.CPP
^C:\USERS\AK\DOWNLOADS\PROJECT2\PROJECT4\PROJECT4\BULLETDYNAMICS\DYNAMICS\BTSIMPLEDYNAMICSWORLD.CPP
/c /ZI /nologo /W3 /WX- /diagnostics:classic /sdl /Od /Oy- /D WIN32 /D _DEBUG /D _CONSOLE /D _UNICODE /D UNICODE /Gm /EHsc /RTC1 /MDd /GS /fp:precise /Zc:wchar_t /Zc:forScope /Zc:inline /Fo"DEBUG\\" /Fd"DEBUG\VC141.PDB" /Gd /TP /analyze- C:\USERS\AK\DOWNLOADS\PROJECT2\PROJECT4\PROJECT4\BULLETDYNAMICS\DYNAMICS\BTSIMPLEDYNAMICSWORLD.CPP
^C:\USERS\AK\DOWNLOADS\PROJECT2\PROJECT4\PROJECT4\BULLETDYNAMICS\DYNAMICS\BTSIMULATIONISLANDMANAGERMT.CPP
/c /ZI /nologo /W3 /WX- /diagnostics:classic /sdl /Od /Oy- /D WIN32 /D _DEBUG /D _CONSOLE /D _UNICODE /D UNICODE /Gm /EHsc /RTC1 /MDd /GS /fp:precise /Zc:wchar_t /Zc:forScope /Zc:inline /Fo"DEBUG\\" /Fd"DEBUG\VC141.PDB" /Gd /TP /analyze- C:\USERS\AK\DOWNLOADS\PROJECT2\PROJECT4\PROJECT4\BULLETDYNAMICS\DYNAMICS\BTSIMULATIONISLANDMANAGERMT.CPP
^C:\USERS\AK\DOWNLOADS\PROJECT2\PROJECT4\PROJECT4\BULLETDYNAMICS\FEATHERSTONE\BTMULTIBODY.CPP
/c /ZI /nologo /W3 /WX- /diagnostics:classic /sdl /Od /Oy- /D WIN32 /D _DEBUG /D _CONSOLE /D _UNICODE /D UNICODE /Gm /EHsc /RTC1 /MDd /GS /fp:precise /Zc:wchar_t /Zc:forScope /Zc:inline /Fo"DEBUG\\" /Fd"DEBUG\VC141.PDB" /Gd /TP /analyze- C:\USERS\AK\DOWNLOADS\PROJECT2\PROJECT4\PROJECT4\BULLETDYNAMICS\FEATHERSTONE\BTMULTIBODY.CPP
^C:\USERS\AK\DOWNLOADS\PROJECT2\PROJECT4\PROJECT4\BULLETDYNAMICS\FEATHERSTONE\BTMULTIBODYCONSTRAINT.CPP
/c /ZI /nologo /W3 /WX- /diagnostics:classic /sdl /Od /Oy- /D WIN32 /D _DEBUG /D _CONSOLE /D _UNICODE /D UNICODE /Gm /EHsc /RTC1 /MDd /GS /fp:precise /Zc:wchar_t /Zc:forScope /Zc:inline /Fo"DEBUG\\" /Fd"DEBUG\VC141.PDB" /Gd /TP /analyze- C:\USERS\AK\DOWNLOADS\PROJECT2\PROJECT4\PROJECT4\BULLETDYNAMICS\FEATHERSTONE\BTMULTIBODYCONSTRAINT.CPP
^C:\USERS\AK\DOWNLOADS\PROJECT2\PROJECT4\PROJECT4\BULLETDYNAMICS\FEATHERSTONE\BTMULTIBODYCONSTRAINTSOLVER.CPP
/c /ZI /nologo /W3 /WX- /diagnostics:classic /sdl /Od /Oy- /D WIN32 /D _DEBUG /D _CONSOLE /D _UNICODE /D UNICODE /Gm /EHsc /RTC1 /MDd /GS /fp:precise /Zc:wchar_t /Zc:forScope /Zc:inline /Fo"DEBUG\\" /Fd"DEBUG\VC141.PDB" /Gd /TP /analyze- C:\USERS\AK\DOWNLOADS\PROJECT2\PROJECT4\PROJECT4\BULLETDYNAMICS\FEATHERSTONE\BTMULTIBODYCONSTRAINTSOLVER.CPP
^C:\USERS\AK\DOWNLOADS\PROJECT2\PROJECT4\PROJECT4\BULLETDYNAMICS\FEATHERSTONE\BTMULTIBODYDYNAMICSWORLD.CPP
/c /ZI /nologo /W3 /WX- /diagnostics:classic /sdl /Od /Oy- /D WIN32 /D _DEBUG /D _CONSOLE /D _UNICODE /D UNICODE /Gm /EHsc /RTC1 /MDd /GS /fp:precise /Zc:wchar_t /Zc:forScope /Zc:inline /Fo"DEBUG\\" /Fd"DEBUG\VC141.PDB" /Gd /TP /analyze- C:\USERS\AK\DOWNLOADS\PROJECT2\PROJECT4\PROJECT4\BULLETDYNAMICS\FEATHERSTONE\BTMULTIBODYDYNAMICSWORLD.CPP
^C:\USERS\AK\DOWNLOADS\PROJECT2\PROJECT4\PROJECT4\BULLETDYNAMICS\FEATHERSTONE\BTMULTIBODYFIXEDCONSTRAINT.CPP
/c /ZI /nologo /W3 /WX- /diagnostics:classic /sdl /Od /Oy- /D WIN32 /D _DEBUG /D _CONSOLE /D _UNICODE /D UNICODE /Gm /EHsc /RTC1 /MDd /GS /fp:precise /Zc:wchar_t /Zc:forScope /Zc:inline /Fo"DEBUG\\" /Fd"DEBUG\VC141.PDB" /Gd /TP /analyze- C:\USERS\AK\DOWNLOADS\PROJECT2\PROJECT4\PROJECT4\BULLETDYNAMICS\FEATHERSTONE\BTMULTIBODYFIXEDCONSTRAINT.CPP
^C:\USERS\AK\DOWNLOADS\PROJECT2\PROJECT4\PROJECT4\BULLETDYNAMICS\FEATHERSTONE\BTMULTIBODYGEARCONSTRAINT.CPP
/c /ZI /nologo /W3 /WX- /diagnostics:classic /sdl /Od /Oy- /D WIN32 /D _DEBUG /D _CONSOLE /D _UNICODE /D UNICODE /Gm /EHsc /RTC1 /MDd /GS /fp:precise /Zc:wchar_t /Zc:forScope /Zc:inline /Fo"DEBUG\\" /Fd"DEBUG\VC141.PDB" /Gd /TP /analyze- C:\USERS\AK\DOWNLOADS\PROJECT2\PROJECT4\PROJECT4\BULLETDYNAMICS\FEATHERSTONE\BTMULTIBODYGEARCONSTRAINT.CPP
^C:\USERS\AK\DOWNLOADS\PROJECT2\PROJECT4\PROJECT4\BULLETDYNAMICS\FEATHERSTONE\BTMULTIBODYJOINTLIMITCONSTRAINT.CPP
/c /ZI /nologo /W3 /WX- /diagnostics:classic /sdl /Od /Oy- /D WIN32 /D _DEBUG /D _CONSOLE /D _UNICODE /D UNICODE /Gm /EHsc /RTC1 /MDd /GS /fp:precise /Zc:wchar_t /Zc:forScope /Zc:inline /Fo"DEBUG\\" /Fd"DEBUG\VC141.PDB" /Gd /TP /analyze- C:\USERS\AK\DOWNLOADS\PROJECT2\PROJECT4\PROJECT4\BULLETDYNAMICS\FEATHERSTONE\BTMULTIBODYJOINTLIMITCONSTRAINT.CPP
^C:\USERS\AK\DOWNLOADS\PROJECT2\PROJECT4\PROJECT4\BULLETDYNAMICS\FEATHERSTONE\BTMULTIBODYJOINTMOTOR.CPP
/c /ZI /nologo /W3 /WX- /diagnostics:classic /sdl /Od /Oy- /D WIN32 /D _DEBUG /D _CONSOLE /D _UNICODE /D UNICODE /Gm /EHsc /RTC1 /MDd /GS /fp:precise /Zc:wchar_t /Zc:forScope /Zc:inline /Fo"DEBUG\\" /Fd"DEBUG\VC141.PDB" /Gd /TP /analyze- C:\USERS\AK\DOWNLOADS\PROJECT2\PROJECT4\PROJECT4\BULLETDYNAMICS\FEATHERSTONE\BTMULTIBODYJOINTMOTOR.CPP
^C:\USERS\AK\DOWNLOADS\PROJECT2\PROJECT4\PROJECT4\BULLETDYNAMICS\FEATHERSTONE\BTMULTIBODYPOINT2POINT.CPP
/c /ZI /nologo /W3 /WX- /diagnostics:classic /sdl /Od /Oy- /D WIN32 /D _DEBUG /D _CONSOLE /D _UNICODE /D UNICODE /Gm /EHsc /RTC1 /MDd /GS /fp:precise /Zc:wchar_t /Zc:forScope /Zc:inline /Fo"DEBUG\\" /Fd"DEBUG\VC141.PDB" /Gd /TP /analyze- C:\USERS\AK\DOWNLOADS\PROJECT2\PROJECT4\PROJECT4\BULLETDYNAMICS\FEATHERSTONE\BTMULTIBODYPOINT2POINT.CPP
^C:\USERS\AK\DOWNLOADS\PROJECT2\PROJECT4\PROJECT4\BULLETDYNAMICS\FEATHERSTONE\BTMULTIBODYSLIDERCONSTRAINT.CPP
/c /ZI /nologo /W3 /WX- /diagnostics:classic /sdl /Od /Oy- /D WIN32 /D _DEBUG /D _CONSOLE /D _UNICODE /D UNICODE /Gm /EHsc /RTC1 /MDd /GS /fp:precise /Zc:wchar_t /Zc:forScope /Zc:inline /Fo"DEBUG\\" /Fd"DEBUG\VC141.PDB" /Gd /TP /analyze- C:\USERS\AK\DOWNLOADS\PROJECT2\PROJECT4\PROJECT4\BULLETDYNAMICS\FEATHERSTONE\BTMULTIBODYSLIDERCONSTRAINT.CPP
^C:\USERS\AK\DOWNLOADS\PROJECT2\PROJECT4\PROJECT4\BULLETDYNAMICS\MLCPSOLVERS\BTDANTZIGLCP.CPP
/c /ZI /nologo /W3 /WX- /diagnostics:classic /sdl /Od /Oy- /D WIN32 /D _DEBUG /D _CONSOLE /D _UNICODE /D UNICODE /Gm /EHsc /RTC1 /MDd /GS /fp:precise /Zc:wchar_t /Zc:forScope /Zc:inline /Fo"DEBUG\\" /Fd"DEBUG\VC141.PDB" /Gd /TP /analyze- C:\USERS\AK\DOWNLOADS\PROJECT2\PROJECT4\PROJECT4\BULLETDYNAMICS\MLCPSOLVERS\BTDANTZIGLCP.CPP
^C:\USERS\AK\DOWNLOADS\PROJECT2\PROJECT4\PROJECT4\BULLETDYNAMICS\MLCPSOLVERS\BTLEMKEALGORITHM.CPP
/c /ZI /nologo /W3 /WX- /diagnostics:classic /sdl /Od /Oy- /D WIN32 /D _DEBUG /D _CONSOLE /D _UNICODE /D UNICODE /Gm /EHsc /RTC1 /MDd /GS /fp:precise /Zc:wchar_t /Zc:forScope /Zc:inline /Fo"DEBUG\\" /Fd"DEBUG\VC141.PDB" /Gd /TP /analyze- C:\USERS\AK\DOWNLOADS\PROJECT2\PROJECT4\PROJECT4\BULLETDYNAMICS\MLCPSOLVERS\BTLEMKEALGORITHM.CPP
^C:\USERS\AK\DOWNLOADS\PROJECT2\PROJECT4\PROJECT4\BULLETDYNAMICS\MLCPSOLVERS\BTMLCPSOLVER.CPP
/c /ZI /nologo /W3 /WX- /diagnostics:classic /sdl /Od /Oy- /D WIN32 /D _DEBUG /D _CONSOLE /D _UNICODE /D UNICODE /Gm /EHsc /RTC1 /MDd /GS /fp:precise /Zc:wchar_t /Zc:forScope /Zc:inline /Fo"DEBUG\\" /Fd"DEBUG\VC141.PDB" /Gd /TP /analyze- C:\USERS\AK\DOWNLOADS\PROJECT2\PROJECT4\PROJECT4\BULLETDYNAMICS\MLCPSOLVERS\BTMLCPSOLVER.CPP
^C:\USERS\AK\DOWNLOADS\PROJECT2\PROJECT4\PROJECT4\BULLETDYNAMICS\VEHICLE\BTRAYCASTVEHICLE.CPP
/c /ZI /nologo /W3 /WX- /diagnostics:classic /sdl /Od /Oy- /D WIN32 /D _DEBUG /D _CONSOLE /D _UNICODE /D UNICODE /Gm /EHsc /RTC1 /MDd /GS /fp:precise /Zc:wchar_t /Zc:forScope /Zc:inline /Fo"DEBUG\\" /Fd"DEBUG\VC141.PDB" /Gd /TP /analyze- C:\USERS\AK\DOWNLOADS\PROJECT2\PROJECT4\PROJECT4\BULLETDYNAMICS\VEHICLE\BTRAYCASTVEHICLE.CPP
^C:\USERS\AK\DOWNLOADS\PROJECT2\PROJECT4\PROJECT4\BULLETDYNAMICS\VEHICLE\BTWHEELINFO.CPP
/c /ZI /nologo /W3 /WX- /diagnostics:classic /sdl /Od /Oy- /D WIN32 /D _DEBUG /D _CONSOLE /D _UNICODE /D UNICODE /Gm /EHsc /RTC1 /MDd /GS /fp:precise /Zc:wchar_t /Zc:forScope /Zc:inline /Fo"DEBUG\\" /Fd"DEBUG\VC141.PDB" /Gd /TP /analyze- C:\USERS\AK\DOWNLOADS\PROJECT2\PROJECT4\PROJECT4\BULLETDYNAMICS\VEHICLE\BTWHEELINFO.CPP
^C:\USERS\AK\DOWNLOADS\PROJECT2\PROJECT4\PROJECT4\BULLETINVERSEDYNAMICS\DETAILS\MULTIBODYTREEIMPL.CPP
/c /ZI /nologo /W3 /WX- /diagnostics:classic /sdl /Od /Oy- /D WIN32 /D _DEBUG /D _CONSOLE /D _UNICODE /D UNICODE /Gm /EHsc /RTC1 /MDd /GS /fp:precise /Zc:wchar_t /Zc:forScope /Zc:inline /Fo"DEBUG\\" /Fd"DEBUG\VC141.PDB" /Gd /TP /analyze- C:\USERS\AK\DOWNLOADS\PROJECT2\PROJECT4\PROJECT4\BULLETINVERSEDYNAMICS\DETAILS\MULTIBODYTREEIMPL.CPP
^C:\USERS\AK\DOWNLOADS\PROJECT2\PROJECT4\PROJECT4\BULLETINVERSEDYNAMICS\DETAILS\MULTIBODYTREEINITCACHE.CPP
/c /ZI /nologo /W3 /WX- /diagnostics:classic /sdl /Od /Oy- /D WIN32 /D _DEBUG /D _CONSOLE /D _UNICODE /D UNICODE /Gm /EHsc /RTC1 /MDd /GS /fp:precise /Zc:wchar_t /Zc:forScope /Zc:inline /Fo"DEBUG\\" /Fd"DEBUG\VC141.PDB" /Gd /TP /analyze- C:\USERS\AK\DOWNLOADS\PROJECT2\PROJECT4\PROJECT4\BULLETINVERSEDYNAMICS\DETAILS\MULTIBODYTREEINITCACHE.CPP
^C:\USERS\AK\DOWNLOADS\PROJECT2\PROJECT4\PROJECT4\BULLETINVERSEDYNAMICS\IDMATH.CPP
/c /ZI /nologo /W3 /WX- /diagnostics:classic /sdl /Od /Oy- /D WIN32 /D _DEBUG /D _CONSOLE /D _UNICODE /D UNICODE /Gm /EHsc /RTC1 /MDd /GS /fp:precise /Zc:wchar_t /Zc:forScope /Zc:inline /Fo"DEBUG\\" /Fd"DEBUG\VC141.PDB" /Gd /TP /analyze- C:\USERS\AK\DOWNLOADS\PROJECT2\PROJECT4\PROJECT4\BULLETINVERSEDYNAMICS\IDMATH.CPP
^C:\USERS\AK\DOWNLOADS\PROJECT2\PROJECT4\PROJECT4\BULLETINVERSEDYNAMICS\MULTIBODYTREE.CPP
/c /ZI /nologo /W3 /WX- /diagnostics:classic /sdl /Od /Oy- /D WIN32 /D _DEBUG /D _CONSOLE /D _UNICODE /D UNICODE /Gm /EHsc /RTC1 /MDd /GS /fp:precise /Zc:wchar_t /Zc:forScope /Zc:inline /Fo"DEBUG\\" /Fd"DEBUG\VC141.PDB" /Gd /TP /analyze- C:\USERS\AK\DOWNLOADS\PROJECT2\PROJECT4\PROJECT4\BULLETINVERSEDYNAMICS\MULTIBODYTREE.CPP
^C:\USERS\AK\DOWNLOADS\PROJECT2\PROJECT4\PROJECT4\BULLETSOFTBODY\BTDEFAULTSOFTBODYSOLVER.CPP
/c /ZI /nologo /W3 /WX- /diagnostics:classic /sdl /Od /Oy- /D WIN32 /D _DEBUG /D _CONSOLE /D _UNICODE /D UNICODE /Gm /EHsc /RTC1 /MDd /GS /fp:precise /Zc:wchar_t /Zc:forScope /Zc:inline /Fo"DEBUG\\" /Fd"DEBUG\VC141.PDB" /Gd /TP /analyze- C:\USERS\AK\DOWNLOADS\PROJECT2\PROJECT4\PROJECT4\BULLETSOFTBODY\BTDEFAULTSOFTBODYSOLVER.CPP
^C:\USERS\AK\DOWNLOADS\PROJECT2\PROJECT4\PROJECT4\BULLETSOFTBODY\BTSOFTBODY.CPP
/c /ZI /nologo /W3 /WX- /diagnostics:classic /sdl /Od /Oy- /D WIN32 /D _DEBUG /D _CONSOLE /D _UNICODE /D UNICODE /Gm /EHsc /RTC1 /MDd /GS /fp:precise /Zc:wchar_t /Zc:forScope /Zc:inline /Fo"DEBUG\\" /Fd"DEBUG\VC141.PDB" /Gd /TP /analyze- C:\USERS\AK\DOWNLOADS\PROJECT2\PROJECT4\PROJECT4\BULLETSOFTBODY\BTSOFTBODY.CPP
^C:\USERS\AK\DOWNLOADS\PROJECT2\PROJECT4\PROJECT4\BULLETSOFTBODY\BTSOFTBODYCONCAVECOLLISIONALGORITHM.CPP
/c /ZI /nologo /W3 /WX- /diagnostics:classic /sdl /Od /Oy- /D WIN32 /D _DEBUG /D _CONSOLE /D _UNICODE /D UNICODE /Gm /EHsc /RTC1 /MDd /GS /fp:precise /Zc:wchar_t /Zc:forScope /Zc:inline /Fo"DEBUG\\" /Fd"DEBUG\VC141.PDB" /Gd /TP /analyze- C:\USERS\AK\DOWNLOADS\PROJECT2\PROJECT4\PROJECT4\BULLETSOFTBODY\BTSOFTBODYCONCAVECOLLISIONALGORITHM.CPP
^C:\USERS\AK\DOWNLOADS\PROJECT2\PROJECT4\PROJECT4\BULLETSOFTBODY\BTSOFTBODYHELPERS.CPP
/c /ZI /nologo /W3 /WX- /diagnostics:classic /sdl /Od /Oy- /D WIN32 /D _DEBUG /D _CONSOLE /D _UNICODE /D UNICODE /Gm /EHsc /RTC1 /MDd /GS /fp:precise /Zc:wchar_t /Zc:forScope /Zc:inline /Fo"DEBUG\\" /Fd"DEBUG\VC141.PDB" /Gd /TP /analyze- C:\USERS\AK\DOWNLOADS\PROJECT2\PROJECT4\PROJECT4\BULLETSOFTBODY\BTSOFTBODYHELPERS.CPP
^C:\USERS\AK\DOWNLOADS\PROJECT2\PROJECT4\PROJECT4\BULLETSOFTBODY\BTSOFTBODYRIGIDBODYCOLLISIONCONFIGURATION.CPP
/c /ZI /nologo /W3 /WX- /diagnostics:classic /sdl /Od /Oy- /D WIN32 /D _DEBUG /D _CONSOLE /D _UNICODE /D UNICODE /Gm /EHsc /RTC1 /MDd /GS /fp:precise /Zc:wchar_t /Zc:forScope /Zc:inline /Fo"DEBUG\\" /Fd"DEBUG\VC141.PDB" /Gd /TP /analyze- C:\USERS\AK\DOWNLOADS\PROJECT2\PROJECT4\PROJECT4\BULLETSOFTBODY\BTSOFTBODYRIGIDBODYCOLLISIONCONFIGURATION.CPP
^C:\USERS\AK\DOWNLOADS\PROJECT2\PROJECT4\PROJECT4\BULLETSOFTBODY\BTSOFTMULTIBODYDYNAMICSWORLD.CPP
/c /ZI /nologo /W3 /WX- /diagnostics:classic /sdl /Od /Oy- /D WIN32 /D _DEBUG /D _CONSOLE /D _UNICODE /D UNICODE /Gm /EHsc /RTC1 /MDd /GS /fp:precise /Zc:wchar_t /Zc:forScope /Zc:inline /Fo"DEBUG\\" /Fd"DEBUG\VC141.PDB" /Gd /TP /analyze- C:\USERS\AK\DOWNLOADS\PROJECT2\PROJECT4\PROJECT4\BULLETSOFTBODY\BTSOFTMULTIBODYDYNAMICSWORLD.CPP
^C:\USERS\AK\DOWNLOADS\PROJECT2\PROJECT4\PROJECT4\BULLETSOFTBODY\BTSOFTRIGIDCOLLISIONALGORITHM.CPP
/c /ZI /nologo /W3 /WX- /diagnostics:classic /sdl /Od /Oy- /D WIN32 /D _DEBUG /D _CONSOLE /D _UNICODE /D UNICODE /Gm /EHsc /RTC1 /MDd /GS /fp:precise /Zc:wchar_t /Zc:forScope /Zc:inline /Fo"DEBUG\\" /Fd"DEBUG\VC141.PDB" /Gd /TP /analyze- C:\USERS\AK\DOWNLOADS\PROJECT2\PROJECT4\PROJECT4\BULLETSOFTBODY\BTSOFTRIGIDCOLLISIONALGORITHM.CPP
^C:\USERS\AK\DOWNLOADS\PROJECT2\PROJECT4\PROJECT4\BULLETSOFTBODY\BTSOFTRIGIDDYNAMICSWORLD.CPP
/c /ZI /nologo /W3 /WX- /diagnostics:classic /sdl /Od /Oy- /D WIN32 /D _DEBUG /D _CONSOLE /D _UNICODE /D UNICODE /Gm /EHsc /RTC1 /MDd /GS /fp:precise /Zc:wchar_t /Zc:forScope /Zc:inline /Fo"DEBUG\\" /Fd"DEBUG\VC141.PDB" /Gd /TP /analyze- C:\USERS\AK\DOWNLOADS\PROJECT2\PROJECT4\PROJECT4\BULLETSOFTBODY\BTSOFTRIGIDDYNAMICSWORLD.CPP
^C:\USERS\AK\DOWNLOADS\PROJECT2\PROJECT4\PROJECT4\BULLETSOFTBODY\BTSOFTSOFTCOLLISIONALGORITHM.CPP
/c /ZI /nologo /W3 /WX- /diagnostics:classic /sdl /Od /Oy- /D WIN32 /D _DEBUG /D _CONSOLE /D _UNICODE /D UNICODE /Gm /EHsc /RTC1 /MDd /GS /fp:precise /Zc:wchar_t /Zc:forScope /Zc:inline /Fo"DEBUG\\" /Fd"DEBUG\VC141.PDB" /Gd /TP /analyze- C:\USERS\AK\DOWNLOADS\PROJECT2\PROJECT4\PROJECT4\BULLETSOFTBODY\BTSOFTSOFTCOLLISIONALGORITHM.CPP
^C:\USERS\AK\DOWNLOADS\PROJECT2\PROJECT4\PROJECT4\CCAMERA.CPP
/c /ZI /nologo /W3 /WX- /diagnostics:classic /sdl /Od /Oy- /D WIN32 /D _DEBUG /D _CONSOLE /D _UNICODE /D UNICODE /Gm /EHsc /RTC1 /MDd /GS /fp:precise /Zc:wchar_t /Zc:forScope /Zc:inline /Fo"DEBUG\\" /Fd"DEBUG\VC141.PDB" /Gd /TP /analyze- C:\USERS\AK\DOWNLOADS\PROJECT2\PROJECT4\PROJECT4\CCAMERA.CPP
^C:\USERS\AK\DOWNLOADS\PROJECT2\PROJECT4\PROJECT4\CGAMEOBJECT.CPP
/c /ZI /nologo /W3 /WX- /diagnostics:classic /sdl /Od /Oy- /D WIN32 /D _DEBUG /D _CONSOLE /D _UNICODE /D UNICODE /Gm /EHsc /RTC1 /MDd /GS /fp:precise /Zc:wchar_t /Zc:forScope /Zc:inline /Fo"DEBUG\\" /Fd"DEBUG\VC141.PDB" /Gd /TP /analyze- C:\USERS\AK\DOWNLOADS\PROJECT2\PROJECT4\PROJECT4\CGAMEOBJECT.CPP
^C:\USERS\AK\DOWNLOADS\PROJECT2\PROJECT4\PROJECT4\CGLFWCALLS.CPP
/c /ZI /nologo /W3 /WX- /diagnostics:classic /sdl /Od /Oy- /D WIN32 /D _DEBUG /D _CONSOLE /D _UNICODE /D UNICODE /Gm /EHsc /RTC1 /MDd /GS /fp:precise /Zc:wchar_t /Zc:forScope /Zc:inline /Fo"DEBUG\\" /Fd"DEBUG\VC141.PDB" /Gd /TP /analyze- C:\USERS\AK\DOWNLOADS\PROJECT2\PROJECT4\PROJECT4\CGLFWCALLS.CPP
^C:\USERS\AK\DOWNLOADS\PROJECT2\PROJECT4\PROJECT4\CMESH.CPP
/c /ZI /nologo /W3 /WX- /diagnostics:classic /sdl /Od /Oy- /D WIN32 /D _DEBUG /D _CONSOLE /D _UNICODE /D UNICODE /Gm /EHsc /RTC1 /MDd /GS /fp:precise /Zc:wchar_t /Zc:forScope /Zc:inline /Fo"DEBUG\\" /Fd"DEBUG\VC141.PDB" /Gd /TP /analyze- C:\USERS\AK\DOWNLOADS\PROJECT2\PROJECT4\PROJECT4\CMESH.CPP
^C:\USERS\AK\DOWNLOADS\PROJECT2\PROJECT4\PROJECT4\CMODEL.CPP
/c /ZI /nologo /W3 /WX- /diagnostics:classic /sdl /Od /Oy- /D WIN32 /D _DEBUG /D _CONSOLE /D _UNICODE /D UNICODE /Gm /EHsc /RTC1 /MDd /GS /fp:precise /Zc:wchar_t /Zc:forScope /Zc:inline /Fo"DEBUG\\" /Fd"DEBUG\VC141.PDB" /Gd /TP /analyze- C:\USERS\AK\DOWNLOADS\PROJECT2\PROJECT4\PROJECT4\CMODEL.CPP
^C:\USERS\AK\DOWNLOADS\PROJECT2\PROJECT4\PROJECT4\CPHYSICSWORLD.CPP
/c /ZI /nologo /W3 /WX- /diagnostics:classic /sdl /Od /Oy- /D WIN32 /D _DEBUG /D _CONSOLE /D _UNICODE /D UNICODE /Gm /EHsc /RTC1 /MDd /GS /fp:precise /Zc:wchar_t /Zc:forScope /Zc:inline /Fo"DEBUG\\" /Fd"DEBUG\VC141.PDB" /Gd /TP /analyze- C:\USERS\AK\DOWNLOADS\PROJECT2\PROJECT4\PROJECT4\CPHYSICSWORLD.CPP
^C:\USERS\AK\DOWNLOADS\PROJECT2\PROJECT4\PROJECT4\CSHADER.CPP
/c /ZI /nologo /W3 /WX- /diagnostics:classic /sdl /Od /Oy- /D WIN32 /D _DEBUG /D _CONSOLE /D _UNICODE /D UNICODE /Gm /EHsc /RTC1 /MDd /GS /fp:precise /Zc:wchar_t /Zc:forScope /Zc:inline /Fo"DEBUG\\" /Fd"DEBUG\VC141.PDB" /Gd /TP /analyze- C:\USERS\AK\DOWNLOADS\PROJECT2\PROJECT4\PROJECT4\CSHADER.CPP
^C:\USERS\AK\DOWNLOADS\PROJECT2\PROJECT4\PROJECT4\CSHADERMANAGER.CPP
/c /ZI /nologo /W3 /WX- /diagnostics:classic /sdl /Od /Oy- /D WIN32 /D _DEBUG /D _CONSOLE /D _UNICODE /D UNICODE /Gm /EHsc /RTC1 /MDd /GS /fp:precise /Zc:wchar_t /Zc:forScope /Zc:inline /Fo"DEBUG\\" /Fd"DEBUG\VC141.PDB" /Gd /TP /analyze- C:\USERS\AK\DOWNLOADS\PROJECT2\PROJECT4\PROJECT4\CSHADERMANAGER.CPP
^C:\USERS\AK\DOWNLOADS\PROJECT2\PROJECT4\PROJECT4\LINEARMATH\BTALIGNEDALLOCATOR.CPP
/c /ZI /nologo /W3 /WX- /diagnostics:classic /sdl /Od /Oy- /D WIN32 /D _DEBUG /D _CONSOLE /D _UNICODE /D UNICODE /Gm /EHsc /RTC1 /MDd /GS /fp:precise /Zc:wchar_t /Zc:forScope /Zc:inline /Fo"DEBUG\\" /Fd"DEBUG\VC141.PDB" /Gd /TP /analyze- C:\USERS\AK\DOWNLOADS\PROJECT2\PROJECT4\PROJECT4\LINEARMATH\BTALIGNEDALLOCATOR.CPP
^C:\USERS\AK\DOWNLOADS\PROJECT2\PROJECT4\PROJECT4\LINEARMATH\BTCONVEXHULL.CPP
/c /ZI /nologo /W3 /WX- /diagnostics:classic /sdl /Od /Oy- /D WIN32 /D _DEBUG /D _CONSOLE /D _UNICODE /D UNICODE /Gm /EHsc /RTC1 /MDd /GS /fp:precise /Zc:wchar_t /Zc:forScope /Zc:inline /Fo"DEBUG\\" /Fd"DEBUG\VC141.PDB" /Gd /TP /analyze- C:\USERS\AK\DOWNLOADS\PROJECT2\PROJECT4\PROJECT4\LINEARMATH\BTCONVEXHULL.CPP
^C:\USERS\AK\DOWNLOADS\PROJECT2\PROJECT4\PROJECT4\LINEARMATH\BTCONVEXHULLCOMPUTER.CPP
/c /ZI /nologo /W3 /WX- /diagnostics:classic /sdl /Od /Oy- /D WIN32 /D _DEBUG /D _CONSOLE /D _UNICODE /D UNICODE /Gm /EHsc /RTC1 /MDd /GS /fp:precise /Zc:wchar_t /Zc:forScope /Zc:inline /Fo"DEBUG\\" /Fd"DEBUG\VC141.PDB" /Gd /TP /analyze- C:\USERS\AK\DOWNLOADS\PROJECT2\PROJECT4\PROJECT4\LINEARMATH\BTCONVEXHULLCOMPUTER.CPP
^C:\USERS\AK\DOWNLOADS\PROJECT2\PROJECT4\PROJECT4\LINEARMATH\BTGEOMETRYUTIL.CPP
/c /ZI /nologo /W3 /WX- /diagnostics:classic /sdl /Od /Oy- /D WIN32 /D _DEBUG /D _CONSOLE /D _UNICODE /D UNICODE /Gm /EHsc /RTC1 /MDd /GS /fp:precise /Zc:wchar_t /Zc:forScope /Zc:inline /Fo"DEBUG\\" /Fd"DEBUG\VC141.PDB" /Gd /TP /analyze- C:\USERS\AK\DOWNLOADS\PROJECT2\PROJECT4\PROJECT4\LINEARMATH\BTGEOMETRYUTIL.CPP
^C:\USERS\AK\DOWNLOADS\PROJECT2\PROJECT4\PROJECT4\LINEARMATH\BTPOLARDECOMPOSITION.CPP
/c /ZI /nologo /W3 /WX- /diagnostics:classic /sdl /Od /Oy- /D WIN32 /D _DEBUG /D _CONSOLE /D _UNICODE /D UNICODE /Gm /EHsc /RTC1 /MDd /GS /fp:precise /Zc:wchar_t /Zc:forScope /Zc:inline /Fo"DEBUG\\" /Fd"DEBUG\VC141.PDB" /Gd /TP /analyze- C:\USERS\AK\DOWNLOADS\PROJECT2\PROJECT4\PROJECT4\LINEARMATH\BTPOLARDECOMPOSITION.CPP
^C:\USERS\AK\DOWNLOADS\PROJECT2\PROJECT4\PROJECT4\LINEARMATH\BTQUICKPROF.CPP
/c /ZI /nologo /W3 /WX- /diagnostics:classic /sdl /Od /Oy- /D WIN32 /D _DEBUG /D _CONSOLE /D _UNICODE /D UNICODE /Gm /EHsc /RTC1 /MDd /GS /fp:precise /Zc:wchar_t /Zc:forScope /Zc:inline /Fo"DEBUG\\" /Fd"DEBUG\VC141.PDB" /Gd /TP /analyze- C:\USERS\AK\DOWNLOADS\PROJECT2\PROJECT4\PROJECT4\LINEARMATH\BTQUICKPROF.CPP
^C:\USERS\AK\DOWNLOADS\PROJECT2\PROJECT4\PROJECT4\LINEARMATH\BTSERIALIZER.CPP
/c /ZI /nologo /W3 /WX- /diagnostics:classic /sdl /Od /Oy- /D WIN32 /D _DEBUG /D _CONSOLE /D _UNICODE /D UNICODE /Gm /EHsc /RTC1 /MDd /GS /fp:precise /Zc:wchar_t /Zc:forScope /Zc:inline /Fo"DEBUG\\" /Fd"DEBUG\VC141.PDB" /Gd /TP /analyze- C:\USERS\AK\DOWNLOADS\PROJECT2\PROJECT4\PROJECT4\LINEARMATH\BTSERIALIZER.CPP
^C:\USERS\AK\DOWNLOADS\PROJECT2\PROJECT4\PROJECT4\LINEARMATH\BTSERIALIZER64.CPP
/c /ZI /nologo /W3 /WX- /diagnostics:classic /sdl /Od /Oy- /D WIN32 /D _DEBUG /D _CONSOLE /D _UNICODE /D UNICODE /Gm /EHsc /RTC1 /MDd /GS /fp:precise /Zc:wchar_t /Zc:forScope /Zc:inline /Fo"DEBUG\\" /Fd"DEBUG\VC141.PDB" /Gd /TP /analyze- C:\USERS\AK\DOWNLOADS\PROJECT2\PROJECT4\PROJECT4\LINEARMATH\BTSERIALIZER64.CPP
^C:\USERS\AK\DOWNLOADS\PROJECT2\PROJECT4\PROJECT4\LINEARMATH\BTTHREADS.CPP
/c /ZI /nologo /W3 /WX- /diagnostics:classic /sdl /Od /Oy- /D WIN32 /D _DEBUG /D _CONSOLE /D _UNICODE /D UNICODE /Gm /EHsc /RTC1 /MDd /GS /fp:precise /Zc:wchar_t /Zc:forScope /Zc:inline /Fo"DEBUG\\" /Fd"DEBUG\VC141.PDB" /Gd /TP /analyze- C:\USERS\AK\DOWNLOADS\PROJECT2\PROJECT4\PROJECT4\LINEARMATH\BTTHREADS.CPP
^C:\USERS\AK\DOWNLOADS\PROJECT2\PROJECT4\PROJECT4\LINEARMATH\BTVECTOR3.CPP
/c /ZI /nologo /W3 /WX- /diagnostics:classic /sdl /Od /Oy- /D WIN32 /D _DEBUG /D _CONSOLE /D _UNICODE /D UNICODE /Gm /EHsc /RTC1 /MDd /GS /fp:precise /Zc:wchar_t /Zc:forScope /Zc:inline /Fo"DEBUG\\" /Fd"DEBUG\VC141.PDB" /Gd /TP /analyze- C:\USERS\AK\DOWNLOADS\PROJECT2\PROJECT4\PROJECT4\LINEARMATH\BTVECTOR3.CPP
^C:\USERS\AK\DOWNLOADS\PROJECT2\PROJECT4\PROJECT4\STB_IMAGE.CPP
/c /ZI /nologo /W3 /WX- /diagnostics:classic /sdl /Od /Oy- /D WIN32 /D _DEBUG /D _CONSOLE /D _UNICODE /D UNICODE /Gm /EHsc /RTC1 /MDd /GS /fp:precise /Zc:wchar_t /Zc:forScope /Zc:inline /Fo"DEBUG\\" /Fd"DEBUG\VC141.PDB" /Gd /TP /analyze- C:\USERS\AK\DOWNLOADS\PROJECT2\PROJECT4\PROJECT4\STB_IMAGE.CPP
^C:\USERS\AK\DOWNLOADS\PROJECT2\PROJECT4\PROJECT4\MAIN.CPP
/c /ZI /nologo /W3 /WX- /diagnostics:classic /sdl /Od /Oy- /D WIN32 /D _DEBUG /D _CONSOLE /D _UNICODE /D UNICODE /Gm /EHsc /RTC1 /MDd /GS /fp:precise /Zc:wchar_t /Zc:forScope /Zc:inline /Fo"DEBUG\\" /Fd"DEBUG\VC141.PDB" /Gd /TP /analyze- C:\USERS\AK\DOWNLOADS\PROJECT2\PROJECT4\PROJECT4\MAIN.CPP
^C:\USERS\AK\DOWNLOADS\PROJECT2\PROJECT4\PROJECT4\UTILITIES.CPP
/c /ZI /nologo /W3 /WX- /diagnostics:classic /sdl /Od /Oy- /D WIN32 /D _DEBUG /D _CONSOLE /D _UNICODE /D UNICODE /Gm /EHsc /RTC1 /MDd /GS /fp:precise /Zc:wchar_t /Zc:forScope /Zc:inline /Fo"DEBUG\\" /Fd"DEBUG\VC141.PDB" /Gd /TP /analyze- C:\USERS\AK\DOWNLOADS\PROJECT2\PROJECT4\PROJECT4\UTILITIES.CPP
