^F:\FANSHAWE\TERM 2\PHYSICS\PROJECT1\PROJECT1\CCAMERA.CPP
/c /ZI /nologo /W3 /WX- /diagnostics:classic /sdl /Od /Oy- /D WIN32 /D _DEBUG /D _CONSOLE /D _UNICODE /D UNICODE /Gm /EHsc /RTC1 /MDd /GS /fp:precise /Zc:wchar_t /Zc:forScope /Zc:inline /Fo"DEBUG\\" /Fd"DEBUG\VC141.PDB" /Gd /TP /analyze- F:\FANSHAWE\TERM 2\PHYSICS\PROJECT1\PROJECT1\CCAMERA.CPP
^F:\FANSHAWE\TERM 2\PHYSICS\PROJECT1\PROJECT1\CGAMEOBJECT.CPP
/c /ZI /nologo /W3 /WX- /diagnostics:classic /sdl /Od /Oy- /D WIN32 /D _DEBUG /D _CONSOLE /D _UNICODE /D UNICODE /Gm /EHsc /RTC1 /MDd /GS /fp:precise /Zc:wchar_t /Zc:forScope /Zc:inline /Fo"DEBUG\\" /Fd"DEBUG\VC141.PDB" /Gd /TP /analyze- F:\FANSHAWE\TERM 2\PHYSICS\PROJECT1\PROJECT1\CGAMEOBJECT.CPP
^F:\FANSHAWE\TERM 2\PHYSICS\PROJECT1\PROJECT1\CGLFWCALLS.CPP
/c /ZI /nologo /W3 /WX- /diagnostics:classic /sdl /Od /Oy- /D WIN32 /D _DEBUG /D _CONSOLE /D _UNICODE /D UNICODE /Gm /EHsc /RTC1 /MDd /GS /fp:precise /Zc:wchar_t /Zc:forScope /Zc:inline /Fo"DEBUG\\" /Fd"DEBUG\VC141.PDB" /Gd /TP /analyze- F:\FANSHAWE\TERM 2\PHYSICS\PROJECT1\PROJECT1\CGLFWCALLS.CPP
^F:\FANSHAWE\TERM 2\PHYSICS\PROJECT1\PROJECT1\CMESH.CPP
/c /ZI /nologo /W3 /WX- /diagnostics:classic /sdl /Od /Oy- /D WIN32 /D _DEBUG /D _CONSOLE /D _UNICODE /D UNICODE /Gm /EHsc /RTC1 /MDd /GS /fp:precise /Zc:wchar_t /Zc:forScope /Zc:inline /Fo"DEBUG\\" /Fd"DEBUG\VC141.PDB" /Gd /TP /analyze- F:\FANSHAWE\TERM 2\PHYSICS\PROJECT1\PROJECT1\CMESH.CPP
^F:\FANSHAWE\TERM 2\PHYSICS\PROJECT1\PROJECT1\CMODEL.CPP
/c /ZI /nologo /W3 /WX- /diagnostics:classic /sdl /Od /Oy- /D WIN32 /D _DEBUG /D _CONSOLE /D _UNICODE /D UNICODE /Gm /EHsc /RTC1 /MDd /GS /fp:precise /Zc:wchar_t /Zc:forScope /Zc:inline /Fo"DEBUG\\" /Fd"DEBUG\VC141.PDB" /Gd /TP /analyze- F:\FANSHAWE\TERM 2\PHYSICS\PROJECT1\PROJECT1\CMODEL.CPP
^F:\FANSHAWE\TERM 2\PHYSICS\PROJECT1\PROJECT1\CSHADER.CPP
/c /ZI /nologo /W3 /WX- /diagnostics:classic /sdl /Od /Oy- /D WIN32 /D _DEBUG /D _CONSOLE /D _UNICODE /D UNICODE /Gm /EHsc /RTC1 /MDd /GS /fp:precise /Zc:wchar_t /Zc:forScope /Zc:inline /Fo"DEBUG\\" /Fd"DEBUG\VC141.PDB" /Gd /TP /analyze- F:\FANSHAWE\TERM 2\PHYSICS\PROJECT1\PROJECT1\CSHADER.CPP
^F:\FANSHAWE\TERM 2\PHYSICS\PROJECT1\PROJECT1\CSHADERMANAGER.CPP
/c /ZI /nologo /W3 /WX- /diagnostics:classic /sdl /Od /Oy- /D WIN32 /D _DEBUG /D _CONSOLE /D _UNICODE /D UNICODE /Gm /EHsc /RTC1 /MDd /GS /fp:precise /Zc:wchar_t /Zc:forScope /Zc:inline /Fo"DEBUG\\" /Fd"DEBUG\VC141.PDB" /Gd /TP /analyze- F:\FANSHAWE\TERM 2\PHYSICS\PROJECT1\PROJECT1\CSHADERMANAGER.CPP
^F:\FANSHAWE\TERM 2\PHYSICS\PROJECT1\PROJECT1\PHYSICS.CPP
/c /ZI /nologo /W3 /WX- /diagnostics:classic /sdl /Od /Oy- /D WIN32 /D _DEBUG /D _CONSOLE /D _UNICODE /D UNICODE /Gm /EHsc /RTC1 /MDd /GS /fp:precise /Zc:wchar_t /Zc:forScope /Zc:inline /Fo"DEBUG\\" /Fd"DEBUG\VC141.PDB" /Gd /TP /analyze- F:\FANSHAWE\TERM 2\PHYSICS\PROJECT1\PROJECT1\PHYSICS.CPP
^F:\FANSHAWE\TERM 2\PHYSICS\PROJECT1\PROJECT1\STB_IMAGE.CPP
/c /ZI /nologo /W3 /WX- /diagnostics:classic /sdl /Od /Oy- /D WIN32 /D _DEBUG /D _CONSOLE /D _UNICODE /D UNICODE /Gm /EHsc /RTC1 /MDd /GS /fp:precise /Zc:wchar_t /Zc:forScope /Zc:inline /Fo"DEBUG\\" /Fd"DEBUG\VC141.PDB" /Gd /TP /analyze- F:\FANSHAWE\TERM 2\PHYSICS\PROJECT1\PROJECT1\STB_IMAGE.CPP
^F:\FANSHAWE\TERM 2\PHYSICS\PROJECT1\PROJECT1\MAIN.CPP
/c /ZI /nologo /W3 /WX- /diagnostics:classic /sdl /Od /Oy- /D WIN32 /D _DEBUG /D _CONSOLE /D _UNICODE /D UNICODE /Gm /EHsc /RTC1 /MDd /GS /fp:precise /Zc:wchar_t /Zc:forScope /Zc:inline /Fo"DEBUG\\" /Fd"DEBUG\VC141.PDB" /Gd /TP /analyze- F:\FANSHAWE\TERM 2\PHYSICS\PROJECT1\PROJECT1\MAIN.CPP
^F:\FANSHAWE\TERM 2\PHYSICS\PROJECT1\PROJECT1\UTILITIES.CPP
/c /ZI /nologo /W3 /WX- /diagnostics:classic /sdl /Od /Oy- /D WIN32 /D _DEBUG /D _CONSOLE /D _UNICODE /D UNICODE /Gm /EHsc /RTC1 /MDd /GS /fp:precise /Zc:wchar_t /Zc:forScope /Zc:inline /Fo"DEBUG\\" /Fd"DEBUG\VC141.PDB" /Gd /TP /analyze- F:\FANSHAWE\TERM 2\PHYSICS\PROJECT1\PROJECT1\UTILITIES.CPP
^F:\FANSHAWE\TERM 2\PHYSICS\PROJECT1\PROJECT1\GLAD.C
/c /ZI /nologo /W3 /WX- /diagnostics:classic /sdl /Od /Oy- /D WIN32 /D _DEBUG /D _CONSOLE /D _UNICODE /D UNICODE /Gm /EHsc /RTC1 /MDd /GS /fp:precise /Zc:wchar_t /Zc:forScope /Zc:inline /Fo"DEBUG\\" /Fd"DEBUG\VC141.PDB" /Gd /TC /analyze- F:\FANSHAWE\TERM 2\PHYSICS\PROJECT1\PROJECT1\GLAD.C
