^F:\FANSHAWE\TERM 2\GAMEJAM\SOURCE\CANIMATIONSTATE.CPP
/c /Zi /nologo /W3 /WX- /diagnostics:classic /sdl /O2 /Oi /GL /D NDEBUG /D _CONSOLE /D _UNICODE /D UNICODE /Gm- /EHsc /MD /GS /Gy /fp:precise /Zc:wchar_t /Zc:forScope /Zc:inline /Fo"X64\RELEASE\\" /Fd"X64\RELEASE\VC141.PDB" /Gd /TP F:\FANSHAWE\TERM 2\GAMEJAM\SOURCE\CANIMATIONSTATE.CPP
^F:\FANSHAWE\TERM 2\GAMEJAM\SOURCE\CPATH.CPP
/c /Zi /nologo /W3 /WX- /diagnostics:classic /sdl /O2 /Oi /GL /D NDEBUG /D _CONSOLE /D _UNICODE /D UNICODE /Gm- /EHsc /MD /GS /Gy /fp:precise /Zc:wchar_t /Zc:forScope /Zc:inline /Fo"X64\RELEASE\\" /Fd"X64\RELEASE\VC141.PDB" /Gd /TP F:\FANSHAWE\TERM 2\GAMEJAM\SOURCE\CPATH.CPP
^F:\FANSHAWE\TERM 2\GAMEJAM\SOURCE\CSHADER.CPP
/c /Zi /nologo /W3 /WX- /diagnostics:classic /sdl /O2 /Oi /GL /D NDEBUG /D _CONSOLE /D _UNICODE /D UNICODE /Gm- /EHsc /MD /GS /Gy /fp:precise /Zc:wchar_t /Zc:forScope /Zc:inline /Fo"X64\RELEASE\\" /Fd"X64\RELEASE\VC141.PDB" /Gd /TP F:\FANSHAWE\TERM 2\GAMEJAM\SOURCE\CSHADER.CPP
^F:\FANSHAWE\TERM 2\GAMEJAM\SOURCE\CSHADERMANAGER.CPP
/c /Zi /nologo /W3 /WX- /diagnostics:classic /sdl /O2 /Oi /GL /D NDEBUG /D _CONSOLE /D _UNICODE /D UNICODE /Gm- /EHsc /MD /GS /Gy /fp:precise /Zc:wchar_t /Zc:forScope /Zc:inline /Fo"X64\RELEASE\\" /Fd"X64\RELEASE\VC141.PDB" /Gd /TP F:\FANSHAWE\TERM 2\GAMEJAM\SOURCE\CSHADERMANAGER.CPP
^F:\FANSHAWE\TERM 2\GAMEJAM\SOURCE\CSKINNEDMESH.CPP
/c /Zi /nologo /W3 /WX- /diagnostics:classic /sdl /O2 /Oi /GL /D NDEBUG /D _CONSOLE /D _UNICODE /D UNICODE /Gm- /EHsc /MD /GS /Gy /fp:precise /Zc:wchar_t /Zc:forScope /Zc:inline /Fo"X64\RELEASE\\" /Fd"X64\RELEASE\VC141.PDB" /Gd /TP F:\FANSHAWE\TERM 2\GAMEJAM\SOURCE\CSKINNEDMESH.CPP
^F:\FANSHAWE\TERM 2\GAMEJAM\SOURCE\STB_IMAGE.CPP
/c /Zi /nologo /W3 /WX- /diagnostics:classic /sdl /O2 /Oi /GL /D NDEBUG /D _CONSOLE /D _UNICODE /D UNICODE /Gm- /EHsc /MD /GS /Gy /fp:precise /Zc:wchar_t /Zc:forScope /Zc:inline /Fo"X64\RELEASE\\" /Fd"X64\RELEASE\VC141.PDB" /Gd /TP F:\FANSHAWE\TERM 2\GAMEJAM\SOURCE\STB_IMAGE.CPP
^F:\FANSHAWE\TERM 2\GAMEJAM\SOURCE\UTILITIES.CPP
/c /Zi /nologo /W3 /WX- /diagnostics:classic /sdl /O2 /Oi /GL /D NDEBUG /D _CONSOLE /D _UNICODE /D UNICODE /Gm- /EHsc /MD /GS /Gy /fp:precise /Zc:wchar_t /Zc:forScope /Zc:inline /Fo"X64\RELEASE\\" /Fd"X64\RELEASE\VC141.PDB" /Gd /TP F:\FANSHAWE\TERM 2\GAMEJAM\SOURCE\UTILITIES.CPP
^F:\FANSHAWE\TERM 2\GAMEJAM\SOURCE\GLAD.C
/c /Zi /nologo /W3 /WX- /diagnostics:classic /sdl /O2 /Oi /GL /D NDEBUG /D _CONSOLE /D _UNICODE /D UNICODE /Gm- /EHsc /MD /GS /Gy /fp:precise /Zc:wchar_t /Zc:forScope /Zc:inline /Fo"X64\RELEASE\\" /Fd"X64\RELEASE\VC141.PDB" /Gd /TC F:\FANSHAWE\TERM 2\GAMEJAM\SOURCE\GLAD.C
^F:\FANSHAWE\TERM 2\GAMEJAM\SOURCE\CFBO.CPP
/c /Zi /nologo /W3 /WX- /diagnostics:classic /sdl /O2 /Oi /GL /D NDEBUG /D _CONSOLE /D _UNICODE /D UNICODE /Gm- /EHsc /MD /GS /Gy /fp:precise /Zc:wchar_t /Zc:forScope /Zc:inline /Fo"X64\RELEASE\\" /Fd"X64\RELEASE\VC141.PDB" /Gd /TP F:\FANSHAWE\TERM 2\GAMEJAM\SOURCE\CFBO.CPP
^F:\FANSHAWE\TERM 2\GAMEJAM\SOURCE\CMODEL.CPP
/c /Zi /nologo /W3 /WX- /diagnostics:classic /sdl /O2 /Oi /GL /D NDEBUG /D _CONSOLE /D _UNICODE /D UNICODE /Gm- /EHsc /MD /GS /Gy /fp:precise /Zc:wchar_t /Zc:forScope /Zc:inline /Fo"X64\RELEASE\\" /Fd"X64\RELEASE\VC141.PDB" /Gd /TP F:\FANSHAWE\TERM 2\GAMEJAM\SOURCE\CMODEL.CPP
^F:\FANSHAWE\TERM 2\GAMEJAM\SOURCE\CMESH.CPP
/c /Zi /nologo /W3 /WX- /diagnostics:classic /sdl /O2 /Oi /GL /D NDEBUG /D _CONSOLE /D _UNICODE /D UNICODE /Gm- /EHsc /MD /GS /Gy /fp:precise /Zc:wchar_t /Zc:forScope /Zc:inline /Fo"X64\RELEASE\\" /Fd"X64\RELEASE\VC141.PDB" /Gd /TP F:\FANSHAWE\TERM 2\GAMEJAM\SOURCE\CMESH.CPP
^F:\FANSHAWE\TERM 2\GAMEJAM\SOURCE\PHYSICS.CPP
/c /Zi /nologo /W3 /WX- /diagnostics:classic /sdl /O2 /Oi /GL /D NDEBUG /D _CONSOLE /D _UNICODE /D UNICODE /Gm- /EHsc /MD /GS /Gy /fp:precise /Zc:wchar_t /Zc:forScope /Zc:inline /Fo"X64\RELEASE\\" /Fd"X64\RELEASE\VC141.PDB" /Gd /TP F:\FANSHAWE\TERM 2\GAMEJAM\SOURCE\PHYSICS.CPP
^F:\FANSHAWE\TERM 2\GAMEJAM\SOURCE\CMAP.CPP
/c /Zi /nologo /W3 /WX- /diagnostics:classic /sdl /O2 /Oi /GL /D NDEBUG /D _CONSOLE /D _UNICODE /D UNICODE /Gm- /EHsc /MD /GS /Gy /fp:precise /Zc:wchar_t /Zc:forScope /Zc:inline /Fo"X64\RELEASE\\" /Fd"X64\RELEASE\VC141.PDB" /Gd /TP F:\FANSHAWE\TERM 2\GAMEJAM\SOURCE\CMAP.CPP
^F:\FANSHAWE\TERM 2\GAMEJAM\SOURCE\CMAPCELL.CPP
/c /Zi /nologo /W3 /WX- /diagnostics:classic /sdl /O2 /Oi /GL /D NDEBUG /D _CONSOLE /D _UNICODE /D UNICODE /Gm- /EHsc /MD /GS /Gy /fp:precise /Zc:wchar_t /Zc:forScope /Zc:inline /Fo"X64\RELEASE\\" /Fd"X64\RELEASE\VC141.PDB" /Gd /TP F:\FANSHAWE\TERM 2\GAMEJAM\SOURCE\CMAPCELL.CPP
^F:\FANSHAWE\TERM 2\GAMEJAM\SOURCE\CPARTICLE.CPP
/c /Zi /nologo /W3 /WX- /diagnostics:classic /sdl /O2 /Oi /GL /D NDEBUG /D _CONSOLE /D _UNICODE /D UNICODE /Gm- /EHsc /MD /GS /Gy /fp:precise /Zc:wchar_t /Zc:forScope /Zc:inline /Fo"X64\RELEASE\\" /Fd"X64\RELEASE\VC141.PDB" /Gd /TP F:\FANSHAWE\TERM 2\GAMEJAM\SOURCE\CPARTICLE.CPP
^F:\FANSHAWE\TERM 2\GAMEJAM\SOURCE\CPLAYERGAMEOBJECT.CPP
/c /Zi /nologo /W3 /WX- /diagnostics:classic /sdl /O2 /Oi /GL /D NDEBUG /D _CONSOLE /D _UNICODE /D UNICODE /Gm- /EHsc /MD /GS /Gy /fp:precise /Zc:wchar_t /Zc:forScope /Zc:inline /Fo"X64\RELEASE\\" /Fd"X64\RELEASE\VC141.PDB" /Gd /TP F:\FANSHAWE\TERM 2\GAMEJAM\SOURCE\CPLAYERGAMEOBJECT.CPP
^F:\FANSHAWE\TERM 2\GAMEJAM\SOURCE\FILEUTILITIES.CPP
/c /Zi /nologo /W3 /WX- /diagnostics:classic /sdl /O2 /Oi /GL /D NDEBUG /D _CONSOLE /D _UNICODE /D UNICODE /Gm- /EHsc /MD /GS /Gy /fp:precise /Zc:wchar_t /Zc:forScope /Zc:inline /Fo"X64\RELEASE\\" /Fd"X64\RELEASE\VC141.PDB" /Gd /TP F:\FANSHAWE\TERM 2\GAMEJAM\SOURCE\FILEUTILITIES.CPP
^F:\FANSHAWE\TERM 2\GAMEJAM\SOURCE\UTILS.CPP
/c /Zi /nologo /W3 /WX- /diagnostics:classic /sdl /O2 /Oi /GL /D NDEBUG /D _CONSOLE /D _UNICODE /D UNICODE /Gm- /EHsc /MD /GS /Gy /fp:precise /Zc:wchar_t /Zc:forScope /Zc:inline /Fo"X64\RELEASE\\" /Fd"X64\RELEASE\VC141.PDB" /Gd /TP F:\FANSHAWE\TERM 2\GAMEJAM\SOURCE\UTILS.CPP
^F:\FANSHAWE\TERM 2\GAMEJAM\SOURCE\CCAMERA.CPP
/c /Zi /nologo /W3 /WX- /diagnostics:classic /sdl /O2 /Oi /GL /D NDEBUG /D _CONSOLE /D _UNICODE /D UNICODE /Gm- /EHsc /MD /GS /Gy /fp:precise /Zc:wchar_t /Zc:forScope /Zc:inline /Fo"X64\RELEASE\\" /Fd"X64\RELEASE\VC141.PDB" /Gd /TP F:\FANSHAWE\TERM 2\GAMEJAM\SOURCE\CCAMERA.CPP
^F:\FANSHAWE\TERM 2\GAMEJAM\SOURCE\CDEBUGRENDERER.CPP
/c /Zi /nologo /W3 /WX- /diagnostics:classic /sdl /O2 /Oi /GL /D NDEBUG /D _CONSOLE /D _UNICODE /D UNICODE /Gm- /EHsc /MD /GS /Gy /fp:precise /Zc:wchar_t /Zc:forScope /Zc:inline /Fo"X64\RELEASE\\" /Fd"X64\RELEASE\VC141.PDB" /Gd /TP F:\FANSHAWE\TERM 2\GAMEJAM\SOURCE\CDEBUGRENDERER.CPP
^F:\FANSHAWE\TERM 2\GAMEJAM\SOURCE\CMAPLOADER.CPP
/c /Zi /nologo /W3 /WX- /diagnostics:classic /sdl /O2 /Oi /GL /D NDEBUG /D _CONSOLE /D _UNICODE /D UNICODE /Gm- /EHsc /MD /GS /Gy /fp:precise /Zc:wchar_t /Zc:forScope /Zc:inline /Fo"X64\RELEASE\\" /Fd"X64\RELEASE\VC141.PDB" /Gd /TP F:\FANSHAWE\TERM 2\GAMEJAM\SOURCE\CMAPLOADER.CPP
^F:\FANSHAWE\TERM 2\GAMEJAM\SOURCE\CMENU.CPP
/c /Zi /nologo /W3 /WX- /diagnostics:classic /sdl /O2 /Oi /GL /D NDEBUG /D _CONSOLE /D _UNICODE /D UNICODE /Gm- /EHsc /MD /GS /Gy /fp:precise /Zc:wchar_t /Zc:forScope /Zc:inline /Fo"X64\RELEASE\\" /Fd"X64\RELEASE\VC141.PDB" /Gd /TP F:\FANSHAWE\TERM 2\GAMEJAM\SOURCE\CMENU.CPP
^F:\FANSHAWE\TERM 2\GAMEJAM\SOURCE\CMENULOADER.CPP
/c /Zi /nologo /W3 /WX- /diagnostics:classic /sdl /O2 /Oi /GL /D NDEBUG /D _CONSOLE /D _UNICODE /D UNICODE /Gm- /EHsc /MD /GS /Gy /fp:precise /Zc:wchar_t /Zc:forScope /Zc:inline /Fo"X64\RELEASE\\" /Fd"X64\RELEASE\VC141.PDB" /Gd /TP F:\FANSHAWE\TERM 2\GAMEJAM\SOURCE\CMENULOADER.CPP
^F:\FANSHAWE\TERM 2\GAMEJAM\SOURCE\CMENUOBJ.CPP
/c /Zi /nologo /W3 /WX- /diagnostics:classic /sdl /O2 /Oi /GL /D NDEBUG /D _CONSOLE /D _UNICODE /D UNICODE /Gm- /EHsc /MD /GS /Gy /fp:precise /Zc:wchar_t /Zc:forScope /Zc:inline /Fo"X64\RELEASE\\" /Fd"X64\RELEASE\VC141.PDB" /Gd /TP F:\FANSHAWE\TERM 2\GAMEJAM\SOURCE\CMENUOBJ.CPP
^F:\FANSHAWE\TERM 2\GAMEJAM\SOURCE\EXTERNOBJCALLS.CPP
/c /Zi /nologo /W3 /WX- /diagnostics:classic /sdl /O2 /Oi /GL /D NDEBUG /D _CONSOLE /D _UNICODE /D UNICODE /Gm- /EHsc /MD /GS /Gy /fp:precise /Zc:wchar_t /Zc:forScope /Zc:inline /Fo"X64\RELEASE\\" /Fd"X64\RELEASE\VC141.PDB" /Gd /TP F:\FANSHAWE\TERM 2\GAMEJAM\SOURCE\EXTERNOBJCALLS.CPP
^F:\FANSHAWE\TERM 2\GAMEJAM\SOURCE\MAIN.CPP
/c /Zi /nologo /W3 /WX- /diagnostics:classic /sdl /O2 /Oi /GL /D NDEBUG /D _CONSOLE /D _UNICODE /D UNICODE /Gm- /EHsc /MD /GS /Gy /fp:precise /Zc:wchar_t /Zc:forScope /Zc:inline /Fo"X64\RELEASE\\" /Fd"X64\RELEASE\VC141.PDB" /Gd /TP F:\FANSHAWE\TERM 2\GAMEJAM\SOURCE\MAIN.CPP
^F:\FANSHAWE\TERM 2\GAMEJAM\SOURCE\CPARTICLEEMITTER.CPP
/c /Zi /nologo /W3 /WX- /diagnostics:classic /sdl /O2 /Oi /GL /D NDEBUG /D _CONSOLE /D _UNICODE /D UNICODE /Gm- /EHsc /MD /GS /Gy /fp:precise /Zc:wchar_t /Zc:forScope /Zc:inline /Fo"X64\RELEASE\\" /Fd"X64\RELEASE\VC141.PDB" /Gd /TP F:\FANSHAWE\TERM 2\GAMEJAM\SOURCE\CPARTICLEEMITTER.CPP
^F:\FANSHAWE\TERM 2\GAMEJAM\SOURCE\CGAMEOBJECT.CPP
/c /Zi /nologo /W3 /WX- /diagnostics:classic /sdl /O2 /Oi /GL /D NDEBUG /D _CONSOLE /D _UNICODE /D UNICODE /Gm- /EHsc /MD /GS /Gy /fp:precise /Zc:wchar_t /Zc:forScope /Zc:inline /Fo"X64\RELEASE\\" /Fd"X64\RELEASE\VC141.PDB" /Gd /TP F:\FANSHAWE\TERM 2\GAMEJAM\SOURCE\CGAMEOBJECT.CPP
^F:\FANSHAWE\TERM 2\GAMEJAM\SOURCE\CAIGAMEOBJECT.CPP
/c /Zi /nologo /W3 /WX- /diagnostics:classic /sdl /O2 /Oi /GL /D NDEBUG /D _CONSOLE /D _UNICODE /D UNICODE /Gm- /EHsc /MD /GS /Gy /fp:precise /Zc:wchar_t /Zc:forScope /Zc:inline /Fo"X64\RELEASE\\" /Fd"X64\RELEASE\VC141.PDB" /Gd /TP F:\FANSHAWE\TERM 2\GAMEJAM\SOURCE\CAIGAMEOBJECT.CPP
^F:\FANSHAWE\TERM 2\GAMEJAM\SOURCE\SCENELOADER.CPP
/c /Zi /nologo /W3 /WX- /diagnostics:classic /sdl /O2 /Oi /GL /D NDEBUG /D _CONSOLE /D _UNICODE /D UNICODE /Gm- /EHsc /MD /GS /Gy /fp:precise /Zc:wchar_t /Zc:forScope /Zc:inline /Fo"X64\RELEASE\\" /Fd"X64\RELEASE\VC141.PDB" /Gd /TP F:\FANSHAWE\TERM 2\GAMEJAM\SOURCE\SCENELOADER.CPP
^F:\FANSHAWE\TERM 2\GAMEJAM\SOURCE\CGLFWCALLS.CPP
/c /Zi /nologo /W3 /WX- /diagnostics:classic /sdl /O2 /Oi /GL /D NDEBUG /D _CONSOLE /D _UNICODE /D UNICODE /Gm- /EHsc /MD /GS /Gy /fp:precise /Zc:wchar_t /Zc:forScope /Zc:inline /Fo"X64\RELEASE\\" /Fd"X64\RELEASE\VC141.PDB" /Gd /TP F:\FANSHAWE\TERM 2\GAMEJAM\SOURCE\CGLFWCALLS.CPP
