^F:\FANSHAWE\TERM 2\GAMEJAM\SOURCE\X64\RELEASE\CAIGAMEOBJECT.OBJ|F:\FANSHAWE\TERM 2\GAMEJAM\SOURCE\X64\RELEASE\CANIMATIONSTATE.OBJ|F:\FANSHAWE\TERM 2\GAMEJAM\SOURCE\X64\RELEASE\CCAMERA.OBJ|F:\FANSHAWE\TERM 2\GAMEJAM\SOURCE\X64\RELEASE\CDEBUGRENDERER.OBJ|F:\FANSHAWE\TERM 2\GAMEJAM\SOURCE\X64\RELEASE\CFBO.OBJ|F:\FANSHAWE\TERM 2\GAMEJAM\SOURCE\X64\RELEASE\CGAMEOBJECT.OBJ|F:\FANSHAWE\TERM 2\GAMEJAM\SOURCE\X64\RELEASE\CGLFWCALLS.OBJ|F:\FANSHAWE\TERM 2\GAMEJAM\SOURCE\X64\RELEASE\CMAP.OBJ|F:\FANSHAWE\TERM 2\GAMEJAM\SOURCE\X64\RELEASE\CMAPCELL.OBJ|F:\FANSHAWE\TERM 2\GAMEJAM\SOURCE\X64\RELEASE\CMAPLOADER.OBJ|F:\FANSHAWE\TERM 2\GAMEJAM\SOURCE\X64\RELEASE\CMENU.OBJ|F:\FANSHAWE\TERM 2\GAMEJAM\SOURCE\X64\RELEASE\CMENULOADER.OBJ|F:\FANSHAWE\TERM 2\GAMEJAM\SOURCE\X64\RELEASE\CMENUOBJ.OBJ|F:\FANSHAWE\TERM 2\GAMEJAM\SOURCE\X64\RELEASE\CMESH.OBJ|F:\FANSHAWE\TERM 2\GAMEJAM\SOURCE\X64\RELEASE\CMODEL.OBJ|F:\FANSHAWE\TERM 2\GAMEJAM\SOURCE\X64\RELEASE\CPARTICLE.OBJ|F:\FANSHAWE\TERM 2\GAMEJAM\SOURCE\X64\RELEASE\CPARTICLEEMITTER.OBJ|F:\FANSHAWE\TERM 2\GAMEJAM\SOURCE\X64\RELEASE\CPATH.OBJ|F:\FANSHAWE\TERM 2\GAMEJAM\SOURCE\X64\RELEASE\CPLAYERGAMEOBJECT.OBJ|F:\FANSHAWE\TERM 2\GAMEJAM\SOURCE\X64\RELEASE\CSHADER.OBJ|F:\FANSHAWE\TERM 2\GAMEJAM\SOURCE\X64\RELEASE\CSHADERMANAGER.OBJ|F:\FANSHAWE\TERM 2\GAMEJAM\SOURCE\X64\RELEASE\CSKINNEDMESH.OBJ|F:\FANSHAWE\TERM 2\GAMEJAM\SOURCE\X64\RELEASE\EXTERNOBJCALLS.OBJ|F:\FANSHAWE\TERM 2\GAMEJAM\SOURCE\X64\RELEASE\FILEUTILITIES.OBJ|F:\FANSHAWE\TERM 2\GAMEJAM\SOURCE\X64\RELEASE\GLAD.OBJ|F:\FANSHAWE\TERM 2\GAMEJAM\SOURCE\X64\RELEASE\MAIN.OBJ|F:\FANSHAWE\TERM 2\GAMEJAM\SOURCE\X64\RELEASE\PHYSICS.OBJ|F:\FANSHAWE\TERM 2\GAMEJAM\SOURCE\X64\RELEASE\SCENELOADER.OBJ|F:\FANSHAWE\TERM 2\GAMEJAM\SOURCE\X64\RELEASE\STB_IMAGE.OBJ|F:\FANSHAWE\TERM 2\GAMEJAM\SOURCE\X64\RELEASE\UTILITIES.OBJ|F:\FANSHAWE\TERM 2\GAMEJAM\SOURCE\X64\RELEASE\UTILS.OBJ
F:\FANSHAWE\TERM 2\GAMEJAM\X64\RELEASE\SOURCE.EXE
F:\FANSHAWE\TERM 2\GAMEJAM\X64\RELEASE\SOURCE.PDB
