^F:\Fanshawe\Term 2\GameJam\source\source.vcxproj
F:\Fanshawe\Term 2\GameJam\x64\Release\source.ipdb
F:\Fanshawe\Term 2\GameJam\x64\Release\source.iobj
^F:\Fanshawe\Term 2\GameJam\source\source.vcxproj
F:\Fanshawe\Term 2\GameJam\x64\Release\source.ipdb
F:\Fanshawe\Term 2\GameJam\x64\Release\source.iobj
^F:\Fanshawe\Term 2\GameJam\source\source.vcxproj
F:\Fanshawe\Term 2\GameJam\x64\Release\source.ipdb
F:\Fanshawe\Term 2\GameJam\x64\Release\source.iobj
^F:\Fanshawe\Term 2\GameJam\source\source.vcxproj
F:\Fanshawe\Term 2\GameJam\x64\Release\source.ipdb
F:\Fanshawe\Term 2\GameJam\x64\Release\source.iobj
^F:\Fanshawe\Term 2\GameJam\source\source.vcxproj
F:\Fanshawe\Term 2\GameJam\x64\Release\source.ipdb
F:\Fanshawe\Term 2\GameJam\x64\Release\source.iobj
^F:\Fanshawe\Term 2\GameJam\source\source.vcxproj
F:\Fanshawe\Term 2\GameJam\x64\Release\source.ipdb
F:\Fanshawe\Term 2\GameJam\x64\Release\source.iobj
^F:\Fanshawe\Term 2\GameJam\source\source.vcxproj
F:\Fanshawe\Term 2\GameJam\x64\Release\source.ipdb
F:\Fanshawe\Term 2\GameJam\x64\Release\source.iobj
^F:\Fanshawe\Term 2\GameJam\source\source.vcxproj
F:\Fanshawe\Term 2\GameJam\x64\Release\source.ipdb
F:\Fanshawe\Term 2\GameJam\x64\Release\source.iobj
^F:\Fanshawe\Term 2\GameJam\source\source.vcxproj
F:\Fanshawe\Term 2\GameJam\x64\Release\source.ipdb
F:\Fanshawe\Term 2\GameJam\x64\Release\source.iobj
^F:\Fanshawe\Term 2\GameJam\source\source.vcxproj
F:\Fanshawe\Term 2\GameJam\x64\Release\source.ipdb
F:\Fanshawe\Term 2\GameJam\x64\Release\source.iobj
^F:\Fanshawe\Term 2\GameJam\source\source.vcxproj
F:\Fanshawe\Term 2\GameJam\x64\Release\source.ipdb
F:\Fanshawe\Term 2\GameJam\x64\Release\source.iobj
^F:\Fanshawe\Term 2\GameJam\source\source.vcxproj
F:\Fanshawe\Term 2\GameJam\x64\Release\source.ipdb
F:\Fanshawe\Term 2\GameJam\x64\Release\source.iobj
^F:\Fanshawe\Term 2\GameJam\source\source.vcxproj
F:\Fanshawe\Term 2\GameJam\x64\Release\source.ipdb
F:\Fanshawe\Term 2\GameJam\x64\Release\source.iobj
^F:\Fanshawe\Term 2\GameJam\source\source.vcxproj
F:\Fanshawe\Term 2\GameJam\x64\Release\source.ipdb
F:\Fanshawe\Term 2\GameJam\x64\Release\source.iobj
^F:\Fanshawe\Term 2\GameJam\source\source.vcxproj
F:\Fanshawe\Term 2\GameJam\x64\Release\source.ipdb
F:\Fanshawe\Term 2\GameJam\x64\Release\source.iobj
^F:\Fanshawe\Term 2\GameJam\source\source.vcxproj
F:\Fanshawe\Term 2\GameJam\x64\Release\source.ipdb
F:\Fanshawe\Term 2\GameJam\x64\Release\source.iobj
^F:\Fanshawe\Term 2\GameJam\source\source.vcxproj
F:\Fanshawe\Term 2\GameJam\x64\Release\source.ipdb
F:\Fanshawe\Term 2\GameJam\x64\Release\source.iobj
^F:\Fanshawe\Term 2\GameJam\source\source.vcxproj
F:\Fanshawe\Term 2\GameJam\x64\Release\source.ipdb
F:\Fanshawe\Term 2\GameJam\x64\Release\source.iobj
^F:\Fanshawe\Term 2\GameJam\source\source.vcxproj
F:\Fanshawe\Term 2\GameJam\x64\Release\source.ipdb
F:\Fanshawe\Term 2\GameJam\x64\Release\source.iobj
^F:\Fanshawe\Term 2\GameJam\source\source.vcxproj
F:\Fanshawe\Term 2\GameJam\x64\Release\source.ipdb
F:\Fanshawe\Term 2\GameJam\x64\Release\source.iobj
^F:\Fanshawe\Term 2\GameJam\source\source.vcxproj
F:\Fanshawe\Term 2\GameJam\x64\Release\source.ipdb
F:\Fanshawe\Term 2\GameJam\x64\Release\source.iobj
^F:\Fanshawe\Term 2\GameJam\source\source.vcxproj
F:\Fanshawe\Term 2\GameJam\x64\Release\source.ipdb
F:\Fanshawe\Term 2\GameJam\x64\Release\source.iobj
^F:\Fanshawe\Term 2\GameJam\source\source.vcxproj
F:\Fanshawe\Term 2\GameJam\x64\Release\source.ipdb
F:\Fanshawe\Term 2\GameJam\x64\Release\source.iobj
^F:\Fanshawe\Term 2\GameJam\source\source.vcxproj
F:\Fanshawe\Term 2\GameJam\x64\Release\source.ipdb
F:\Fanshawe\Term 2\GameJam\x64\Release\source.iobj
^F:\Fanshawe\Term 2\GameJam\source\source.vcxproj
F:\Fanshawe\Term 2\GameJam\x64\Release\source.ipdb
F:\Fanshawe\Term 2\GameJam\x64\Release\source.iobj
^F:\Fanshawe\Term 2\GameJam\source\source.vcxproj
F:\Fanshawe\Term 2\GameJam\x64\Release\source.ipdb
F:\Fanshawe\Term 2\GameJam\x64\Release\source.iobj
^F:\Fanshawe\Term 2\GameJam\source\source.vcxproj
F:\Fanshawe\Term 2\GameJam\x64\Release\source.ipdb
F:\Fanshawe\Term 2\GameJam\x64\Release\source.iobj
^F:\Fanshawe\Term 2\GameJam\source\source.vcxproj
F:\Fanshawe\Term 2\GameJam\x64\Release\source.ipdb
F:\Fanshawe\Term 2\GameJam\x64\Release\source.iobj
^F:\Fanshawe\Term 2\GameJam\source\source.vcxproj
F:\Fanshawe\Term 2\GameJam\x64\Release\source.ipdb
F:\Fanshawe\Term 2\GameJam\x64\Release\source.iobj
^F:\Fanshawe\Term 2\GameJam\source\source.vcxproj
F:\Fanshawe\Term 2\GameJam\x64\Release\source.ipdb
F:\Fanshawe\Term 2\GameJam\x64\Release\source.iobj
^F:\Fanshawe\Term 2\GameJam\source\source.vcxproj
F:\Fanshawe\Term 2\GameJam\x64\Release\source.ipdb
F:\Fanshawe\Term 2\GameJam\x64\Release\source.iobj
^F:\Fanshawe\Term 2\GameJam\source\source.vcxproj
F:\Fanshawe\Term 2\GameJam\x64\Release\source.ipdb
F:\Fanshawe\Term 2\GameJam\x64\Release\source.iobj
^F:\Fanshawe\Term 2\GameJam\source\source.vcxproj
F:\Fanshawe\Term 2\GameJam\x64\Release\source.ipdb
F:\Fanshawe\Term 2\GameJam\x64\Release\source.iobj
^F:\Fanshawe\Term 2\GameJam\source\source.vcxproj
F:\Fanshawe\Term 2\GameJam\x64\Release\source.ipdb
F:\Fanshawe\Term 2\GameJam\x64\Release\source.iobj
^F:\Fanshawe\Term 2\GameJam\source\source.vcxproj
F:\Fanshawe\Term 2\GameJam\x64\Release\source.ipdb
F:\Fanshawe\Term 2\GameJam\x64\Release\source.iobj
^F:\Fanshawe\Term 2\GameJam\source\source.vcxproj
F:\Fanshawe\Term 2\GameJam\x64\Release\source.ipdb
F:\Fanshawe\Term 2\GameJam\x64\Release\source.iobj
^F:\Fanshawe\Term 2\GameJam\source\source.vcxproj
F:\Fanshawe\Term 2\GameJam\x64\Release\source.ipdb
F:\Fanshawe\Term 2\GameJam\x64\Release\source.iobj
^F:\Fanshawe\Term 2\GameJam\source\source.vcxproj
F:\Fanshawe\Term 2\GameJam\x64\Release\source.ipdb
F:\Fanshawe\Term 2\GameJam\x64\Release\source.iobj
^F:\Fanshawe\Term 2\GameJam\source\source.vcxproj
F:\Fanshawe\Term 2\GameJam\x64\Release\source.ipdb
F:\Fanshawe\Term 2\GameJam\x64\Release\source.iobj
^F:\Fanshawe\Term 2\GameJam\source\source.vcxproj
F:\Fanshawe\Term 2\GameJam\x64\Release\source.ipdb
F:\Fanshawe\Term 2\GameJam\x64\Release\source.iobj
^F:\Fanshawe\Term 2\GameJam\source\source.vcxproj
F:\Fanshawe\Term 2\GameJam\x64\Release\source.ipdb
F:\Fanshawe\Term 2\GameJam\x64\Release\source.iobj
^F:\Fanshawe\Term 2\GameJam\source\source.vcxproj
F:\Fanshawe\Term 2\GameJam\x64\Release\source.ipdb
F:\Fanshawe\Term 2\GameJam\x64\Release\source.iobj
^F:\Fanshawe\Term 2\GameJam\source\source.vcxproj
F:\Fanshawe\Term 2\GameJam\x64\Release\source.ipdb
F:\Fanshawe\Term 2\GameJam\x64\Release\source.iobj
^F:\Fanshawe\Term 2\GameJam\source\source.vcxproj
F:\Fanshawe\Term 2\GameJam\x64\Release\source.ipdb
F:\Fanshawe\Term 2\GameJam\x64\Release\source.iobj
^F:\Fanshawe\Term 2\GameJam\source\source.vcxproj
F:\Fanshawe\Term 2\GameJam\x64\Release\source.ipdb
F:\Fanshawe\Term 2\GameJam\x64\Release\source.iobj
^F:\Fanshawe\Term 2\GameJam\source\source.vcxproj
F:\Fanshawe\Term 2\GameJam\x64\Release\source.ipdb
F:\Fanshawe\Term 2\GameJam\x64\Release\source.iobj
^F:\Fanshawe\Term 2\GameJam\source\source.vcxproj
F:\Fanshawe\Term 2\GameJam\x64\Release\source.ipdb
F:\Fanshawe\Term 2\GameJam\x64\Release\source.iobj
^F:\Fanshawe\Term 2\GameJam\source\source.vcxproj
F:\Fanshawe\Term 2\GameJam\x64\Release\source.ipdb
F:\Fanshawe\Term 2\GameJam\x64\Release\source.iobj
^F:\Fanshawe\Term 2\GameJam\source\source.vcxproj
F:\Fanshawe\Term 2\GameJam\x64\Release\source.ipdb
F:\Fanshawe\Term 2\GameJam\x64\Release\source.iobj
^F:\Fanshawe\Term 2\GameJam\source\source.vcxproj
F:\Fanshawe\Term 2\GameJam\x64\Release\source.ipdb
F:\Fanshawe\Term 2\GameJam\x64\Release\source.iobj
^F:\Fanshawe\Term 2\GameJam\source\source.vcxproj
F:\Fanshawe\Term 2\GameJam\x64\Release\source.ipdb
F:\Fanshawe\Term 2\GameJam\x64\Release\source.iobj
^F:\Fanshawe\Term 2\GameJam\source\source.vcxproj
F:\Fanshawe\Term 2\GameJam\x64\Release\source.ipdb
F:\Fanshawe\Term 2\GameJam\x64\Release\source.iobj
^F:\Fanshawe\Term 2\GameJam\source\source.vcxproj
F:\Fanshawe\Term 2\GameJam\x64\Release\source.ipdb
F:\Fanshawe\Term 2\GameJam\x64\Release\source.iobj
^F:\Fanshawe\Term 2\GameJam\source\source.vcxproj
F:\Fanshawe\Term 2\GameJam\x64\Release\source.ipdb
F:\Fanshawe\Term 2\GameJam\x64\Release\source.iobj
^F:\Fanshawe\Term 2\GameJam\source\source.vcxproj
F:\Fanshawe\Term 2\GameJam\x64\Release\source.ipdb
F:\Fanshawe\Term 2\GameJam\x64\Release\source.iobj
^F:\Fanshawe\Term 2\GameJam\source\source.vcxproj
F:\Fanshawe\Term 2\GameJam\x64\Release\source.ipdb
F:\Fanshawe\Term 2\GameJam\x64\Release\source.iobj
^F:\Fanshawe\Term 2\GameJam\source\source.vcxproj
F:\Fanshawe\Term 2\GameJam\x64\Release\source.ipdb
F:\Fanshawe\Term 2\GameJam\x64\Release\source.iobj
^F:\Fanshawe\Term 2\GameJam\source\source.vcxproj
F:\Fanshawe\Term 2\GameJam\x64\Release\source.ipdb
F:\Fanshawe\Term 2\GameJam\x64\Release\source.iobj
^F:\Fanshawe\Term 2\GameJam\source\source.vcxproj
F:\Fanshawe\Term 2\GameJam\x64\Release\source.ipdb
F:\Fanshawe\Term 2\GameJam\x64\Release\source.iobj
^F:\Fanshawe\Term 2\GameJam\source\source.vcxproj
F:\Fanshawe\Term 2\GameJam\x64\Release\source.ipdb
F:\Fanshawe\Term 2\GameJam\x64\Release\source.iobj
^F:\Fanshawe\Term 2\GameJam\source\source.vcxproj
F:\Fanshawe\Term 2\GameJam\x64\Release\source.ipdb
F:\Fanshawe\Term 2\GameJam\x64\Release\source.iobj
^F:\Fanshawe\Term 2\GameJam\source\source.vcxproj
F:\Fanshawe\Term 2\GameJam\x64\Release\source.ipdb
F:\Fanshawe\Term 2\GameJam\x64\Release\source.iobj
^F:\Fanshawe\Term 2\GameJam\source\source.vcxproj
F:\Fanshawe\Term 2\GameJam\x64\Release\source.ipdb
F:\Fanshawe\Term 2\GameJam\x64\Release\source.iobj
^F:\Fanshawe\Term 2\GameJam\source\source.vcxproj
F:\Fanshawe\Term 2\GameJam\x64\Release\source.ipdb
F:\Fanshawe\Term 2\GameJam\x64\Release\source.iobj
^F:\Fanshawe\Term 2\GameJam\source\source.vcxproj
F:\Fanshawe\Term 2\GameJam\x64\Release\source.ipdb
F:\Fanshawe\Term 2\GameJam\x64\Release\source.iobj
^F:\Fanshawe\Term 2\GameJam\source\source.vcxproj
F:\Fanshawe\Term 2\GameJam\x64\Release\source.ipdb
F:\Fanshawe\Term 2\GameJam\x64\Release\source.iobj
^F:\Fanshawe\Term 2\GameJam\source\source.vcxproj
F:\Fanshawe\Term 2\GameJam\x64\Release\source.ipdb
F:\Fanshawe\Term 2\GameJam\x64\Release\source.iobj
^F:\Fanshawe\Term 2\GameJam\source\source.vcxproj
F:\Fanshawe\Term 2\GameJam\x64\Release\source.ipdb
F:\Fanshawe\Term 2\GameJam\x64\Release\source.iobj
^F:\Fanshawe\Term 2\GameJam\source\source.vcxproj
F:\Fanshawe\Term 2\GameJam\x64\Release\source.ipdb
F:\Fanshawe\Term 2\GameJam\x64\Release\source.iobj
^F:\Fanshawe\Term 2\GameJam\source\source.vcxproj
F:\Fanshawe\Term 2\GameJam\x64\Release\source.ipdb
F:\Fanshawe\Term 2\GameJam\x64\Release\source.iobj
^F:\Fanshawe\Term 2\GameJam\source\source.vcxproj
F:\Fanshawe\Term 2\GameJam\x64\Release\source.ipdb
F:\Fanshawe\Term 2\GameJam\x64\Release\source.iobj
^F:\Fanshawe\Term 2\GameJam\source\source.vcxproj
F:\Fanshawe\Term 2\GameJam\x64\Release\source.ipdb
F:\Fanshawe\Term 2\GameJam\x64\Release\source.iobj
^F:\Fanshawe\Term 2\GameJam\source\source.vcxproj
F:\Fanshawe\Term 2\GameJam\x64\Release\source.ipdb
F:\Fanshawe\Term 2\GameJam\x64\Release\source.iobj
^F:\Fanshawe\Term 2\GameJam\source\source.vcxproj
F:\Fanshawe\Term 2\GameJam\x64\Release\source.ipdb
F:\Fanshawe\Term 2\GameJam\x64\Release\source.iobj
^F:\Fanshawe\Term 2\GameJam\source\source.vcxproj
F:\Fanshawe\Term 2\GameJam\x64\Release\source.ipdb
F:\Fanshawe\Term 2\GameJam\x64\Release\source.iobj
^F:\Fanshawe\Term 2\GameJam\source\source.vcxproj
F:\Fanshawe\Term 2\GameJam\x64\Release\source.ipdb
F:\Fanshawe\Term 2\GameJam\x64\Release\source.iobj
^F:\Fanshawe\Term 2\GameJam\source\source.vcxproj
F:\Fanshawe\Term 2\GameJam\x64\Release\source.ipdb
F:\Fanshawe\Term 2\GameJam\x64\Release\source.iobj
^F:\Fanshawe\Term 2\GameJam\source\source.vcxproj
F:\Fanshawe\Term 2\GameJam\x64\Release\source.ipdb
F:\Fanshawe\Term 2\GameJam\x64\Release\source.iobj
^F:\Fanshawe\Term 2\GameJam\source\source.vcxproj
F:\Fanshawe\Term 2\GameJam\x64\Release\source.ipdb
F:\Fanshawe\Term 2\GameJam\x64\Release\source.iobj
^F:\Fanshawe\Term 2\GameJam\source\source.vcxproj
F:\Fanshawe\Term 2\GameJam\x64\Release\source.ipdb
F:\Fanshawe\Term 2\GameJam\x64\Release\source.iobj
^F:\Fanshawe\Term 2\GameJam\source\source.vcxproj
F:\Fanshawe\Term 2\GameJam\x64\Release\source.ipdb
F:\Fanshawe\Term 2\GameJam\x64\Release\source.iobj
^F:\Fanshawe\Term 2\GameJam\source\source.vcxproj
F:\Fanshawe\Term 2\GameJam\x64\Release\source.ipdb
F:\Fanshawe\Term 2\GameJam\x64\Release\source.iobj
^F:\Fanshawe\Term 2\GameJam\source\source.vcxproj
F:\Fanshawe\Term 2\GameJam\x64\Release\source.ipdb
F:\Fanshawe\Term 2\GameJam\x64\Release\source.iobj
^F:\Fanshawe\Term 2\GameJam\source\source.vcxproj
F:\Fanshawe\Term 2\GameJam\x64\Release\source.ipdb
F:\Fanshawe\Term 2\GameJam\x64\Release\source.iobj
^F:\Fanshawe\Term 2\GameJam\source\source.vcxproj
F:\Fanshawe\Term 2\GameJam\x64\Release\source.ipdb
F:\Fanshawe\Term 2\GameJam\x64\Release\source.iobj
^F:\Fanshawe\Term 2\GameJam\source\source.vcxproj
F:\Fanshawe\Term 2\GameJam\x64\Release\source.ipdb
F:\Fanshawe\Term 2\GameJam\x64\Release\source.iobj
