^F:\FANSHAWE\NETWORK-PROGRAMMING\NETWORKPROJECT3\CLIENTAPP\DEBUG\BUFFER.OBJ|F:\FANSHAWE\NETWORK-PROGRAMMING\NETWORKPROJECT3\CLIENTAPP\DEBUG\CLIENTMAIN.OBJ|F:\FANSHAWE\NETWORK-PROGRAMMING\NETWORKPROJECT3\CLIENTAPP\DEBUG\LOBBYDETAILS.OBJ
F:\FANSHAWE\NETWORK-PROGRAMMING\NETWORKPROJECT3\DEBUG\CLIENTAPP.EXE
F:\FANSHAWE\NETWORK-PROGRAMMING\NETWORKPROJECT3\DEBUG\CLIENTAPP.ILK
F:\FANSHAWE\NETWORK-PROGRAMMING\NETWORKPROJECT3\DEBUG\CLIENTAPP.PDB
