^F:\FANSHAWE\TERM 2\PHYSICS\PROJECT1\PROJECT1\X64\DEBUG\CBALL.OBJ|F:\FANSHAWE\TERM 2\PHYSICS\PROJECT1\PROJECT1\X64\DEBUG\CCAMERA.OBJ|F:\FANSHAWE\TERM 2\PHYSICS\PROJECT1\PROJECT1\X64\DEBUG\CGAMEOBJECT.OBJ|F:\FANSHAWE\TERM 2\PHYSICS\PROJECT1\PROJECT1\X64\DEBUG\CGLFWCALLS.OBJ|F:\FANSHAWE\TERM 2\PHYSICS\PROJECT1\PROJECT1\X64\DEBUG\CMESH.OBJ|F:\FANSHAWE\TERM 2\PHYSICS\PROJECT1\PROJECT1\X64\DEBUG\CMODEL.OBJ|F:\FANSHAWE\TERM 2\PHYSICS\PROJECT1\PROJECT1\X64\DEBUG\CPHYSICSENGINE.OBJ|F:\FANSHAWE\TERM 2\PHYSICS\PROJECT1\PROJECT1\X64\DEBUG\CPLANE.OBJ|F:\FANSHAWE\TERM 2\PHYSICS\PROJECT1\PROJECT1\X64\DEBUG\CSHADER.OBJ|F:\FANSHAWE\TERM 2\PHYSICS\PROJECT1\PROJECT1\X64\DEBUG\CSHADERMANAGER.OBJ|F:\FANSHAWE\TERM 2\PHYSICS\PROJECT1\PROJECT1\X64\DEBUG\EXTERN.OBJ|F:\FANSHAWE\TERM 2\PHYSICS\PROJECT1\PROJECT1\X64\DEBUG\GLAD.OBJ|F:\FANSHAWE\TERM 2\PHYSICS\PROJECT1\PROJECT1\X64\DEBUG\MAIN.OBJ|F:\FANSHAWE\TERM 2\PHYSICS\PROJECT1\PROJECT1\X64\DEBUG\STB_IMAGE.OBJ|F:\FANSHAWE\TERM 2\PHYSICS\PROJECT1\PROJECT1\X64\DEBUG\UTILITIES.OBJ
C:\WINDOWS\GLOBALIZATION\SORTING\SORTDEFAULT.NLS
C:\PROGRAM FILES (X86)\WINDOWS KITS\10\LIB\10.0.15063.0\UM\X64\KERNEL32.LIB
C:\PROGRAM FILES (X86)\WINDOWS KITS\10\LIB\10.0.15063.0\UM\X64\USER32.LIB
C:\PROGRAM FILES (X86)\WINDOWS KITS\10\LIB\10.0.15063.0\UM\X64\GDI32.LIB
C:\PROGRAM FILES (X86)\WINDOWS KITS\10\LIB\10.0.15063.0\UM\X64\WINSPOOL.LIB
C:\PROGRAM FILES (X86)\WINDOWS KITS\10\LIB\10.0.15063.0\UM\X64\COMDLG32.LIB
C:\PROGRAM FILES (X86)\WINDOWS KITS\10\LIB\10.0.15063.0\UM\X64\ADVAPI32.LIB
C:\PROGRAM FILES (X86)\WINDOWS KITS\10\LIB\10.0.15063.0\UM\X64\SHELL32.LIB
C:\PROGRAM FILES (X86)\WINDOWS KITS\10\LIB\10.0.15063.0\UM\X64\OLE32.LIB
C:\PROGRAM FILES (X86)\WINDOWS KITS\10\LIB\10.0.15063.0\UM\X64\OLEAUT32.LIB
C:\PROGRAM FILES (X86)\WINDOWS KITS\10\LIB\10.0.15063.0\UM\X64\UUID.LIB
C:\PROGRAM FILES (X86)\WINDOWS KITS\10\LIB\10.0.15063.0\UM\X64\ODBC32.LIB
C:\PROGRAM FILES (X86)\WINDOWS KITS\10\LIB\10.0.15063.0\UM\X64\ODBCCP32.LIB
F:\FANSHAWE\TERM 2\PHYSICS\PROJECT1\EXTERN\LIB\DEBUG64\ASSIMP-VC140-MT.LIB
F:\FANSHAWE\TERM 2\PHYSICS\PROJECT1\EXTERN\LIB\DEBUG64\GLFW3_64.LIB
F:\FANSHAWE\TERM 2\PHYSICS\PROJECT1\X64\DEBUG\PHYSICS.LIB
F:\FANSHAWE\TERM 2\PHYSICS\PROJECT1\PROJECT1\X64\DEBUG\CBALL.OBJ
F:\FANSHAWE\TERM 2\PHYSICS\PROJECT1\PROJECT1\X64\DEBUG\CCAMERA.OBJ
F:\FANSHAWE\TERM 2\PHYSICS\PROJECT1\PROJECT1\X64\DEBUG\CGAMEOBJECT.OBJ
F:\FANSHAWE\TERM 2\PHYSICS\PROJECT1\PROJECT1\X64\DEBUG\CGLFWCALLS.OBJ
F:\FANSHAWE\TERM 2\PHYSICS\PROJECT1\PROJECT1\X64\DEBUG\CMESH.OBJ
F:\FANSHAWE\TERM 2\PHYSICS\PROJECT1\PROJECT1\X64\DEBUG\CMODEL.OBJ
F:\FANSHAWE\TERM 2\PHYSICS\PROJECT1\PROJECT1\X64\DEBUG\CPLANE.OBJ
F:\FANSHAWE\TERM 2\PHYSICS\PROJECT1\PROJECT1\X64\DEBUG\CSHADER.OBJ
F:\FANSHAWE\TERM 2\PHYSICS\PROJECT1\PROJECT1\X64\DEBUG\CSHADERMANAGER.OBJ
F:\FANSHAWE\TERM 2\PHYSICS\PROJECT1\PROJECT1\X64\DEBUG\EXTERN.OBJ
F:\FANSHAWE\TERM 2\PHYSICS\PROJECT1\PROJECT1\X64\DEBUG\GLAD.OBJ
F:\FANSHAWE\TERM 2\PHYSICS\PROJECT1\PROJECT1\X64\DEBUG\CPHYSICSENGINE.OBJ
F:\FANSHAWE\TERM 2\PHYSICS\PROJECT1\PROJECT1\X64\DEBUG\STB_IMAGE.OBJ
F:\FANSHAWE\TERM 2\PHYSICS\PROJECT1\PROJECT1\X64\DEBUG\MAIN.OBJ
F:\FANSHAWE\TERM 2\PHYSICS\PROJECT1\PROJECT1\X64\DEBUG\UTILITIES.OBJ
C:\WINDOWS\SYSTEM32\TZRES.DLL
C:\PROGRAM FILES (X86)\MICROSOFT VISUAL STUDIO\2017\ENTERPRISE\VC\TOOLS\MSVC\14.11.25503\LIB\X64\MSVCPRTD.LIB
C:\PROGRAM FILES (X86)\MICROSOFT VISUAL STUDIO\2017\ENTERPRISE\VC\TOOLS\MSVC\14.11.25503\LIB\X64\MSVCRTD.LIB
C:\PROGRAM FILES (X86)\MICROSOFT VISUAL STUDIO\2017\ENTERPRISE\VC\TOOLS\MSVC\14.11.25503\LIB\X64\OLDNAMES.LIB
C:\PROGRAM FILES (X86)\MICROSOFT VISUAL STUDIO\2017\ENTERPRISE\VC\TOOLS\MSVC\14.11.25503\LIB\X64\LIBCMTD.LIB
C:\PROGRAM FILES (X86)\MICROSOFT VISUAL STUDIO\2017\ENTERPRISE\VC\TOOLS\MSVC\14.11.25503\LIB\X64\VCRUNTIMED.LIB
C:\PROGRAM FILES (X86)\WINDOWS KITS\10\LIB\10.0.15063.0\UCRT\X64\UCRTD.LIB
