^F:\FANSHAWE\TERM 2\ANIMATION\ANIMATION1\GDP_FEENEY_201718\ASSIMP\CASSIMPBASIC.CPP|F:\FANSHAWE\TERM 2\ANIMATION\ANIMATION1\GDP_FEENEY_201718\ASSIMP\CASSIMPBASIC_IMP.CPP|F:\FANSHAWE\TERM 2\ANIMATION\ANIMATION1\GDP_FEENEY_201718\ASSIMP\CSIMPLEASSIMPSKINNEDMESHLOADER_ONEMESH.CPP|F:\FANSHAWE\TERM 2\ANIMATION\ANIMATION1\GDP_FEENEY_201718\CANIMATIONSTATE.CPP|F:\FANSHAWE\TERM 2\ANIMATION\ANIMATION1\GDP_FEENEY_201718\CCAMERA.CPP|F:\FANSHAWE\TERM 2\ANIMATION\ANIMATION1\GDP_FEENEY_201718\CCAMERA_FLYLOOKAT.CPP|F:\FANSHAWE\TERM 2\ANIMATION\ANIMATION1\GDP_FEENEY_201718\CCAMERA_FOLLOW.CPP|F:\FANSHAWE\TERM 2\ANIMATION\ANIMATION1\GDP_FEENEY_201718\CCAMERA_MANUAL.CPP|F:\FANSHAWE\TERM 2\ANIMATION\ANIMATION1\GDP_FEENEY_201718\CDEBUGRENDERER.CPP|F:\FANSHAWE\TERM 2\ANIMATION\ANIMATION1\GDP_FEENEY_201718\CDEBUGRENDERER_BUILTINSHAPES.CPP|F:\FANSHAWE\TERM 2\ANIMATION\ANIMATION1\GDP_FEENEY_201718\CFBO.CPP|F:\FANSHAWE\TERM 2\ANIMATION\ANIMATION1\GDP_FEENEY_201718\CGAMEOBJECT.CPP|F:\FANSHAWE\TERM 2\ANIMATION\ANIMATION1\GDP_FEENEY_201718\CHRTIMER.CPP|F:\FANSHAWE\TERM 2\ANIMATION\ANIMATION1\GDP_FEENEY_201718\CLIGHTMANAGER.CPP|F:\FANSHAWE\TERM 2\ANIMATION\ANIMATION1\GDP_FEENEY_201718\CMESH.CPP|F:\FANSHAWE\TERM 2\ANIMATION\ANIMATION1\GDP_FEENEY_201718\CMODELASSETLOADER.CPP|F:\FANSHAWE\TERM 2\ANIMATION\ANIMATION1\GDP_FEENEY_201718\CSHADER.CPP|F:\FANSHAWE\TERM 2\ANIMATION\ANIMATION1\GDP_FEENEY_201718\CSHADERMANAGER.CPP|F:\FANSHAWE\TERM 2\ANIMATION\ANIMATION1\GDP_FEENEY_201718\CTRIANGLE.CPP|F:\FANSHAWE\TERM 2\ANIMATION\ANIMATION1\GDP_FEENEY_201718\CVAOMESHMANAGER.CPP|F:\FANSHAWE\TERM 2\ANIMATION\ANIMATION1\GDP_FEENEY_201718\ERROR\CERRORLOG.CPP|F:\FANSHAWE\TERM 2\ANIMATION\ANIMATION1\GDP_FEENEY_201718\ERROR\COPENGLERROR.CPP|F:\FANSHAWE\TERM 2\ANIMATION\ANIMATION1\GDP_FEENEY_201718\GLFW_KEYBOARDCALLBACK.CPP|F:\FANSHAWE\TERM 2\ANIMATION\ANIMATION1\GDP_FEENEY_201718\LUA\CLUABRAIN.CPP|F:\FANSHAWE\TERM 2\ANIMATION\ANIMATION1\GDP_FEENEY_201718\MODELUTILITIES.CPP|F:\FANSHAWE\TERM 2\ANIMATION\ANIMATION1\GDP_FEENEY_201718\PERSIST\CNVPAIR.CPP|F:\FANSHAWE\TERM 2\ANIMATION\ANIMATION1\GDP_FEENEY_201718\PERSIST\CPERSIST.CPP|F:\FANSHAWE\TERM 2\ANIMATION\ANIMATION1\GDP_FEENEY_201718\PERSIST\CPERSISTIMPFACTORY.CPP|F:\FANSHAWE\TERM 2\ANIMATION\ANIMATION1\GDP_FEENEY_201718\PERSIST\JSON\CPERSISTIMPRNRJSON.CPP|F:\FANSHAWE\TERM 2\ANIMATION\ANIMATION1\GDP_FEENEY_201718\PERSIST\RNRXML\RNRXML.CPP|F:\FANSHAWE\TERM 2\ANIMATION\ANIMATION1\GDP_FEENEY_201718\PERSIST\RNRXML\WRNRXML.CPP|F:\FANSHAWE\TERM 2\ANIMATION\ANIMATION1\GDP_FEENEY_201718\PERSIST\SQLITE\CPERSISTIMPSQLITEGDPADAPTER.CPP|F:\FANSHAWE\TERM 2\ANIMATION\ANIMATION1\GDP_FEENEY_201718\PHYSICS\AABB_TRIANGLES.CPP|F:\FANSHAWE\TERM 2\ANIMATION\ANIMATION1\GDP_FEENEY_201718\PHYSICS\CAABBBROADPHASE.CPP|F:\FANSHAWE\TERM 2\ANIMATION\ANIMATION1\GDP_FEENEY_201718\PHYSICS\CAABBV2.CPP|F:\FANSHAWE\TERM 2\ANIMATION\ANIMATION1\GDP_FEENEY_201718\PHYSICS\CPHYSICALPROPERTIES.CPP|F:\FANSHAWE\TERM 2\ANIMATION\ANIMATION1\GDP_FEENEY_201718\PHYSICS\CPHYSICSWORLD.CPP|F:\FANSHAWE\TERM 2\ANIMATION\ANIMATION1\GDP_FEENEY_201718\PLY\CPLYFILE5NT.CPP|F:\FANSHAWE\TERM 2\ANIMATION\ANIMATION1\GDP_FEENEY_201718\PLY\CPLYFILE5NT_EXPERIMENTAL.CPP|F:\FANSHAWE\TERM 2\ANIMATION\ANIMATION1\GDP_FEENEY_201718\PLY\CVECTOR3F.CPP|F:\FANSHAWE\TERM 2\ANIMATION\ANIMATION1\GDP_FEENEY_201718\RENDER_CALLS.CPP|F:\FANSHAWE\TERM 2\ANIMATION\ANIMATION1\GDP_FEENEY_201718\SCENELOADER.CPP|F:\FANSHAWE\TERM 2\ANIMATION\ANIMATION1\GDP_FEENEY_201718\SMESHDRAWINFO.CPP|F:\FANSHAWE\TERM 2\ANIMATION\ANIMATION1\GDP_FEENEY_201718\TEXTURE\C24BITBMPPIXEL.CPP|F:\FANSHAWE\TERM 2\ANIMATION\ANIMATION1\GDP_FEENEY_201718\TEXTURE\CTEXTUREFROMBMP.CPP|F:\FANSHAWE\TERM 2\ANIMATION\ANIMATION1\GDP_FEENEY_201718\TEXTURE\CTEXTUREMANAGER.CPP|F:\FANSHAWE\TERM 2\ANIMATION\ANIMATION1\GDP_FEENEY_201718\THEMAIN.CPP|F:\FANSHAWE\TERM 2\ANIMATION\ANIMATION1\GDP_FEENEY_201718\UTILITIES.CPP|F:\FANSHAWE\TERM 2\ANIMATION\ANIMATION1\GDP_FEENEY_201718\UTILITIES\CMATHHELPER.CPP|F:\FANSHAWE\TERM 2\ANIMATION\ANIMATION1\GDP_FEENEY_201718\UTILITIES\CSTRINGHELPER.CPP|F:\FANSHAWE\TERM 2\ANIMATION\ANIMATION1\GDP_FEENEY_201718\UTILITIES\CSTRINGUTILS.CPP
F:\FANSHAWE\TERM 2\ANIMATION\ANIMATION1\GDP_FEENEY_201718\X64\RELEASE\VC141.PDB
F:\FANSHAWE\TERM 2\ANIMATION\ANIMATION1\GDP_FEENEY_201718\X64\RELEASE\CVAOMESHMANAGER.OBJ
F:\FANSHAWE\TERM 2\ANIMATION\ANIMATION1\GDP_FEENEY_201718\X64\RELEASE\CTRIANGLE.OBJ
F:\FANSHAWE\TERM 2\ANIMATION\ANIMATION1\GDP_FEENEY_201718\X64\RELEASE\CSHADERMANAGER.OBJ
F:\FANSHAWE\TERM 2\ANIMATION\ANIMATION1\GDP_FEENEY_201718\X64\RELEASE\CSHADER.OBJ
F:\FANSHAWE\TERM 2\ANIMATION\ANIMATION1\GDP_FEENEY_201718\X64\RELEASE\CMODELASSETLOADER.OBJ
F:\FANSHAWE\TERM 2\ANIMATION\ANIMATION1\GDP_FEENEY_201718\X64\RELEASE\CMESH.OBJ
F:\FANSHAWE\TERM 2\ANIMATION\ANIMATION1\GDP_FEENEY_201718\X64\RELEASE\CLIGHTMANAGER.OBJ
F:\FANSHAWE\TERM 2\ANIMATION\ANIMATION1\GDP_FEENEY_201718\X64\RELEASE\CHRTIMER.OBJ
F:\FANSHAWE\TERM 2\ANIMATION\ANIMATION1\GDP_FEENEY_201718\X64\RELEASE\CGAMEOBJECT.OBJ
F:\FANSHAWE\TERM 2\ANIMATION\ANIMATION1\GDP_FEENEY_201718\X64\RELEASE\CFBO.OBJ
F:\FANSHAWE\TERM 2\ANIMATION\ANIMATION1\GDP_FEENEY_201718\X64\RELEASE\CDEBUGRENDERER_BUILTINSHAPES.OBJ
F:\FANSHAWE\TERM 2\ANIMATION\ANIMATION1\GDP_FEENEY_201718\X64\RELEASE\CDEBUGRENDERER.OBJ
F:\FANSHAWE\TERM 2\ANIMATION\ANIMATION1\GDP_FEENEY_201718\X64\RELEASE\CCAMERA_MANUAL.OBJ
F:\FANSHAWE\TERM 2\ANIMATION\ANIMATION1\GDP_FEENEY_201718\X64\RELEASE\CCAMERA_FOLLOW.OBJ
F:\FANSHAWE\TERM 2\ANIMATION\ANIMATION1\GDP_FEENEY_201718\X64\RELEASE\CCAMERA_FLYLOOKAT.OBJ
F:\FANSHAWE\TERM 2\ANIMATION\ANIMATION1\GDP_FEENEY_201718\X64\RELEASE\CCAMERA.OBJ
F:\FANSHAWE\TERM 2\ANIMATION\ANIMATION1\GDP_FEENEY_201718\X64\RELEASE\CANIMATIONSTATE.OBJ
F:\FANSHAWE\TERM 2\ANIMATION\ANIMATION1\GDP_FEENEY_201718\X64\RELEASE\CSIMPLEASSIMPSKINNEDMESHLOADER_ONEMESH.OBJ
F:\FANSHAWE\TERM 2\ANIMATION\ANIMATION1\GDP_FEENEY_201718\X64\RELEASE\CASSIMPBASIC_IMP.OBJ
F:\FANSHAWE\TERM 2\ANIMATION\ANIMATION1\GDP_FEENEY_201718\X64\RELEASE\CASSIMPBASIC.OBJ
F:\FANSHAWE\TERM 2\ANIMATION\ANIMATION1\GDP_FEENEY_201718\X64\RELEASE\CVECTOR3F.OBJ
F:\FANSHAWE\TERM 2\ANIMATION\ANIMATION1\GDP_FEENEY_201718\X64\RELEASE\CPLYFILE5NT_EXPERIMENTAL.OBJ
F:\FANSHAWE\TERM 2\ANIMATION\ANIMATION1\GDP_FEENEY_201718\X64\RELEASE\CPLYFILE5NT.OBJ
F:\FANSHAWE\TERM 2\ANIMATION\ANIMATION1\GDP_FEENEY_201718\X64\RELEASE\CPHYSICSWORLD.OBJ
F:\FANSHAWE\TERM 2\ANIMATION\ANIMATION1\GDP_FEENEY_201718\X64\RELEASE\CPHYSICALPROPERTIES.OBJ
F:\FANSHAWE\TERM 2\ANIMATION\ANIMATION1\GDP_FEENEY_201718\X64\RELEASE\CAABBV2.OBJ
F:\FANSHAWE\TERM 2\ANIMATION\ANIMATION1\GDP_FEENEY_201718\X64\RELEASE\CAABBBROADPHASE.OBJ
F:\FANSHAWE\TERM 2\ANIMATION\ANIMATION1\GDP_FEENEY_201718\X64\RELEASE\AABB_TRIANGLES.OBJ
F:\FANSHAWE\TERM 2\ANIMATION\ANIMATION1\GDP_FEENEY_201718\X64\RELEASE\CPERSISTIMPSQLITEGDPADAPTER.OBJ
F:\FANSHAWE\TERM 2\ANIMATION\ANIMATION1\GDP_FEENEY_201718\X64\RELEASE\WRNRXML.OBJ
F:\FANSHAWE\TERM 2\ANIMATION\ANIMATION1\GDP_FEENEY_201718\X64\RELEASE\RNRXML.OBJ
F:\FANSHAWE\TERM 2\ANIMATION\ANIMATION1\GDP_FEENEY_201718\X64\RELEASE\CPERSISTIMPRNRJSON.OBJ
F:\FANSHAWE\TERM 2\ANIMATION\ANIMATION1\GDP_FEENEY_201718\X64\RELEASE\CPERSISTIMPFACTORY.OBJ
F:\FANSHAWE\TERM 2\ANIMATION\ANIMATION1\GDP_FEENEY_201718\X64\RELEASE\CPERSIST.OBJ
F:\FANSHAWE\TERM 2\ANIMATION\ANIMATION1\GDP_FEENEY_201718\X64\RELEASE\CNVPAIR.OBJ
F:\FANSHAWE\TERM 2\ANIMATION\ANIMATION1\GDP_FEENEY_201718\X64\RELEASE\MODELUTILITIES.OBJ
F:\FANSHAWE\TERM 2\ANIMATION\ANIMATION1\GDP_FEENEY_201718\X64\RELEASE\CLUABRAIN.OBJ
F:\FANSHAWE\TERM 2\ANIMATION\ANIMATION1\GDP_FEENEY_201718\X64\RELEASE\GLFW_KEYBOARDCALLBACK.OBJ
F:\FANSHAWE\TERM 2\ANIMATION\ANIMATION1\GDP_FEENEY_201718\X64\RELEASE\COPENGLERROR.OBJ
F:\FANSHAWE\TERM 2\ANIMATION\ANIMATION1\GDP_FEENEY_201718\X64\RELEASE\CERRORLOG.OBJ
F:\FANSHAWE\TERM 2\ANIMATION\ANIMATION1\GDP_FEENEY_201718\X64\RELEASE\CSTRINGUTILS.OBJ
F:\FANSHAWE\TERM 2\ANIMATION\ANIMATION1\GDP_FEENEY_201718\X64\RELEASE\CSTRINGHELPER.OBJ
F:\FANSHAWE\TERM 2\ANIMATION\ANIMATION1\GDP_FEENEY_201718\X64\RELEASE\CMATHHELPER.OBJ
F:\FANSHAWE\TERM 2\ANIMATION\ANIMATION1\GDP_FEENEY_201718\X64\RELEASE\UTILITIES.OBJ
F:\FANSHAWE\TERM 2\ANIMATION\ANIMATION1\GDP_FEENEY_201718\X64\RELEASE\THEMAIN.OBJ
F:\FANSHAWE\TERM 2\ANIMATION\ANIMATION1\GDP_FEENEY_201718\X64\RELEASE\CTEXTUREMANAGER.OBJ
F:\FANSHAWE\TERM 2\ANIMATION\ANIMATION1\GDP_FEENEY_201718\X64\RELEASE\CTEXTUREFROMBMP.OBJ
F:\FANSHAWE\TERM 2\ANIMATION\ANIMATION1\GDP_FEENEY_201718\X64\RELEASE\C24BITBMPPIXEL.OBJ
F:\FANSHAWE\TERM 2\ANIMATION\ANIMATION1\GDP_FEENEY_201718\X64\RELEASE\SMESHDRAWINFO.OBJ
F:\FANSHAWE\TERM 2\ANIMATION\ANIMATION1\GDP_FEENEY_201718\X64\RELEASE\SCENELOADER.OBJ
F:\FANSHAWE\TERM 2\ANIMATION\ANIMATION1\GDP_FEENEY_201718\X64\RELEASE\RENDER_CALLS.OBJ
^F:\FANSHAWE\TERM 2\ANIMATION\ANIMATION1\GDP_FEENEY_201718\ASSIMP\CASSIMPBASIC.CPP
F:\FANSHAWE\TERM 2\ANIMATION\ANIMATION1\GDP_FEENEY_201718\X64\RELEASE\VC141.PDB
^F:\FANSHAWE\TERM 2\ANIMATION\ANIMATION1\GDP_FEENEY_201718\ASSIMP\CASSIMPBASIC_IMP.CPP
F:\FANSHAWE\TERM 2\ANIMATION\ANIMATION1\GDP_FEENEY_201718\X64\RELEASE\VC141.PDB
^F:\FANSHAWE\TERM 2\ANIMATION\ANIMATION1\GDP_FEENEY_201718\ASSIMP\CSIMPLEASSIMPSKINNEDMESHLOADER_ONEMESH.CPP
F:\FANSHAWE\TERM 2\ANIMATION\ANIMATION1\GDP_FEENEY_201718\X64\RELEASE\VC141.PDB
^F:\FANSHAWE\TERM 2\ANIMATION\ANIMATION1\GDP_FEENEY_201718\CANIMATIONSTATE.CPP
F:\FANSHAWE\TERM 2\ANIMATION\ANIMATION1\GDP_FEENEY_201718\X64\RELEASE\VC141.PDB
^F:\FANSHAWE\TERM 2\ANIMATION\ANIMATION1\GDP_FEENEY_201718\CCAMERA.CPP
F:\FANSHAWE\TERM 2\ANIMATION\ANIMATION1\GDP_FEENEY_201718\X64\RELEASE\VC141.PDB
^F:\FANSHAWE\TERM 2\ANIMATION\ANIMATION1\GDP_FEENEY_201718\CCAMERA_FLYLOOKAT.CPP
F:\FANSHAWE\TERM 2\ANIMATION\ANIMATION1\GDP_FEENEY_201718\X64\RELEASE\VC141.PDB
^F:\FANSHAWE\TERM 2\ANIMATION\ANIMATION1\GDP_FEENEY_201718\CCAMERA_FOLLOW.CPP
F:\FANSHAWE\TERM 2\ANIMATION\ANIMATION1\GDP_FEENEY_201718\X64\RELEASE\VC141.PDB
^F:\FANSHAWE\TERM 2\ANIMATION\ANIMATION1\GDP_FEENEY_201718\CCAMERA_MANUAL.CPP
F:\FANSHAWE\TERM 2\ANIMATION\ANIMATION1\GDP_FEENEY_201718\X64\RELEASE\VC141.PDB
^F:\FANSHAWE\TERM 2\ANIMATION\ANIMATION1\GDP_FEENEY_201718\CDEBUGRENDERER.CPP
F:\FANSHAWE\TERM 2\ANIMATION\ANIMATION1\GDP_FEENEY_201718\X64\RELEASE\VC141.PDB
^F:\FANSHAWE\TERM 2\ANIMATION\ANIMATION1\GDP_FEENEY_201718\CDEBUGRENDERER_BUILTINSHAPES.CPP
F:\FANSHAWE\TERM 2\ANIMATION\ANIMATION1\GDP_FEENEY_201718\X64\RELEASE\VC141.PDB
^F:\FANSHAWE\TERM 2\ANIMATION\ANIMATION1\GDP_FEENEY_201718\CFBO.CPP
F:\FANSHAWE\TERM 2\ANIMATION\ANIMATION1\GDP_FEENEY_201718\X64\RELEASE\VC141.PDB
^F:\FANSHAWE\TERM 2\ANIMATION\ANIMATION1\GDP_FEENEY_201718\CHRTIMER.CPP
F:\FANSHAWE\TERM 2\ANIMATION\ANIMATION1\GDP_FEENEY_201718\X64\RELEASE\VC141.PDB
^F:\FANSHAWE\TERM 2\ANIMATION\ANIMATION1\GDP_FEENEY_201718\CLIGHTMANAGER.CPP
F:\FANSHAWE\TERM 2\ANIMATION\ANIMATION1\GDP_FEENEY_201718\X64\RELEASE\VC141.PDB
^F:\FANSHAWE\TERM 2\ANIMATION\ANIMATION1\GDP_FEENEY_201718\CMESH.CPP
F:\FANSHAWE\TERM 2\ANIMATION\ANIMATION1\GDP_FEENEY_201718\X64\RELEASE\VC141.PDB
^F:\FANSHAWE\TERM 2\ANIMATION\ANIMATION1\GDP_FEENEY_201718\CMODELASSETLOADER.CPP
F:\FANSHAWE\TERM 2\ANIMATION\ANIMATION1\GDP_FEENEY_201718\X64\RELEASE\VC141.PDB
^F:\FANSHAWE\TERM 2\ANIMATION\ANIMATION1\GDP_FEENEY_201718\CSHADER.CPP
F:\FANSHAWE\TERM 2\ANIMATION\ANIMATION1\GDP_FEENEY_201718\X64\RELEASE\VC141.PDB
^F:\FANSHAWE\TERM 2\ANIMATION\ANIMATION1\GDP_FEENEY_201718\CSHADERMANAGER.CPP
F:\FANSHAWE\TERM 2\ANIMATION\ANIMATION1\GDP_FEENEY_201718\X64\RELEASE\VC141.PDB
^F:\FANSHAWE\TERM 2\ANIMATION\ANIMATION1\GDP_FEENEY_201718\CTRIANGLE.CPP
F:\FANSHAWE\TERM 2\ANIMATION\ANIMATION1\GDP_FEENEY_201718\X64\RELEASE\VC141.PDB
^F:\FANSHAWE\TERM 2\ANIMATION\ANIMATION1\GDP_FEENEY_201718\CVAOMESHMANAGER.CPP
F:\FANSHAWE\TERM 2\ANIMATION\ANIMATION1\GDP_FEENEY_201718\X64\RELEASE\VC141.PDB
^F:\FANSHAWE\TERM 2\ANIMATION\ANIMATION1\GDP_FEENEY_201718\ERROR\CERRORLOG.CPP
F:\FANSHAWE\TERM 2\ANIMATION\ANIMATION1\GDP_FEENEY_201718\X64\RELEASE\VC141.PDB
^F:\FANSHAWE\TERM 2\ANIMATION\ANIMATION1\GDP_FEENEY_201718\ERROR\COPENGLERROR.CPP
F:\FANSHAWE\TERM 2\ANIMATION\ANIMATION1\GDP_FEENEY_201718\X64\RELEASE\VC141.PDB
^F:\FANSHAWE\TERM 2\ANIMATION\ANIMATION1\GDP_FEENEY_201718\PERSIST\CNVPAIR.CPP
F:\FANSHAWE\TERM 2\ANIMATION\ANIMATION1\GDP_FEENEY_201718\X64\RELEASE\VC141.PDB
^F:\FANSHAWE\TERM 2\ANIMATION\ANIMATION1\GDP_FEENEY_201718\PERSIST\CPERSIST.CPP
F:\FANSHAWE\TERM 2\ANIMATION\ANIMATION1\GDP_FEENEY_201718\X64\RELEASE\VC141.PDB
^F:\FANSHAWE\TERM 2\ANIMATION\ANIMATION1\GDP_FEENEY_201718\PERSIST\CPERSISTIMPFACTORY.CPP
F:\FANSHAWE\TERM 2\ANIMATION\ANIMATION1\GDP_FEENEY_201718\X64\RELEASE\VC141.PDB
^F:\FANSHAWE\TERM 2\ANIMATION\ANIMATION1\GDP_FEENEY_201718\PERSIST\JSON\CPERSISTIMPRNRJSON.CPP
F:\FANSHAWE\TERM 2\ANIMATION\ANIMATION1\GDP_FEENEY_201718\X64\RELEASE\VC141.PDB
^F:\FANSHAWE\TERM 2\ANIMATION\ANIMATION1\GDP_FEENEY_201718\PERSIST\RNRXML\RNRXML.CPP
F:\FANSHAWE\TERM 2\ANIMATION\ANIMATION1\GDP_FEENEY_201718\X64\RELEASE\VC141.PDB
^F:\FANSHAWE\TERM 2\ANIMATION\ANIMATION1\GDP_FEENEY_201718\PERSIST\RNRXML\WRNRXML.CPP
F:\FANSHAWE\TERM 2\ANIMATION\ANIMATION1\GDP_FEENEY_201718\X64\RELEASE\VC141.PDB
^F:\FANSHAWE\TERM 2\ANIMATION\ANIMATION1\GDP_FEENEY_201718\PERSIST\SQLITE\CPERSISTIMPSQLITEGDPADAPTER.CPP
F:\FANSHAWE\TERM 2\ANIMATION\ANIMATION1\GDP_FEENEY_201718\X64\RELEASE\VC141.PDB
^F:\FANSHAWE\TERM 2\ANIMATION\ANIMATION1\GDP_FEENEY_201718\PHYSICS\AABB_TRIANGLES.CPP
F:\FANSHAWE\TERM 2\ANIMATION\ANIMATION1\GDP_FEENEY_201718\X64\RELEASE\VC141.PDB
^F:\FANSHAWE\TERM 2\ANIMATION\ANIMATION1\GDP_FEENEY_201718\PHYSICS\CPHYSICALPROPERTIES.CPP
F:\FANSHAWE\TERM 2\ANIMATION\ANIMATION1\GDP_FEENEY_201718\X64\RELEASE\VC141.PDB
^F:\FANSHAWE\TERM 2\ANIMATION\ANIMATION1\GDP_FEENEY_201718\PLY\CPLYFILE5NT.CPP
F:\FANSHAWE\TERM 2\ANIMATION\ANIMATION1\GDP_FEENEY_201718\X64\RELEASE\VC141.PDB
^F:\FANSHAWE\TERM 2\ANIMATION\ANIMATION1\GDP_FEENEY_201718\PLY\CPLYFILE5NT_EXPERIMENTAL.CPP
F:\FANSHAWE\TERM 2\ANIMATION\ANIMATION1\GDP_FEENEY_201718\X64\RELEASE\VC141.PDB
^F:\FANSHAWE\TERM 2\ANIMATION\ANIMATION1\GDP_FEENEY_201718\PLY\CVECTOR3F.CPP
F:\FANSHAWE\TERM 2\ANIMATION\ANIMATION1\GDP_FEENEY_201718\X64\RELEASE\VC141.PDB
^F:\FANSHAWE\TERM 2\ANIMATION\ANIMATION1\GDP_FEENEY_201718\SMESHDRAWINFO.CPP
F:\FANSHAWE\TERM 2\ANIMATION\ANIMATION1\GDP_FEENEY_201718\X64\RELEASE\VC141.PDB
^F:\FANSHAWE\TERM 2\ANIMATION\ANIMATION1\GDP_FEENEY_201718\TEXTURE\C24BITBMPPIXEL.CPP
F:\FANSHAWE\TERM 2\ANIMATION\ANIMATION1\GDP_FEENEY_201718\X64\RELEASE\VC141.PDB
^F:\FANSHAWE\TERM 2\ANIMATION\ANIMATION1\GDP_FEENEY_201718\TEXTURE\CTEXTUREFROMBMP.CPP
F:\FANSHAWE\TERM 2\ANIMATION\ANIMATION1\GDP_FEENEY_201718\X64\RELEASE\VC141.PDB
^F:\FANSHAWE\TERM 2\ANIMATION\ANIMATION1\GDP_FEENEY_201718\TEXTURE\CTEXTUREMANAGER.CPP
F:\FANSHAWE\TERM 2\ANIMATION\ANIMATION1\GDP_FEENEY_201718\X64\RELEASE\VC141.PDB
^F:\FANSHAWE\TERM 2\ANIMATION\ANIMATION1\GDP_FEENEY_201718\UTILITIES.CPP
F:\FANSHAWE\TERM 2\ANIMATION\ANIMATION1\GDP_FEENEY_201718\X64\RELEASE\VC141.PDB
^F:\FANSHAWE\TERM 2\ANIMATION\ANIMATION1\GDP_FEENEY_201718\UTILITIES\CMATHHELPER.CPP
F:\FANSHAWE\TERM 2\ANIMATION\ANIMATION1\GDP_FEENEY_201718\X64\RELEASE\VC141.PDB
^F:\FANSHAWE\TERM 2\ANIMATION\ANIMATION1\GDP_FEENEY_201718\UTILITIES\CSTRINGHELPER.CPP
F:\FANSHAWE\TERM 2\ANIMATION\ANIMATION1\GDP_FEENEY_201718\X64\RELEASE\VC141.PDB
^F:\FANSHAWE\TERM 2\ANIMATION\ANIMATION1\GDP_FEENEY_201718\UTILITIES\CSTRINGUTILS.CPP
F:\FANSHAWE\TERM 2\ANIMATION\ANIMATION1\GDP_FEENEY_201718\X64\RELEASE\VC141.PDB
^F:\FANSHAWE\TERM 2\ANIMATION\ANIMATION1\GDP_FEENEY_201718\SRC\GLAD.C
F:\FANSHAWE\TERM 2\ANIMATION\ANIMATION1\GDP_FEENEY_201718\X64\RELEASE\VC141.PDB
F:\FANSHAWE\TERM 2\ANIMATION\ANIMATION1\GDP_FEENEY_201718\X64\RELEASE\GLAD.OBJ
^F:\FANSHAWE\TERM 2\ANIMATION\ANIMATION1\GDP_FEENEY_201718\CGAMEOBJECT.CPP|F:\FANSHAWE\TERM 2\ANIMATION\ANIMATION1\GDP_FEENEY_201718\GLFW_KEYBOARDCALLBACK.CPP|F:\FANSHAWE\TERM 2\ANIMATION\ANIMATION1\GDP_FEENEY_201718\LUA\CLUABRAIN.CPP|F:\FANSHAWE\TERM 2\ANIMATION\ANIMATION1\GDP_FEENEY_201718\MODELUTILITIES.CPP|F:\FANSHAWE\TERM 2\ANIMATION\ANIMATION1\GDP_FEENEY_201718\RENDER_CALLS.CPP|F:\FANSHAWE\TERM 2\ANIMATION\ANIMATION1\GDP_FEENEY_201718\SCENELOADER.CPP|F:\FANSHAWE\TERM 2\ANIMATION\ANIMATION1\GDP_FEENEY_201718\THEMAIN.CPP
F:\FANSHAWE\TERM 2\ANIMATION\ANIMATION1\GDP_FEENEY_201718\X64\RELEASE\VC141.PDB
F:\FANSHAWE\TERM 2\ANIMATION\ANIMATION1\GDP_FEENEY_201718\X64\RELEASE\CGAMEOBJECT.OBJ
F:\FANSHAWE\TERM 2\ANIMATION\ANIMATION1\GDP_FEENEY_201718\X64\RELEASE\THEMAIN.OBJ
F:\FANSHAWE\TERM 2\ANIMATION\ANIMATION1\GDP_FEENEY_201718\X64\RELEASE\SCENELOADER.OBJ
F:\FANSHAWE\TERM 2\ANIMATION\ANIMATION1\GDP_FEENEY_201718\X64\RELEASE\RENDER_CALLS.OBJ
F:\FANSHAWE\TERM 2\ANIMATION\ANIMATION1\GDP_FEENEY_201718\X64\RELEASE\MODELUTILITIES.OBJ
F:\FANSHAWE\TERM 2\ANIMATION\ANIMATION1\GDP_FEENEY_201718\X64\RELEASE\CLUABRAIN.OBJ
F:\FANSHAWE\TERM 2\ANIMATION\ANIMATION1\GDP_FEENEY_201718\X64\RELEASE\GLFW_KEYBOARDCALLBACK.OBJ
^F:\FANSHAWE\TERM 2\ANIMATION\ANIMATION1\GDP_FEENEY_201718\LUA\CLUABRAIN.CPP
F:\FANSHAWE\TERM 2\ANIMATION\ANIMATION1\GDP_FEENEY_201718\X64\RELEASE\VC141.PDB
^F:\FANSHAWE\TERM 2\ANIMATION\ANIMATION1\GDP_FEENEY_201718\CGAMEOBJECT.CPP
F:\FANSHAWE\TERM 2\ANIMATION\ANIMATION1\GDP_FEENEY_201718\X64\RELEASE\VC141.PDB
^F:\FANSHAWE\TERM 2\ANIMATION\ANIMATION1\GDP_FEENEY_201718\MODELUTILITIES.CPP|F:\FANSHAWE\TERM 2\ANIMATION\ANIMATION1\GDP_FEENEY_201718\THEMAIN.CPP
F:\FANSHAWE\TERM 2\ANIMATION\ANIMATION1\GDP_FEENEY_201718\X64\RELEASE\VC141.PDB
F:\FANSHAWE\TERM 2\ANIMATION\ANIMATION1\GDP_FEENEY_201718\X64\RELEASE\THEMAIN.OBJ
F:\FANSHAWE\TERM 2\ANIMATION\ANIMATION1\GDP_FEENEY_201718\X64\RELEASE\MODELUTILITIES.OBJ
^F:\FANSHAWE\TERM 2\ANIMATION\ANIMATION1\GDP_FEENEY_201718\GLFW_KEYBOARDCALLBACK.CPP|F:\FANSHAWE\TERM 2\ANIMATION\ANIMATION1\GDP_FEENEY_201718\THEMAIN.CPP
F:\FANSHAWE\TERM 2\ANIMATION\ANIMATION1\GDP_FEENEY_201718\X64\RELEASE\VC141.PDB
F:\FANSHAWE\TERM 2\ANIMATION\ANIMATION1\GDP_FEENEY_201718\X64\RELEASE\THEMAIN.OBJ
F:\FANSHAWE\TERM 2\ANIMATION\ANIMATION1\GDP_FEENEY_201718\X64\RELEASE\GLFW_KEYBOARDCALLBACK.OBJ
^F:\FANSHAWE\TERM 2\ANIMATION\ANIMATION1\GDP_FEENEY_201718\GLFW_KEYBOARDCALLBACK.CPP|F:\FANSHAWE\TERM 2\ANIMATION\ANIMATION1\GDP_FEENEY_201718\PHYSICS\CAABBBROADPHASE.CPP|F:\FANSHAWE\TERM 2\ANIMATION\ANIMATION1\GDP_FEENEY_201718\PHYSICS\CAABBV2.CPP|F:\FANSHAWE\TERM 2\ANIMATION\ANIMATION1\GDP_FEENEY_201718\PHYSICS\CPHYSICSWORLD.CPP|F:\FANSHAWE\TERM 2\ANIMATION\ANIMATION1\GDP_FEENEY_201718\RENDER_CALLS.CPP|F:\FANSHAWE\TERM 2\ANIMATION\ANIMATION1\GDP_FEENEY_201718\SCENELOADER.CPP|F:\FANSHAWE\TERM 2\ANIMATION\ANIMATION1\GDP_FEENEY_201718\THEMAIN.CPP
F:\FANSHAWE\TERM 2\ANIMATION\ANIMATION1\GDP_FEENEY_201718\X64\RELEASE\VC141.PDB
F:\FANSHAWE\TERM 2\ANIMATION\ANIMATION1\GDP_FEENEY_201718\X64\RELEASE\THEMAIN.OBJ
F:\FANSHAWE\TERM 2\ANIMATION\ANIMATION1\GDP_FEENEY_201718\X64\RELEASE\SCENELOADER.OBJ
F:\FANSHAWE\TERM 2\ANIMATION\ANIMATION1\GDP_FEENEY_201718\X64\RELEASE\RENDER_CALLS.OBJ
F:\FANSHAWE\TERM 2\ANIMATION\ANIMATION1\GDP_FEENEY_201718\X64\RELEASE\CPHYSICSWORLD.OBJ
F:\FANSHAWE\TERM 2\ANIMATION\ANIMATION1\GDP_FEENEY_201718\X64\RELEASE\CAABBV2.OBJ
F:\FANSHAWE\TERM 2\ANIMATION\ANIMATION1\GDP_FEENEY_201718\X64\RELEASE\CAABBBROADPHASE.OBJ
F:\FANSHAWE\TERM 2\ANIMATION\ANIMATION1\GDP_FEENEY_201718\X64\RELEASE\GLFW_KEYBOARDCALLBACK.OBJ
^F:\FANSHAWE\TERM 2\ANIMATION\ANIMATION1\GDP_FEENEY_201718\GLFW_KEYBOARDCALLBACK.CPP|F:\FANSHAWE\TERM 2\ANIMATION\ANIMATION1\GDP_FEENEY_201718\MODELUTILITIES.CPP|F:\FANSHAWE\TERM 2\ANIMATION\ANIMATION1\GDP_FEENEY_201718\PHYSICS\CAABBBROADPHASE.CPP|F:\FANSHAWE\TERM 2\ANIMATION\ANIMATION1\GDP_FEENEY_201718\PHYSICS\CAABBV2.CPP|F:\FANSHAWE\TERM 2\ANIMATION\ANIMATION1\GDP_FEENEY_201718\PHYSICS\CPHYSICSWORLD.CPP|F:\FANSHAWE\TERM 2\ANIMATION\ANIMATION1\GDP_FEENEY_201718\RENDER_CALLS.CPP|F:\FANSHAWE\TERM 2\ANIMATION\ANIMATION1\GDP_FEENEY_201718\SCENELOADER.CPP|F:\FANSHAWE\TERM 2\ANIMATION\ANIMATION1\GDP_FEENEY_201718\THEMAIN.CPP
F:\FANSHAWE\TERM 2\ANIMATION\ANIMATION1\GDP_FEENEY_201718\X64\RELEASE\VC141.PDB
F:\FANSHAWE\TERM 2\ANIMATION\ANIMATION1\GDP_FEENEY_201718\X64\RELEASE\THEMAIN.OBJ
F:\FANSHAWE\TERM 2\ANIMATION\ANIMATION1\GDP_FEENEY_201718\X64\RELEASE\SCENELOADER.OBJ
F:\FANSHAWE\TERM 2\ANIMATION\ANIMATION1\GDP_FEENEY_201718\X64\RELEASE\RENDER_CALLS.OBJ
F:\FANSHAWE\TERM 2\ANIMATION\ANIMATION1\GDP_FEENEY_201718\X64\RELEASE\CPHYSICSWORLD.OBJ
F:\FANSHAWE\TERM 2\ANIMATION\ANIMATION1\GDP_FEENEY_201718\X64\RELEASE\CAABBV2.OBJ
F:\FANSHAWE\TERM 2\ANIMATION\ANIMATION1\GDP_FEENEY_201718\X64\RELEASE\CAABBBROADPHASE.OBJ
F:\FANSHAWE\TERM 2\ANIMATION\ANIMATION1\GDP_FEENEY_201718\X64\RELEASE\MODELUTILITIES.OBJ
F:\FANSHAWE\TERM 2\ANIMATION\ANIMATION1\GDP_FEENEY_201718\X64\RELEASE\GLFW_KEYBOARDCALLBACK.OBJ
^F:\FANSHAWE\TERM 2\ANIMATION\ANIMATION1\GDP_FEENEY_201718\GLFW_KEYBOARDCALLBACK.CPP
F:\FANSHAWE\TERM 2\ANIMATION\ANIMATION1\GDP_FEENEY_201718\X64\RELEASE\VC141.PDB
^F:\FANSHAWE\TERM 2\ANIMATION\ANIMATION1\GDP_FEENEY_201718\MODELUTILITIES.CPP
F:\FANSHAWE\TERM 2\ANIMATION\ANIMATION1\GDP_FEENEY_201718\X64\RELEASE\VC141.PDB
^F:\FANSHAWE\TERM 2\ANIMATION\ANIMATION1\GDP_FEENEY_201718\PHYSICS\CAABBBROADPHASE.CPP
F:\FANSHAWE\TERM 2\ANIMATION\ANIMATION1\GDP_FEENEY_201718\X64\RELEASE\VC141.PDB
^F:\FANSHAWE\TERM 2\ANIMATION\ANIMATION1\GDP_FEENEY_201718\PHYSICS\CAABBV2.CPP
F:\FANSHAWE\TERM 2\ANIMATION\ANIMATION1\GDP_FEENEY_201718\X64\RELEASE\VC141.PDB
^F:\FANSHAWE\TERM 2\ANIMATION\ANIMATION1\GDP_FEENEY_201718\PHYSICS\CPHYSICSWORLD.CPP
F:\FANSHAWE\TERM 2\ANIMATION\ANIMATION1\GDP_FEENEY_201718\X64\RELEASE\VC141.PDB
^F:\FANSHAWE\TERM 2\ANIMATION\ANIMATION1\GDP_FEENEY_201718\RENDER_CALLS.CPP
F:\FANSHAWE\TERM 2\ANIMATION\ANIMATION1\GDP_FEENEY_201718\X64\RELEASE\VC141.PDB
^F:\FANSHAWE\TERM 2\ANIMATION\ANIMATION1\GDP_FEENEY_201718\SCENELOADER.CPP
F:\FANSHAWE\TERM 2\ANIMATION\ANIMATION1\GDP_FEENEY_201718\X64\RELEASE\VC141.PDB
^F:\FANSHAWE\TERM 2\ANIMATION\ANIMATION1\GDP_FEENEY_201718\THEMAIN.CPP
F:\FANSHAWE\TERM 2\ANIMATION\ANIMATION1\GDP_FEENEY_201718\X64\RELEASE\VC141.PDB
^F:\FANSHAWE\TERM 2\ANIMATION\PROJECT1\GDP_FEENEY_201718\ASSIMP\CASSIMPBASIC.CPP|F:\FANSHAWE\TERM 2\ANIMATION\PROJECT1\GDP_FEENEY_201718\ASSIMP\CASSIMPBASIC_IMP.CPP|F:\FANSHAWE\TERM 2\ANIMATION\PROJECT1\GDP_FEENEY_201718\ASSIMP\CSIMPLEASSIMPSKINNEDMESHLOADER_ONEMESH.CPP|F:\FANSHAWE\TERM 2\ANIMATION\PROJECT1\GDP_FEENEY_201718\CANIMATIONSTATE.CPP|F:\FANSHAWE\TERM 2\ANIMATION\PROJECT1\GDP_FEENEY_201718\CCAMERA.CPP|F:\FANSHAWE\TERM 2\ANIMATION\PROJECT1\GDP_FEENEY_201718\CCAMERA_FLYLOOKAT.CPP|F:\FANSHAWE\TERM 2\ANIMATION\PROJECT1\GDP_FEENEY_201718\CCAMERA_FOLLOW.CPP|F:\FANSHAWE\TERM 2\ANIMATION\PROJECT1\GDP_FEENEY_201718\CCAMERA_MANUAL.CPP|F:\FANSHAWE\TERM 2\ANIMATION\PROJECT1\GDP_FEENEY_201718\CDEBUGRENDERER.CPP|F:\FANSHAWE\TERM 2\ANIMATION\PROJECT1\GDP_FEENEY_201718\CDEBUGRENDERER_BUILTINSHAPES.CPP|F:\FANSHAWE\TERM 2\ANIMATION\PROJECT1\GDP_FEENEY_201718\CFBO.CPP|F:\FANSHAWE\TERM 2\ANIMATION\PROJECT1\GDP_FEENEY_201718\CGAMEOBJECT.CPP|F:\FANSHAWE\TERM 2\ANIMATION\PROJECT1\GDP_FEENEY_201718\CHRTIMER.CPP|F:\FANSHAWE\TERM 2\ANIMATION\PROJECT1\GDP_FEENEY_201718\CLIGHTMANAGER.CPP|F:\FANSHAWE\TERM 2\ANIMATION\PROJECT1\GDP_FEENEY_201718\CMESH.CPP|F:\FANSHAWE\TERM 2\ANIMATION\PROJECT1\GDP_FEENEY_201718\CMODELASSETLOADER.CPP|F:\FANSHAWE\TERM 2\ANIMATION\PROJECT1\GDP_FEENEY_201718\CSHADER.CPP|F:\FANSHAWE\TERM 2\ANIMATION\PROJECT1\GDP_FEENEY_201718\CSHADERMANAGER.CPP|F:\FANSHAWE\TERM 2\ANIMATION\PROJECT1\GDP_FEENEY_201718\CTRIANGLE.CPP|F:\FANSHAWE\TERM 2\ANIMATION\PROJECT1\GDP_FEENEY_201718\CVAOMESHMANAGER.CPP|F:\FANSHAWE\TERM 2\ANIMATION\PROJECT1\GDP_FEENEY_201718\ERROR\CERRORLOG.CPP|F:\FANSHAWE\TERM 2\ANIMATION\PROJECT1\GDP_FEENEY_201718\ERROR\COPENGLERROR.CPP|F:\FANSHAWE\TERM 2\ANIMATION\PROJECT1\GDP_FEENEY_201718\GLFW_KEYBOARDCALLBACK.CPP|F:\FANSHAWE\TERM 2\ANIMATION\PROJECT1\GDP_FEENEY_201718\LUA\CLUABRAIN.CPP|F:\FANSHAWE\TERM 2\ANIMATION\PROJECT1\GDP_FEENEY_201718\MODELUTILITIES.CPP|F:\FANSHAWE\TERM 2\ANIMATION\PROJECT1\GDP_FEENEY_201718\PERSIST\CNVPAIR.CPP|F:\FANSHAWE\TERM 2\ANIMATION\PROJECT1\GDP_FEENEY_201718\PERSIST\CPERSIST.CPP|F:\FANSHAWE\TERM 2\ANIMATION\PROJECT1\GDP_FEENEY_201718\PERSIST\CPERSISTIMPFACTORY.CPP|F:\FANSHAWE\TERM 2\ANIMATION\PROJECT1\GDP_FEENEY_201718\PERSIST\JSON\CPERSISTIMPRNRJSON.CPP|F:\FANSHAWE\TERM 2\ANIMATION\PROJECT1\GDP_FEENEY_201718\PERSIST\RNRXML\RNRXML.CPP|F:\FANSHAWE\TERM 2\ANIMATION\PROJECT1\GDP_FEENEY_201718\PERSIST\RNRXML\WRNRXML.CPP|F:\FANSHAWE\TERM 2\ANIMATION\PROJECT1\GDP_FEENEY_201718\PERSIST\SQLITE\CPERSISTIMPSQLITEGDPADAPTER.CPP|F:\FANSHAWE\TERM 2\ANIMATION\PROJECT1\GDP_FEENEY_201718\PHYSICS\AABB_TRIANGLES.CPP|F:\FANSHAWE\TERM 2\ANIMATION\PROJECT1\GDP_FEENEY_201718\PHYSICS\CAABBBROADPHASE.CPP|F:\FANSHAWE\TERM 2\ANIMATION\PROJECT1\GDP_FEENEY_201718\PHYSICS\CAABBV2.CPP|F:\FANSHAWE\TERM 2\ANIMATION\PROJECT1\GDP_FEENEY_201718\PHYSICS\CPHYSICALPROPERTIES.CPP|F:\FANSHAWE\TERM 2\ANIMATION\PROJECT1\GDP_FEENEY_201718\PHYSICS\CPHYSICSWORLD.CPP|F:\FANSHAWE\TERM 2\ANIMATION\PROJECT1\GDP_FEENEY_201718\PLY\CPLYFILE5NT.CPP|F:\FANSHAWE\TERM 2\ANIMATION\PROJECT1\GDP_FEENEY_201718\PLY\CPLYFILE5NT_EXPERIMENTAL.CPP|F:\FANSHAWE\TERM 2\ANIMATION\PROJECT1\GDP_FEENEY_201718\PLY\CVECTOR3F.CPP|F:\FANSHAWE\TERM 2\ANIMATION\PROJECT1\GDP_FEENEY_201718\RENDER_CALLS.CPP|F:\FANSHAWE\TERM 2\ANIMATION\PROJECT1\GDP_FEENEY_201718\SCENELOADER.CPP|F:\FANSHAWE\TERM 2\ANIMATION\PROJECT1\GDP_FEENEY_201718\SMESHDRAWINFO.CPP|F:\FANSHAWE\TERM 2\ANIMATION\PROJECT1\GDP_FEENEY_201718\TEXTURE\C24BITBMPPIXEL.CPP|F:\FANSHAWE\TERM 2\ANIMATION\PROJECT1\GDP_FEENEY_201718\TEXTURE\CTEXTUREFROMBMP.CPP|F:\FANSHAWE\TERM 2\ANIMATION\PROJECT1\GDP_FEENEY_201718\TEXTURE\CTEXTUREMANAGER.CPP|F:\FANSHAWE\TERM 2\ANIMATION\PROJECT1\GDP_FEENEY_201718\THEMAIN.CPP|F:\FANSHAWE\TERM 2\ANIMATION\PROJECT1\GDP_FEENEY_201718\UTILITIES.CPP|F:\FANSHAWE\TERM 2\ANIMATION\PROJECT1\GDP_FEENEY_201718\UTILITIES\CMATHHELPER.CPP|F:\FANSHAWE\TERM 2\ANIMATION\PROJECT1\GDP_FEENEY_201718\UTILITIES\CSTRINGHELPER.CPP|F:\FANSHAWE\TERM 2\ANIMATION\PROJECT1\GDP_FEENEY_201718\UTILITIES\CSTRINGUTILS.CPP
F:\FANSHAWE\TERM 2\ANIMATION\PROJECT1\GDP_FEENEY_201718\X64\RELEASE\VC141.PDB
F:\FANSHAWE\TERM 2\ANIMATION\PROJECT1\GDP_FEENEY_201718\X64\RELEASE\CVAOMESHMANAGER.OBJ
F:\FANSHAWE\TERM 2\ANIMATION\PROJECT1\GDP_FEENEY_201718\X64\RELEASE\CTRIANGLE.OBJ
F:\FANSHAWE\TERM 2\ANIMATION\PROJECT1\GDP_FEENEY_201718\X64\RELEASE\CSHADERMANAGER.OBJ
F:\FANSHAWE\TERM 2\ANIMATION\PROJECT1\GDP_FEENEY_201718\X64\RELEASE\CSHADER.OBJ
F:\FANSHAWE\TERM 2\ANIMATION\PROJECT1\GDP_FEENEY_201718\X64\RELEASE\CMODELASSETLOADER.OBJ
F:\FANSHAWE\TERM 2\ANIMATION\PROJECT1\GDP_FEENEY_201718\X64\RELEASE\CMESH.OBJ
F:\FANSHAWE\TERM 2\ANIMATION\PROJECT1\GDP_FEENEY_201718\X64\RELEASE\CLIGHTMANAGER.OBJ
F:\FANSHAWE\TERM 2\ANIMATION\PROJECT1\GDP_FEENEY_201718\X64\RELEASE\CHRTIMER.OBJ
F:\FANSHAWE\TERM 2\ANIMATION\PROJECT1\GDP_FEENEY_201718\X64\RELEASE\CGAMEOBJECT.OBJ
F:\FANSHAWE\TERM 2\ANIMATION\PROJECT1\GDP_FEENEY_201718\X64\RELEASE\CFBO.OBJ
F:\FANSHAWE\TERM 2\ANIMATION\PROJECT1\GDP_FEENEY_201718\X64\RELEASE\CDEBUGRENDERER_BUILTINSHAPES.OBJ
F:\FANSHAWE\TERM 2\ANIMATION\PROJECT1\GDP_FEENEY_201718\X64\RELEASE\CDEBUGRENDERER.OBJ
F:\FANSHAWE\TERM 2\ANIMATION\PROJECT1\GDP_FEENEY_201718\X64\RELEASE\CCAMERA_MANUAL.OBJ
F:\FANSHAWE\TERM 2\ANIMATION\PROJECT1\GDP_FEENEY_201718\X64\RELEASE\CCAMERA_FOLLOW.OBJ
F:\FANSHAWE\TERM 2\ANIMATION\PROJECT1\GDP_FEENEY_201718\X64\RELEASE\CCAMERA_FLYLOOKAT.OBJ
F:\FANSHAWE\TERM 2\ANIMATION\PROJECT1\GDP_FEENEY_201718\X64\RELEASE\CCAMERA.OBJ
F:\FANSHAWE\TERM 2\ANIMATION\PROJECT1\GDP_FEENEY_201718\X64\RELEASE\CANIMATIONSTATE.OBJ
F:\FANSHAWE\TERM 2\ANIMATION\PROJECT1\GDP_FEENEY_201718\X64\RELEASE\CSIMPLEASSIMPSKINNEDMESHLOADER_ONEMESH.OBJ
F:\FANSHAWE\TERM 2\ANIMATION\PROJECT1\GDP_FEENEY_201718\X64\RELEASE\CASSIMPBASIC_IMP.OBJ
F:\FANSHAWE\TERM 2\ANIMATION\PROJECT1\GDP_FEENEY_201718\X64\RELEASE\CASSIMPBASIC.OBJ
F:\FANSHAWE\TERM 2\ANIMATION\PROJECT1\GDP_FEENEY_201718\X64\RELEASE\CVECTOR3F.OBJ
F:\FANSHAWE\TERM 2\ANIMATION\PROJECT1\GDP_FEENEY_201718\X64\RELEASE\CPLYFILE5NT_EXPERIMENTAL.OBJ
F:\FANSHAWE\TERM 2\ANIMATION\PROJECT1\GDP_FEENEY_201718\X64\RELEASE\CPLYFILE5NT.OBJ
F:\FANSHAWE\TERM 2\ANIMATION\PROJECT1\GDP_FEENEY_201718\X64\RELEASE\CPHYSICSWORLD.OBJ
F:\FANSHAWE\TERM 2\ANIMATION\PROJECT1\GDP_FEENEY_201718\X64\RELEASE\CPHYSICALPROPERTIES.OBJ
F:\FANSHAWE\TERM 2\ANIMATION\PROJECT1\GDP_FEENEY_201718\X64\RELEASE\CAABBV2.OBJ
F:\FANSHAWE\TERM 2\ANIMATION\PROJECT1\GDP_FEENEY_201718\X64\RELEASE\CAABBBROADPHASE.OBJ
F:\FANSHAWE\TERM 2\ANIMATION\PROJECT1\GDP_FEENEY_201718\X64\RELEASE\AABB_TRIANGLES.OBJ
F:\FANSHAWE\TERM 2\ANIMATION\PROJECT1\GDP_FEENEY_201718\X64\RELEASE\CPERSISTIMPSQLITEGDPADAPTER.OBJ
F:\FANSHAWE\TERM 2\ANIMATION\PROJECT1\GDP_FEENEY_201718\X64\RELEASE\WRNRXML.OBJ
F:\FANSHAWE\TERM 2\ANIMATION\PROJECT1\GDP_FEENEY_201718\X64\RELEASE\RNRXML.OBJ
F:\FANSHAWE\TERM 2\ANIMATION\PROJECT1\GDP_FEENEY_201718\X64\RELEASE\CPERSISTIMPRNRJSON.OBJ
F:\FANSHAWE\TERM 2\ANIMATION\PROJECT1\GDP_FEENEY_201718\X64\RELEASE\CPERSISTIMPFACTORY.OBJ
F:\FANSHAWE\TERM 2\ANIMATION\PROJECT1\GDP_FEENEY_201718\X64\RELEASE\CPERSIST.OBJ
F:\FANSHAWE\TERM 2\ANIMATION\PROJECT1\GDP_FEENEY_201718\X64\RELEASE\CNVPAIR.OBJ
F:\FANSHAWE\TERM 2\ANIMATION\PROJECT1\GDP_FEENEY_201718\X64\RELEASE\MODELUTILITIES.OBJ
F:\FANSHAWE\TERM 2\ANIMATION\PROJECT1\GDP_FEENEY_201718\X64\RELEASE\CLUABRAIN.OBJ
F:\FANSHAWE\TERM 2\ANIMATION\PROJECT1\GDP_FEENEY_201718\X64\RELEASE\GLFW_KEYBOARDCALLBACK.OBJ
F:\FANSHAWE\TERM 2\ANIMATION\PROJECT1\GDP_FEENEY_201718\X64\RELEASE\COPENGLERROR.OBJ
F:\FANSHAWE\TERM 2\ANIMATION\PROJECT1\GDP_FEENEY_201718\X64\RELEASE\CERRORLOG.OBJ
F:\FANSHAWE\TERM 2\ANIMATION\PROJECT1\GDP_FEENEY_201718\X64\RELEASE\CSTRINGUTILS.OBJ
F:\FANSHAWE\TERM 2\ANIMATION\PROJECT1\GDP_FEENEY_201718\X64\RELEASE\CSTRINGHELPER.OBJ
F:\FANSHAWE\TERM 2\ANIMATION\PROJECT1\GDP_FEENEY_201718\X64\RELEASE\CMATHHELPER.OBJ
F:\FANSHAWE\TERM 2\ANIMATION\PROJECT1\GDP_FEENEY_201718\X64\RELEASE\UTILITIES.OBJ
F:\FANSHAWE\TERM 2\ANIMATION\PROJECT1\GDP_FEENEY_201718\X64\RELEASE\THEMAIN.OBJ
F:\FANSHAWE\TERM 2\ANIMATION\PROJECT1\GDP_FEENEY_201718\X64\RELEASE\CTEXTUREMANAGER.OBJ
F:\FANSHAWE\TERM 2\ANIMATION\PROJECT1\GDP_FEENEY_201718\X64\RELEASE\CTEXTUREFROMBMP.OBJ
F:\FANSHAWE\TERM 2\ANIMATION\PROJECT1\GDP_FEENEY_201718\X64\RELEASE\C24BITBMPPIXEL.OBJ
F:\FANSHAWE\TERM 2\ANIMATION\PROJECT1\GDP_FEENEY_201718\X64\RELEASE\SMESHDRAWINFO.OBJ
F:\FANSHAWE\TERM 2\ANIMATION\PROJECT1\GDP_FEENEY_201718\X64\RELEASE\SCENELOADER.OBJ
F:\FANSHAWE\TERM 2\ANIMATION\PROJECT1\GDP_FEENEY_201718\X64\RELEASE\RENDER_CALLS.OBJ
^F:\FANSHAWE\TERM 2\ANIMATION\PROJECT1\GDP_FEENEY_201718\ASSIMP\CASSIMPBASIC.CPP
F:\FANSHAWE\TERM 2\ANIMATION\PROJECT1\GDP_FEENEY_201718\X64\RELEASE\VC141.PDB
^F:\FANSHAWE\TERM 2\ANIMATION\PROJECT1\GDP_FEENEY_201718\ASSIMP\CASSIMPBASIC_IMP.CPP
F:\FANSHAWE\TERM 2\ANIMATION\PROJECT1\GDP_FEENEY_201718\X64\RELEASE\VC141.PDB
^F:\FANSHAWE\TERM 2\ANIMATION\PROJECT1\GDP_FEENEY_201718\ASSIMP\CSIMPLEASSIMPSKINNEDMESHLOADER_ONEMESH.CPP
F:\FANSHAWE\TERM 2\ANIMATION\PROJECT1\GDP_FEENEY_201718\X64\RELEASE\VC141.PDB
^F:\FANSHAWE\TERM 2\ANIMATION\PROJECT1\GDP_FEENEY_201718\CANIMATIONSTATE.CPP
F:\FANSHAWE\TERM 2\ANIMATION\PROJECT1\GDP_FEENEY_201718\X64\RELEASE\VC141.PDB
^F:\FANSHAWE\TERM 2\ANIMATION\PROJECT1\GDP_FEENEY_201718\CCAMERA.CPP
F:\FANSHAWE\TERM 2\ANIMATION\PROJECT1\GDP_FEENEY_201718\X64\RELEASE\VC141.PDB
^F:\FANSHAWE\TERM 2\ANIMATION\PROJECT1\GDP_FEENEY_201718\CCAMERA_FLYLOOKAT.CPP
F:\FANSHAWE\TERM 2\ANIMATION\PROJECT1\GDP_FEENEY_201718\X64\RELEASE\VC141.PDB
^F:\FANSHAWE\TERM 2\ANIMATION\PROJECT1\GDP_FEENEY_201718\CCAMERA_FOLLOW.CPP
F:\FANSHAWE\TERM 2\ANIMATION\PROJECT1\GDP_FEENEY_201718\X64\RELEASE\VC141.PDB
^F:\FANSHAWE\TERM 2\ANIMATION\PROJECT1\GDP_FEENEY_201718\CCAMERA_MANUAL.CPP
F:\FANSHAWE\TERM 2\ANIMATION\PROJECT1\GDP_FEENEY_201718\X64\RELEASE\VC141.PDB
^F:\FANSHAWE\TERM 2\ANIMATION\PROJECT1\GDP_FEENEY_201718\CDEBUGRENDERER.CPP
F:\FANSHAWE\TERM 2\ANIMATION\PROJECT1\GDP_FEENEY_201718\X64\RELEASE\VC141.PDB
^F:\FANSHAWE\TERM 2\ANIMATION\PROJECT1\GDP_FEENEY_201718\CDEBUGRENDERER_BUILTINSHAPES.CPP
F:\FANSHAWE\TERM 2\ANIMATION\PROJECT1\GDP_FEENEY_201718\X64\RELEASE\VC141.PDB
^F:\FANSHAWE\TERM 2\ANIMATION\PROJECT1\GDP_FEENEY_201718\CFBO.CPP
F:\FANSHAWE\TERM 2\ANIMATION\PROJECT1\GDP_FEENEY_201718\X64\RELEASE\VC141.PDB
^F:\FANSHAWE\TERM 2\ANIMATION\PROJECT1\GDP_FEENEY_201718\CGAMEOBJECT.CPP
F:\FANSHAWE\TERM 2\ANIMATION\PROJECT1\GDP_FEENEY_201718\X64\RELEASE\VC141.PDB
^F:\FANSHAWE\TERM 2\ANIMATION\PROJECT1\GDP_FEENEY_201718\CHRTIMER.CPP
F:\FANSHAWE\TERM 2\ANIMATION\PROJECT1\GDP_FEENEY_201718\X64\RELEASE\VC141.PDB
^F:\FANSHAWE\TERM 2\ANIMATION\PROJECT1\GDP_FEENEY_201718\CLIGHTMANAGER.CPP
F:\FANSHAWE\TERM 2\ANIMATION\PROJECT1\GDP_FEENEY_201718\X64\RELEASE\VC141.PDB
^F:\FANSHAWE\TERM 2\ANIMATION\PROJECT1\GDP_FEENEY_201718\CMESH.CPP
F:\FANSHAWE\TERM 2\ANIMATION\PROJECT1\GDP_FEENEY_201718\X64\RELEASE\VC141.PDB
^F:\FANSHAWE\TERM 2\ANIMATION\PROJECT1\GDP_FEENEY_201718\CMODELASSETLOADER.CPP
F:\FANSHAWE\TERM 2\ANIMATION\PROJECT1\GDP_FEENEY_201718\X64\RELEASE\VC141.PDB
^F:\FANSHAWE\TERM 2\ANIMATION\PROJECT1\GDP_FEENEY_201718\CSHADER.CPP
F:\FANSHAWE\TERM 2\ANIMATION\PROJECT1\GDP_FEENEY_201718\X64\RELEASE\VC141.PDB
^F:\FANSHAWE\TERM 2\ANIMATION\PROJECT1\GDP_FEENEY_201718\CSHADERMANAGER.CPP
F:\FANSHAWE\TERM 2\ANIMATION\PROJECT1\GDP_FEENEY_201718\X64\RELEASE\VC141.PDB
^F:\FANSHAWE\TERM 2\ANIMATION\PROJECT1\GDP_FEENEY_201718\CTRIANGLE.CPP
F:\FANSHAWE\TERM 2\ANIMATION\PROJECT1\GDP_FEENEY_201718\X64\RELEASE\VC141.PDB
^F:\FANSHAWE\TERM 2\ANIMATION\PROJECT1\GDP_FEENEY_201718\CVAOMESHMANAGER.CPP
F:\FANSHAWE\TERM 2\ANIMATION\PROJECT1\GDP_FEENEY_201718\X64\RELEASE\VC141.PDB
^F:\FANSHAWE\TERM 2\ANIMATION\PROJECT1\GDP_FEENEY_201718\ERROR\CERRORLOG.CPP
F:\FANSHAWE\TERM 2\ANIMATION\PROJECT1\GDP_FEENEY_201718\X64\RELEASE\VC141.PDB
^F:\FANSHAWE\TERM 2\ANIMATION\PROJECT1\GDP_FEENEY_201718\ERROR\COPENGLERROR.CPP
F:\FANSHAWE\TERM 2\ANIMATION\PROJECT1\GDP_FEENEY_201718\X64\RELEASE\VC141.PDB
^F:\FANSHAWE\TERM 2\ANIMATION\PROJECT1\GDP_FEENEY_201718\GLFW_KEYBOARDCALLBACK.CPP
F:\FANSHAWE\TERM 2\ANIMATION\PROJECT1\GDP_FEENEY_201718\X64\RELEASE\VC141.PDB
^F:\FANSHAWE\TERM 2\ANIMATION\PROJECT1\GDP_FEENEY_201718\LUA\CLUABRAIN.CPP
F:\FANSHAWE\TERM 2\ANIMATION\PROJECT1\GDP_FEENEY_201718\X64\RELEASE\VC141.PDB
^F:\FANSHAWE\TERM 2\ANIMATION\PROJECT1\GDP_FEENEY_201718\MODELUTILITIES.CPP
F:\FANSHAWE\TERM 2\ANIMATION\PROJECT1\GDP_FEENEY_201718\X64\RELEASE\VC141.PDB
^F:\FANSHAWE\TERM 2\ANIMATION\PROJECT1\GDP_FEENEY_201718\PERSIST\CNVPAIR.CPP
F:\FANSHAWE\TERM 2\ANIMATION\PROJECT1\GDP_FEENEY_201718\X64\RELEASE\VC141.PDB
^F:\FANSHAWE\TERM 2\ANIMATION\PROJECT1\GDP_FEENEY_201718\PERSIST\CPERSIST.CPP
F:\FANSHAWE\TERM 2\ANIMATION\PROJECT1\GDP_FEENEY_201718\X64\RELEASE\VC141.PDB
^F:\FANSHAWE\TERM 2\ANIMATION\PROJECT1\GDP_FEENEY_201718\PERSIST\CPERSISTIMPFACTORY.CPP
F:\FANSHAWE\TERM 2\ANIMATION\PROJECT1\GDP_FEENEY_201718\X64\RELEASE\VC141.PDB
^F:\FANSHAWE\TERM 2\ANIMATION\PROJECT1\GDP_FEENEY_201718\PERSIST\JSON\CPERSISTIMPRNRJSON.CPP
F:\FANSHAWE\TERM 2\ANIMATION\PROJECT1\GDP_FEENEY_201718\X64\RELEASE\VC141.PDB
^F:\FANSHAWE\TERM 2\ANIMATION\PROJECT1\GDP_FEENEY_201718\PERSIST\RNRXML\RNRXML.CPP
F:\FANSHAWE\TERM 2\ANIMATION\PROJECT1\GDP_FEENEY_201718\X64\RELEASE\VC141.PDB
^F:\FANSHAWE\TERM 2\ANIMATION\PROJECT1\GDP_FEENEY_201718\PERSIST\RNRXML\WRNRXML.CPP
F:\FANSHAWE\TERM 2\ANIMATION\PROJECT1\GDP_FEENEY_201718\X64\RELEASE\VC141.PDB
^F:\FANSHAWE\TERM 2\ANIMATION\PROJECT1\GDP_FEENEY_201718\PERSIST\SQLITE\CPERSISTIMPSQLITEGDPADAPTER.CPP
F:\FANSHAWE\TERM 2\ANIMATION\PROJECT1\GDP_FEENEY_201718\X64\RELEASE\VC141.PDB
^F:\FANSHAWE\TERM 2\ANIMATION\PROJECT1\GDP_FEENEY_201718\PHYSICS\AABB_TRIANGLES.CPP
F:\FANSHAWE\TERM 2\ANIMATION\PROJECT1\GDP_FEENEY_201718\X64\RELEASE\VC141.PDB
^F:\FANSHAWE\TERM 2\ANIMATION\PROJECT1\GDP_FEENEY_201718\PHYSICS\CAABBBROADPHASE.CPP
F:\FANSHAWE\TERM 2\ANIMATION\PROJECT1\GDP_FEENEY_201718\X64\RELEASE\VC141.PDB
^F:\FANSHAWE\TERM 2\ANIMATION\PROJECT1\GDP_FEENEY_201718\PHYSICS\CAABBV2.CPP
F:\FANSHAWE\TERM 2\ANIMATION\PROJECT1\GDP_FEENEY_201718\X64\RELEASE\VC141.PDB
^F:\FANSHAWE\TERM 2\ANIMATION\PROJECT1\GDP_FEENEY_201718\PHYSICS\CPHYSICALPROPERTIES.CPP
F:\FANSHAWE\TERM 2\ANIMATION\PROJECT1\GDP_FEENEY_201718\X64\RELEASE\VC141.PDB
^F:\FANSHAWE\TERM 2\ANIMATION\PROJECT1\GDP_FEENEY_201718\PHYSICS\CPHYSICSWORLD.CPP
F:\FANSHAWE\TERM 2\ANIMATION\PROJECT1\GDP_FEENEY_201718\X64\RELEASE\VC141.PDB
^F:\FANSHAWE\TERM 2\ANIMATION\PROJECT1\GDP_FEENEY_201718\PLY\CPLYFILE5NT.CPP
F:\FANSHAWE\TERM 2\ANIMATION\PROJECT1\GDP_FEENEY_201718\X64\RELEASE\VC141.PDB
^F:\FANSHAWE\TERM 2\ANIMATION\PROJECT1\GDP_FEENEY_201718\PLY\CPLYFILE5NT_EXPERIMENTAL.CPP
F:\FANSHAWE\TERM 2\ANIMATION\PROJECT1\GDP_FEENEY_201718\X64\RELEASE\VC141.PDB
^F:\FANSHAWE\TERM 2\ANIMATION\PROJECT1\GDP_FEENEY_201718\PLY\CVECTOR3F.CPP
F:\FANSHAWE\TERM 2\ANIMATION\PROJECT1\GDP_FEENEY_201718\X64\RELEASE\VC141.PDB
^F:\FANSHAWE\TERM 2\ANIMATION\PROJECT1\GDP_FEENEY_201718\RENDER_CALLS.CPP
F:\FANSHAWE\TERM 2\ANIMATION\PROJECT1\GDP_FEENEY_201718\X64\RELEASE\VC141.PDB
^F:\FANSHAWE\TERM 2\ANIMATION\PROJECT1\GDP_FEENEY_201718\SCENELOADER.CPP
F:\FANSHAWE\TERM 2\ANIMATION\PROJECT1\GDP_FEENEY_201718\X64\RELEASE\VC141.PDB
^F:\FANSHAWE\TERM 2\ANIMATION\PROJECT1\GDP_FEENEY_201718\SMESHDRAWINFO.CPP
F:\FANSHAWE\TERM 2\ANIMATION\PROJECT1\GDP_FEENEY_201718\X64\RELEASE\VC141.PDB
^F:\FANSHAWE\TERM 2\ANIMATION\PROJECT1\GDP_FEENEY_201718\TEXTURE\C24BITBMPPIXEL.CPP
F:\FANSHAWE\TERM 2\ANIMATION\PROJECT1\GDP_FEENEY_201718\X64\RELEASE\VC141.PDB
^F:\FANSHAWE\TERM 2\ANIMATION\PROJECT1\GDP_FEENEY_201718\TEXTURE\CTEXTUREFROMBMP.CPP
F:\FANSHAWE\TERM 2\ANIMATION\PROJECT1\GDP_FEENEY_201718\X64\RELEASE\VC141.PDB
^F:\FANSHAWE\TERM 2\ANIMATION\PROJECT1\GDP_FEENEY_201718\TEXTURE\CTEXTUREMANAGER.CPP
F:\FANSHAWE\TERM 2\ANIMATION\PROJECT1\GDP_FEENEY_201718\X64\RELEASE\VC141.PDB
^F:\FANSHAWE\TERM 2\ANIMATION\PROJECT1\GDP_FEENEY_201718\THEMAIN.CPP
F:\FANSHAWE\TERM 2\ANIMATION\PROJECT1\GDP_FEENEY_201718\X64\RELEASE\VC141.PDB
^F:\FANSHAWE\TERM 2\ANIMATION\PROJECT1\GDP_FEENEY_201718\UTILITIES.CPP
F:\FANSHAWE\TERM 2\ANIMATION\PROJECT1\GDP_FEENEY_201718\X64\RELEASE\VC141.PDB
^F:\FANSHAWE\TERM 2\ANIMATION\PROJECT1\GDP_FEENEY_201718\UTILITIES\CMATHHELPER.CPP
F:\FANSHAWE\TERM 2\ANIMATION\PROJECT1\GDP_FEENEY_201718\X64\RELEASE\VC141.PDB
^F:\FANSHAWE\TERM 2\ANIMATION\PROJECT1\GDP_FEENEY_201718\UTILITIES\CSTRINGHELPER.CPP
F:\FANSHAWE\TERM 2\ANIMATION\PROJECT1\GDP_FEENEY_201718\X64\RELEASE\VC141.PDB
^F:\FANSHAWE\TERM 2\ANIMATION\PROJECT1\GDP_FEENEY_201718\UTILITIES\CSTRINGUTILS.CPP
F:\FANSHAWE\TERM 2\ANIMATION\PROJECT1\GDP_FEENEY_201718\X64\RELEASE\VC141.PDB
^F:\FANSHAWE\TERM 2\ANIMATION\PROJECT1\GDP_FEENEY_201718\SRC\GLAD.C
F:\FANSHAWE\TERM 2\ANIMATION\PROJECT1\GDP_FEENEY_201718\X64\RELEASE\VC141.PDB
F:\FANSHAWE\TERM 2\ANIMATION\PROJECT1\GDP_FEENEY_201718\X64\RELEASE\GLAD.OBJ
