^F:\FANSHAWE\TERM 2\ANIMATION\ANIMATION1\GDP_FEENEY_201718\X64\RELEASE\AABB_TRIANGLES.OBJ|F:\FANSHAWE\TERM 2\ANIMATION\ANIMATION1\GDP_FEENEY_201718\X64\RELEASE\C24BITBMPPIXEL.OBJ|F:\FANSHAWE\TERM 2\ANIMATION\ANIMATION1\GDP_FEENEY_201718\X64\RELEASE\CAABBBROADPHASE.OBJ|F:\FANSHAWE\TERM 2\ANIMATION\ANIMATION1\GDP_FEENEY_201718\X64\RELEASE\CAABBV2.OBJ|F:\FANSHAWE\TERM 2\ANIMATION\ANIMATION1\GDP_FEENEY_201718\X64\RELEASE\CANIMATIONSTATE.OBJ|F:\FANSHAWE\TERM 2\ANIMATION\ANIMATION1\GDP_FEENEY_201718\X64\RELEASE\CASSIMPBASIC.OBJ|F:\FANSHAWE\TERM 2\ANIMATION\ANIMATION1\GDP_FEENEY_201718\X64\RELEASE\CASSIMPBASIC_IMP.OBJ|F:\FANSHAWE\TERM 2\ANIMATION\ANIMATION1\GDP_FEENEY_201718\X64\RELEASE\CCAMERA.OBJ|F:\FANSHAWE\TERM 2\ANIMATION\ANIMATION1\GDP_FEENEY_201718\X64\RELEASE\CCAMERA_FLYLOOKAT.OBJ|F:\FANSHAWE\TERM 2\ANIMATION\ANIMATION1\GDP_FEENEY_201718\X64\RELEASE\CCAMERA_FOLLOW.OBJ|F:\FANSHAWE\TERM 2\ANIMATION\ANIMATION1\GDP_FEENEY_201718\X64\RELEASE\CCAMERA_MANUAL.OBJ|F:\FANSHAWE\TERM 2\ANIMATION\ANIMATION1\GDP_FEENEY_201718\X64\RELEASE\CDEBUGRENDERER.OBJ|F:\FANSHAWE\TERM 2\ANIMATION\ANIMATION1\GDP_FEENEY_201718\X64\RELEASE\CDEBUGRENDERER_BUILTINSHAPES.OBJ|F:\FANSHAWE\TERM 2\ANIMATION\ANIMATION1\GDP_FEENEY_201718\X64\RELEASE\CERRORLOG.OBJ|F:\FANSHAWE\TERM 2\ANIMATION\ANIMATION1\GDP_FEENEY_201718\X64\RELEASE\CFBO.OBJ|F:\FANSHAWE\TERM 2\ANIMATION\ANIMATION1\GDP_FEENEY_201718\X64\RELEASE\CGAMEOBJECT.OBJ|F:\FANSHAWE\TERM 2\ANIMATION\ANIMATION1\GDP_FEENEY_201718\X64\RELEASE\CHRTIMER.OBJ|F:\FANSHAWE\TERM 2\ANIMATION\ANIMATION1\GDP_FEENEY_201718\X64\RELEASE\CLIGHTMANAGER.OBJ|F:\FANSHAWE\TERM 2\ANIMATION\ANIMATION1\GDP_FEENEY_201718\X64\RELEASE\CLUABRAIN.OBJ|F:\FANSHAWE\TERM 2\ANIMATION\ANIMATION1\GDP_FEENEY_201718\X64\RELEASE\CMATHHELPER.OBJ|F:\FANSHAWE\TERM 2\ANIMATION\ANIMATION1\GDP_FEENEY_201718\X64\RELEASE\CMESH.OBJ|F:\FANSHAWE\TERM 2\ANIMATION\ANIMATION1\GDP_FEENEY_201718\X64\RELEASE\CMODELASSETLOADER.OBJ|F:\FANSHAWE\TERM 2\ANIMATION\ANIMATION1\GDP_FEENEY_201718\X64\RELEASE\CNVPAIR.OBJ|F:\FANSHAWE\TERM 2\ANIMATION\ANIMATION1\GDP_FEENEY_201718\X64\RELEASE\COPENGLERROR.OBJ|F:\FANSHAWE\TERM 2\ANIMATION\ANIMATION1\GDP_FEENEY_201718\X64\RELEASE\CPERSIST.OBJ|F:\FANSHAWE\TERM 2\ANIMATION\ANIMATION1\GDP_FEENEY_201718\X64\RELEASE\CPERSISTIMPFACTORY.OBJ|F:\FANSHAWE\TERM 2\ANIMATION\ANIMATION1\GDP_FEENEY_201718\X64\RELEASE\CPERSISTIMPRNRJSON.OBJ|F:\FANSHAWE\TERM 2\ANIMATION\ANIMATION1\GDP_FEENEY_201718\X64\RELEASE\CPERSISTIMPSQLITEGDPADAPTER.OBJ|F:\FANSHAWE\TERM 2\ANIMATION\ANIMATION1\GDP_FEENEY_201718\X64\RELEASE\CPHYSICALPROPERTIES.OBJ|F:\FANSHAWE\TERM 2\ANIMATION\ANIMATION1\GDP_FEENEY_201718\X64\RELEASE\CPHYSICSWORLD.OBJ|F:\FANSHAWE\TERM 2\ANIMATION\ANIMATION1\GDP_FEENEY_201718\X64\RELEASE\CPLYFILE5NT.OBJ|F:\FANSHAWE\TERM 2\ANIMATION\ANIMATION1\GDP_FEENEY_201718\X64\RELEASE\CPLYFILE5NT_EXPERIMENTAL.OBJ|F:\FANSHAWE\TERM 2\ANIMATION\ANIMATION1\GDP_FEENEY_201718\X64\RELEASE\CSHADER.OBJ|F:\FANSHAWE\TERM 2\ANIMATION\ANIMATION1\GDP_FEENEY_201718\X64\RELEASE\CSHADERMANAGER.OBJ|F:\FANSHAWE\TERM 2\ANIMATION\ANIMATION1\GDP_FEENEY_201718\X64\RELEASE\CSIMPLEASSIMPSKINNEDMESHLOADER_ONEMESH.OBJ|F:\FANSHAWE\TERM 2\ANIMATION\ANIMATION1\GDP_FEENEY_201718\X64\RELEASE\CSTRINGHELPER.OBJ|F:\FANSHAWE\TERM 2\ANIMATION\ANIMATION1\GDP_FEENEY_201718\X64\RELEASE\CSTRINGUTILS.OBJ|F:\FANSHAWE\TERM 2\ANIMATION\ANIMATION1\GDP_FEENEY_201718\X64\RELEASE\CTEXTUREFROMBMP.OBJ|F:\FANSHAWE\TERM 2\ANIMATION\ANIMATION1\GDP_FEENEY_201718\X64\RELEASE\CTEXTUREMANAGER.OBJ|F:\FANSHAWE\TERM 2\ANIMATION\ANIMATION1\GDP_FEENEY_201718\X64\RELEASE\CTRIANGLE.OBJ|F:\FANSHAWE\TERM 2\ANIMATION\ANIMATION1\GDP_FEENEY_201718\X64\RELEASE\CVAOMESHMANAGER.OBJ|F:\FANSHAWE\TERM 2\ANIMATION\ANIMATION1\GDP_FEENEY_201718\X64\RELEASE\CVECTOR3F.OBJ|F:\FANSHAWE\TERM 2\ANIMATION\ANIMATION1\GDP_FEENEY_201718\X64\RELEASE\GLAD.OBJ|F:\FANSHAWE\TERM 2\ANIMATION\ANIMATION1\GDP_FEENEY_201718\X64\RELEASE\GLFW_KEYBOARDCALLBACK.OBJ|F:\FANSHAWE\TERM 2\ANIMATION\ANIMATION1\GDP_FEENEY_201718\X64\RELEASE\MODELUTILITIES.OBJ|F:\FANSHAWE\TERM 2\ANIMATION\ANIMATION1\GDP_FEENEY_201718\X64\RELEASE\RENDER_CALLS.OBJ|F:\FANSHAWE\TERM 2\ANIMATION\ANIMATION1\GDP_FEENEY_201718\X64\RELEASE\RNRXML.OBJ|F:\FANSHAWE\TERM 2\ANIMATION\ANIMATION1\GDP_FEENEY_201718\X64\RELEASE\SCENELOADER.OBJ|F:\FANSHAWE\TERM 2\ANIMATION\ANIMATION1\GDP_FEENEY_201718\X64\RELEASE\SMESHDRAWINFO.OBJ|F:\FANSHAWE\TERM 2\ANIMATION\ANIMATION1\GDP_FEENEY_201718\X64\RELEASE\THEMAIN.OBJ|F:\FANSHAWE\TERM 2\ANIMATION\ANIMATION1\GDP_FEENEY_201718\X64\RELEASE\UTILITIES.OBJ|F:\FANSHAWE\TERM 2\ANIMATION\ANIMATION1\GDP_FEENEY_201718\X64\RELEASE\WRNRXML.OBJ
F:\FANSHAWE\TERM 2\ANIMATION\ANIMATION1\X64\RELEASE\GDP_FEENEY_201718.EXE
F:\FANSHAWE\TERM 2\ANIMATION\ANIMATION1\X64\RELEASE\GDP_FEENEY_201718.PDB
^F:\FANSHAWE\TERM 2\ANIMATION\PROJECT1\GDP_FEENEY_201718\X64\RELEASE\AABB_TRIANGLES.OBJ|F:\FANSHAWE\TERM 2\ANIMATION\PROJECT1\GDP_FEENEY_201718\X64\RELEASE\C24BITBMPPIXEL.OBJ|F:\FANSHAWE\TERM 2\ANIMATION\PROJECT1\GDP_FEENEY_201718\X64\RELEASE\CAABBBROADPHASE.OBJ|F:\FANSHAWE\TERM 2\ANIMATION\PROJECT1\GDP_FEENEY_201718\X64\RELEASE\CAABBV2.OBJ|F:\FANSHAWE\TERM 2\ANIMATION\PROJECT1\GDP_FEENEY_201718\X64\RELEASE\CANIMATIONSTATE.OBJ|F:\FANSHAWE\TERM 2\ANIMATION\PROJECT1\GDP_FEENEY_201718\X64\RELEASE\CASSIMPBASIC.OBJ|F:\FANSHAWE\TERM 2\ANIMATION\PROJECT1\GDP_FEENEY_201718\X64\RELEASE\CASSIMPBASIC_IMP.OBJ|F:\FANSHAWE\TERM 2\ANIMATION\PROJECT1\GDP_FEENEY_201718\X64\RELEASE\CCAMERA.OBJ|F:\FANSHAWE\TERM 2\ANIMATION\PROJECT1\GDP_FEENEY_201718\X64\RELEASE\CCAMERA_FLYLOOKAT.OBJ|F:\FANSHAWE\TERM 2\ANIMATION\PROJECT1\GDP_FEENEY_201718\X64\RELEASE\CCAMERA_FOLLOW.OBJ|F:\FANSHAWE\TERM 2\ANIMATION\PROJECT1\GDP_FEENEY_201718\X64\RELEASE\CCAMERA_MANUAL.OBJ|F:\FANSHAWE\TERM 2\ANIMATION\PROJECT1\GDP_FEENEY_201718\X64\RELEASE\CDEBUGRENDERER.OBJ|F:\FANSHAWE\TERM 2\ANIMATION\PROJECT1\GDP_FEENEY_201718\X64\RELEASE\CDEBUGRENDERER_BUILTINSHAPES.OBJ|F:\FANSHAWE\TERM 2\ANIMATION\PROJECT1\GDP_FEENEY_201718\X64\RELEASE\CERRORLOG.OBJ|F:\FANSHAWE\TERM 2\ANIMATION\PROJECT1\GDP_FEENEY_201718\X64\RELEASE\CFBO.OBJ|F:\FANSHAWE\TERM 2\ANIMATION\PROJECT1\GDP_FEENEY_201718\X64\RELEASE\CGAMEOBJECT.OBJ|F:\FANSHAWE\TERM 2\ANIMATION\PROJECT1\GDP_FEENEY_201718\X64\RELEASE\CHRTIMER.OBJ|F:\FANSHAWE\TERM 2\ANIMATION\PROJECT1\GDP_FEENEY_201718\X64\RELEASE\CLIGHTMANAGER.OBJ|F:\FANSHAWE\TERM 2\ANIMATION\PROJECT1\GDP_FEENEY_201718\X64\RELEASE\CLUABRAIN.OBJ|F:\FANSHAWE\TERM 2\ANIMATION\PROJECT1\GDP_FEENEY_201718\X64\RELEASE\CMATHHELPER.OBJ|F:\FANSHAWE\TERM 2\ANIMATION\PROJECT1\GDP_FEENEY_201718\X64\RELEASE\CMESH.OBJ|F:\FANSHAWE\TERM 2\ANIMATION\PROJECT1\GDP_FEENEY_201718\X64\RELEASE\CMODELASSETLOADER.OBJ|F:\FANSHAWE\TERM 2\ANIMATION\PROJECT1\GDP_FEENEY_201718\X64\RELEASE\CNVPAIR.OBJ|F:\FANSHAWE\TERM 2\ANIMATION\PROJECT1\GDP_FEENEY_201718\X64\RELEASE\COPENGLERROR.OBJ|F:\FANSHAWE\TERM 2\ANIMATION\PROJECT1\GDP_FEENEY_201718\X64\RELEASE\CPERSIST.OBJ|F:\FANSHAWE\TERM 2\ANIMATION\PROJECT1\GDP_FEENEY_201718\X64\RELEASE\CPERSISTIMPFACTORY.OBJ|F:\FANSHAWE\TERM 2\ANIMATION\PROJECT1\GDP_FEENEY_201718\X64\RELEASE\CPERSISTIMPRNRJSON.OBJ|F:\FANSHAWE\TERM 2\ANIMATION\PROJECT1\GDP_FEENEY_201718\X64\RELEASE\CPERSISTIMPSQLITEGDPADAPTER.OBJ|F:\FANSHAWE\TERM 2\ANIMATION\PROJECT1\GDP_FEENEY_201718\X64\RELEASE\CPHYSICALPROPERTIES.OBJ|F:\FANSHAWE\TERM 2\ANIMATION\PROJECT1\GDP_FEENEY_201718\X64\RELEASE\CPHYSICSWORLD.OBJ|F:\FANSHAWE\TERM 2\ANIMATION\PROJECT1\GDP_FEENEY_201718\X64\RELEASE\CPLYFILE5NT.OBJ|F:\FANSHAWE\TERM 2\ANIMATION\PROJECT1\GDP_FEENEY_201718\X64\RELEASE\CPLYFILE5NT_EXPERIMENTAL.OBJ|F:\FANSHAWE\TERM 2\ANIMATION\PROJECT1\GDP_FEENEY_201718\X64\RELEASE\CSHADER.OBJ|F:\FANSHAWE\TERM 2\ANIMATION\PROJECT1\GDP_FEENEY_201718\X64\RELEASE\CSHADERMANAGER.OBJ|F:\FANSHAWE\TERM 2\ANIMATION\PROJECT1\GDP_FEENEY_201718\X64\RELEASE\CSIMPLEASSIMPSKINNEDMESHLOADER_ONEMESH.OBJ|F:\FANSHAWE\TERM 2\ANIMATION\PROJECT1\GDP_FEENEY_201718\X64\RELEASE\CSTRINGHELPER.OBJ|F:\FANSHAWE\TERM 2\ANIMATION\PROJECT1\GDP_FEENEY_201718\X64\RELEASE\CSTRINGUTILS.OBJ|F:\FANSHAWE\TERM 2\ANIMATION\PROJECT1\GDP_FEENEY_201718\X64\RELEASE\CTEXTUREFROMBMP.OBJ|F:\FANSHAWE\TERM 2\ANIMATION\PROJECT1\GDP_FEENEY_201718\X64\RELEASE\CTEXTUREMANAGER.OBJ|F:\FANSHAWE\TERM 2\ANIMATION\PROJECT1\GDP_FEENEY_201718\X64\RELEASE\CTRIANGLE.OBJ|F:\FANSHAWE\TERM 2\ANIMATION\PROJECT1\GDP_FEENEY_201718\X64\RELEASE\CVAOMESHMANAGER.OBJ|F:\FANSHAWE\TERM 2\ANIMATION\PROJECT1\GDP_FEENEY_201718\X64\RELEASE\CVECTOR3F.OBJ|F:\FANSHAWE\TERM 2\ANIMATION\PROJECT1\GDP_FEENEY_201718\X64\RELEASE\GLAD.OBJ|F:\FANSHAWE\TERM 2\ANIMATION\PROJECT1\GDP_FEENEY_201718\X64\RELEASE\GLFW_KEYBOARDCALLBACK.OBJ|F:\FANSHAWE\TERM 2\ANIMATION\PROJECT1\GDP_FEENEY_201718\X64\RELEASE\MODELUTILITIES.OBJ|F:\FANSHAWE\TERM 2\ANIMATION\PROJECT1\GDP_FEENEY_201718\X64\RELEASE\RENDER_CALLS.OBJ|F:\FANSHAWE\TERM 2\ANIMATION\PROJECT1\GDP_FEENEY_201718\X64\RELEASE\RNRXML.OBJ|F:\FANSHAWE\TERM 2\ANIMATION\PROJECT1\GDP_FEENEY_201718\X64\RELEASE\SCENELOADER.OBJ|F:\FANSHAWE\TERM 2\ANIMATION\PROJECT1\GDP_FEENEY_201718\X64\RELEASE\SMESHDRAWINFO.OBJ|F:\FANSHAWE\TERM 2\ANIMATION\PROJECT1\GDP_FEENEY_201718\X64\RELEASE\THEMAIN.OBJ|F:\FANSHAWE\TERM 2\ANIMATION\PROJECT1\GDP_FEENEY_201718\X64\RELEASE\UTILITIES.OBJ|F:\FANSHAWE\TERM 2\ANIMATION\PROJECT1\GDP_FEENEY_201718\X64\RELEASE\WRNRXML.OBJ
F:\FANSHAWE\TERM 2\ANIMATION\PROJECT1\X64\RELEASE\GDP_FEENEY_201718.EXE
F:\FANSHAWE\TERM 2\ANIMATION\PROJECT1\X64\RELEASE\GDP_FEENEY_201718.PDB
