^F:\FANSHAWE\TERM 2\ARTIFICIAL INTELLIGENCE\PROJECT2\PROJECT2\X64\RELEASE\CAIGAMEOBJECT.OBJ|F:\FANSHAWE\TERM 2\ARTIFICIAL INTELLIGENCE\PROJECT2\PROJECT2\X64\RELEASE\CCAMERA.OBJ|F:\FANSHAWE\TERM 2\ARTIFICIAL INTELLIGENCE\PROJECT2\PROJECT2\X64\RELEASE\CGAMEOBJECT.OBJ|F:\FANSHAWE\TERM 2\ARTIFICIAL INTELLIGENCE\PROJECT2\PROJECT2\X64\RELEASE\CMAP.OBJ|F:\FANSHAWE\TERM 2\ARTIFICIAL INTELLIGENCE\PROJECT2\PROJECT2\X64\RELEASE\CMAPCELL.OBJ|F:\FANSHAWE\TERM 2\ARTIFICIAL INTELLIGENCE\PROJECT2\PROJECT2\X64\RELEASE\CMAPLOADER.OBJ|F:\FANSHAWE\TERM 2\ARTIFICIAL INTELLIGENCE\PROJECT2\PROJECT2\X64\RELEASE\CMESH.OBJ|F:\FANSHAWE\TERM 2\ARTIFICIAL INTELLIGENCE\PROJECT2\PROJECT2\X64\RELEASE\CMODEL.OBJ|F:\FANSHAWE\TERM 2\ARTIFICIAL INTELLIGENCE\PROJECT2\PROJECT2\X64\RELEASE\CPATH.OBJ|F:\FANSHAWE\TERM 2\ARTIFICIAL INTELLIGENCE\PROJECT2\PROJECT2\X64\RELEASE\CPLAYERGAMEOBJECT.OBJ|F:\FANSHAWE\TERM 2\ARTIFICIAL INTELLIGENCE\PROJECT2\PROJECT2\X64\RELEASE\CSHADER.OBJ|F:\FANSHAWE\TERM 2\ARTIFICIAL INTELLIGENCE\PROJECT2\PROJECT2\X64\RELEASE\CSHADERMANAGER.OBJ|F:\FANSHAWE\TERM 2\ARTIFICIAL INTELLIGENCE\PROJECT2\PROJECT2\X64\RELEASE\GLAD.OBJ|F:\FANSHAWE\TERM 2\ARTIFICIAL INTELLIGENCE\PROJECT2\PROJECT2\X64\RELEASE\MAIN.OBJ|F:\FANSHAWE\TERM 2\ARTIFICIAL INTELLIGENCE\PROJECT2\PROJECT2\X64\RELEASE\PHYSICS.OBJ|F:\FANSHAWE\TERM 2\ARTIFICIAL INTELLIGENCE\PROJECT2\PROJECT2\X64\RELEASE\STB_IMAGE.OBJ|F:\FANSHAWE\TERM 2\ARTIFICIAL INTELLIGENCE\PROJECT2\PROJECT2\X64\RELEASE\UTILITIES.OBJ
C:\WINDOWS\GLOBALIZATION\SORTING\SORTDEFAULT.NLS
C:\PROGRAM FILES (X86)\WINDOWS KITS\10\LIB\10.0.15063.0\UM\X64\KERNEL32.LIB
C:\PROGRAM FILES (X86)\WINDOWS KITS\10\LIB\10.0.15063.0\UM\X64\USER32.LIB
C:\PROGRAM FILES (X86)\WINDOWS KITS\10\LIB\10.0.15063.0\UM\X64\GDI32.LIB
C:\PROGRAM FILES (X86)\WINDOWS KITS\10\LIB\10.0.15063.0\UM\X64\WINSPOOL.LIB
C:\PROGRAM FILES (X86)\WINDOWS KITS\10\LIB\10.0.15063.0\UM\X64\COMDLG32.LIB
C:\PROGRAM FILES (X86)\WINDOWS KITS\10\LIB\10.0.15063.0\UM\X64\ADVAPI32.LIB
C:\PROGRAM FILES (X86)\WINDOWS KITS\10\LIB\10.0.15063.0\UM\X64\SHELL32.LIB
C:\PROGRAM FILES (X86)\WINDOWS KITS\10\LIB\10.0.15063.0\UM\X64\OLE32.LIB
C:\PROGRAM FILES (X86)\WINDOWS KITS\10\LIB\10.0.15063.0\UM\X64\OLEAUT32.LIB
C:\PROGRAM FILES (X86)\WINDOWS KITS\10\LIB\10.0.15063.0\UM\X64\UUID.LIB
C:\PROGRAM FILES (X86)\WINDOWS KITS\10\LIB\10.0.15063.0\UM\X64\ODBC32.LIB
C:\PROGRAM FILES (X86)\WINDOWS KITS\10\LIB\10.0.15063.0\UM\X64\ODBCCP32.LIB
F:\FANSHAWE\TERM 2\ARTIFICIAL INTELLIGENCE\PROJECT2\PROJECT2\LIB\RELEASE64\ASSIMP-VC140-MT.LIB
F:\FANSHAWE\TERM 2\ARTIFICIAL INTELLIGENCE\PROJECT2\PROJECT2\LIB\RELEASE64\GLFW3_64.LIB
F:\FANSHAWE\TERM 2\ARTIFICIAL INTELLIGENCE\PROJECT2\PROJECT2\X64\RELEASE\CAIGAMEOBJECT.OBJ
F:\FANSHAWE\TERM 2\ARTIFICIAL INTELLIGENCE\PROJECT2\PROJECT2\X64\RELEASE\CCAMERA.OBJ
F:\FANSHAWE\TERM 2\ARTIFICIAL INTELLIGENCE\PROJECT2\PROJECT2\X64\RELEASE\CGAMEOBJECT.OBJ
F:\FANSHAWE\TERM 2\ARTIFICIAL INTELLIGENCE\PROJECT2\PROJECT2\X64\RELEASE\CMAP.OBJ
F:\FANSHAWE\TERM 2\ARTIFICIAL INTELLIGENCE\PROJECT2\PROJECT2\X64\RELEASE\CMAPCELL.OBJ
F:\FANSHAWE\TERM 2\ARTIFICIAL INTELLIGENCE\PROJECT2\PROJECT2\X64\RELEASE\CMAPLOADER.OBJ
F:\FANSHAWE\TERM 2\ARTIFICIAL INTELLIGENCE\PROJECT2\PROJECT2\X64\RELEASE\CMESH.OBJ
F:\FANSHAWE\TERM 2\ARTIFICIAL INTELLIGENCE\PROJECT2\PROJECT2\X64\RELEASE\CMODEL.OBJ
F:\FANSHAWE\TERM 2\ARTIFICIAL INTELLIGENCE\PROJECT2\PROJECT2\X64\RELEASE\CPATH.OBJ
F:\FANSHAWE\TERM 2\ARTIFICIAL INTELLIGENCE\PROJECT2\PROJECT2\X64\RELEASE\CPLAYERGAMEOBJECT.OBJ
F:\FANSHAWE\TERM 2\ARTIFICIAL INTELLIGENCE\PROJECT2\PROJECT2\X64\RELEASE\CSHADER.OBJ
F:\FANSHAWE\TERM 2\ARTIFICIAL INTELLIGENCE\PROJECT2\PROJECT2\X64\RELEASE\CSHADERMANAGER.OBJ
F:\FANSHAWE\TERM 2\ARTIFICIAL INTELLIGENCE\PROJECT2\PROJECT2\X64\RELEASE\GLAD.OBJ
F:\FANSHAWE\TERM 2\ARTIFICIAL INTELLIGENCE\PROJECT2\PROJECT2\X64\RELEASE\PHYSICS.OBJ
F:\FANSHAWE\TERM 2\ARTIFICIAL INTELLIGENCE\PROJECT2\PROJECT2\X64\RELEASE\STB_IMAGE.OBJ
F:\FANSHAWE\TERM 2\ARTIFICIAL INTELLIGENCE\PROJECT2\PROJECT2\X64\RELEASE\MAIN.OBJ
F:\FANSHAWE\TERM 2\ARTIFICIAL INTELLIGENCE\PROJECT2\PROJECT2\X64\RELEASE\UTILITIES.OBJ
C:\PROGRAM FILES (X86)\MICROSOFT VISUAL STUDIO\2017\ENTERPRISE\VC\TOOLS\MSVC\14.11.25503\BIN\HOSTX86\X64\C2.DLL
C:\PROGRAM FILES (X86)\MICROSOFT VISUAL STUDIO\2017\ENTERPRISE\VC\TOOLS\MSVC\14.11.25503\LIB\X64\MSVCPRT.LIB
C:\PROGRAM FILES (X86)\MICROSOFT VISUAL STUDIO\2017\ENTERPRISE\VC\TOOLS\MSVC\14.11.25503\LIB\X64\MSVCRT.LIB
C:\PROGRAM FILES (X86)\MICROSOFT VISUAL STUDIO\2017\ENTERPRISE\VC\TOOLS\MSVC\14.11.25503\LIB\X64\OLDNAMES.LIB
C:\PROGRAM FILES (X86)\MICROSOFT VISUAL STUDIO\2017\ENTERPRISE\VC\TOOLS\MSVC\14.11.25503\LIB\X64\LIBCMT.LIB
C:\PROGRAM FILES (X86)\MICROSOFT VISUAL STUDIO\2017\ENTERPRISE\VC\TOOLS\MSVC\14.11.25503\LIB\X64\VCRUNTIME.LIB
C:\PROGRAM FILES (X86)\WINDOWS KITS\10\LIB\10.0.15063.0\UCRT\X64\UCRT.LIB
C:\PROGRAM FILES (X86)\MICROSOFT VISUAL STUDIO\2017\ENTERPRISE\VC\TOOLS\MSVC\14.11.25503\BIN\HOSTX86\X64\1033\LINKUI.DLL
C:\PROGRAM FILES (X86)\WINDOWS KITS\10\BIN\10.0.15063.0\X86\RC.EXE
C:\PROGRAM FILES (X86)\MICROSOFT VISUAL STUDIO\2017\ENTERPRISE\VC\TOOLS\MSVC\14.11.25503\BIN\HOSTX86\X86\CVTRES.EXE
C:\WINDOWS\SYSTEM32\TZRES.DLL
C:\PROGRAM FILES (X86)\MICROSOFT VISUAL STUDIO\2017\ENTERPRISE\VC\TOOLS\MSVC\14.11.25503\BIN\HOSTX86\X64\VCTIP.EXE
