^F:\FANSHAWE\TERM 2\ANIMATION\AKASHMEHTAMIDTERM\QUESTION123\X64\DEBUG\AABB_TRIANGLES.OBJ|F:\FANSHAWE\TERM 2\ANIMATION\AKASHMEHTAMIDTERM\QUESTION123\X64\DEBUG\C24BITBMPPIXEL.OBJ|F:\FANSHAWE\TERM 2\ANIMATION\AKASHMEHTAMIDTERM\QUESTION123\X64\DEBUG\CAABBBROADPHASE.OBJ|F:\FANSHAWE\TERM 2\ANIMATION\AKASHMEHTAMIDTERM\QUESTION123\X64\DEBUG\CAABBV2.OBJ|F:\FANSHAWE\TERM 2\ANIMATION\AKASHMEHTAMIDTERM\QUESTION123\X64\DEBUG\CANIMATIONSTATE.OBJ|F:\FANSHAWE\TERM 2\ANIMATION\AKASHMEHTAMIDTERM\QUESTION123\X64\DEBUG\CASSIMPBASIC.OBJ|F:\FANSHAWE\TERM 2\ANIMATION\AKASHMEHTAMIDTERM\QUESTION123\X64\DEBUG\CASSIMPBASIC_IMP.OBJ|F:\FANSHAWE\TERM 2\ANIMATION\AKASHMEHTAMIDTERM\QUESTION123\X64\DEBUG\CCAMERA.OBJ|F:\FANSHAWE\TERM 2\ANIMATION\AKASHMEHTAMIDTERM\QUESTION123\X64\DEBUG\CCAMERA_FLYLOOKAT.OBJ|F:\FANSHAWE\TERM 2\ANIMATION\AKASHMEHTAMIDTERM\QUESTION123\X64\DEBUG\CCAMERA_FOLLOW.OBJ|F:\FANSHAWE\TERM 2\ANIMATION\AKASHMEHTAMIDTERM\QUESTION123\X64\DEBUG\CCAMERA_MANUAL.OBJ|F:\FANSHAWE\TERM 2\ANIMATION\AKASHMEHTAMIDTERM\QUESTION123\X64\DEBUG\CDEBUGRENDERER.OBJ|F:\FANSHAWE\TERM 2\ANIMATION\AKASHMEHTAMIDTERM\QUESTION123\X64\DEBUG\CDEBUGRENDERER_BUILTINSHAPES.OBJ|F:\FANSHAWE\TERM 2\ANIMATION\AKASHMEHTAMIDTERM\QUESTION123\X64\DEBUG\CERRORLOG.OBJ|F:\FANSHAWE\TERM 2\ANIMATION\AKASHMEHTAMIDTERM\QUESTION123\X64\DEBUG\CFBO.OBJ|F:\FANSHAWE\TERM 2\ANIMATION\AKASHMEHTAMIDTERM\QUESTION123\X64\DEBUG\CGAMEOBJECT.OBJ|F:\FANSHAWE\TERM 2\ANIMATION\AKASHMEHTAMIDTERM\QUESTION123\X64\DEBUG\CHRTIMER.OBJ|F:\FANSHAWE\TERM 2\ANIMATION\AKASHMEHTAMIDTERM\QUESTION123\X64\DEBUG\CLIGHTMANAGER.OBJ|F:\FANSHAWE\TERM 2\ANIMATION\AKASHMEHTAMIDTERM\QUESTION123\X64\DEBUG\CLUABRAIN.OBJ|F:\FANSHAWE\TERM 2\ANIMATION\AKASHMEHTAMIDTERM\QUESTION123\X64\DEBUG\CMATHHELPER.OBJ|F:\FANSHAWE\TERM 2\ANIMATION\AKASHMEHTAMIDTERM\QUESTION123\X64\DEBUG\CMESH.OBJ|F:\FANSHAWE\TERM 2\ANIMATION\AKASHMEHTAMIDTERM\QUESTION123\X64\DEBUG\CMODELASSETLOADER.OBJ|F:\FANSHAWE\TERM 2\ANIMATION\AKASHMEHTAMIDTERM\QUESTION123\X64\DEBUG\CNVPAIR.OBJ|F:\FANSHAWE\TERM 2\ANIMATION\AKASHMEHTAMIDTERM\QUESTION123\X64\DEBUG\COPENGLERROR.OBJ|F:\FANSHAWE\TERM 2\ANIMATION\AKASHMEHTAMIDTERM\QUESTION123\X64\DEBUG\CPERSIST.OBJ|F:\FANSHAWE\TERM 2\ANIMATION\AKASHMEHTAMIDTERM\QUESTION123\X64\DEBUG\CPERSISTIMPFACTORY.OBJ|F:\FANSHAWE\TERM 2\ANIMATION\AKASHMEHTAMIDTERM\QUESTION123\X64\DEBUG\CPERSISTIMPRNRJSON.OBJ|F:\FANSHAWE\TERM 2\ANIMATION\AKASHMEHTAMIDTERM\QUESTION123\X64\DEBUG\CPERSISTIMPSQLITEGDPADAPTER.OBJ|F:\FANSHAWE\TERM 2\ANIMATION\AKASHMEHTAMIDTERM\QUESTION123\X64\DEBUG\CPHYSICALPROPERTIES.OBJ|F:\FANSHAWE\TERM 2\ANIMATION\AKASHMEHTAMIDTERM\QUESTION123\X64\DEBUG\CPHYSICSWORLD.OBJ|F:\FANSHAWE\TERM 2\ANIMATION\AKASHMEHTAMIDTERM\QUESTION123\X64\DEBUG\CPLYFILE5NT.OBJ|F:\FANSHAWE\TERM 2\ANIMATION\AKASHMEHTAMIDTERM\QUESTION123\X64\DEBUG\CPLYFILE5NT_EXPERIMENTAL.OBJ|F:\FANSHAWE\TERM 2\ANIMATION\AKASHMEHTAMIDTERM\QUESTION123\X64\DEBUG\CSHADER.OBJ|F:\FANSHAWE\TERM 2\ANIMATION\AKASHMEHTAMIDTERM\QUESTION123\X64\DEBUG\CSHADERMANAGER.OBJ|F:\FANSHAWE\TERM 2\ANIMATION\AKASHMEHTAMIDTERM\QUESTION123\X64\DEBUG\CSIMPLEASSIMPSKINNEDMESHLOADER_ONEMESH.OBJ|F:\FANSHAWE\TERM 2\ANIMATION\AKASHMEHTAMIDTERM\QUESTION123\X64\DEBUG\CSTRINGHELPER.OBJ|F:\FANSHAWE\TERM 2\ANIMATION\AKASHMEHTAMIDTERM\QUESTION123\X64\DEBUG\CSTRINGUTILS.OBJ|F:\FANSHAWE\TERM 2\ANIMATION\AKASHMEHTAMIDTERM\QUESTION123\X64\DEBUG\CTEXTUREFROMBMP.OBJ|F:\FANSHAWE\TERM 2\ANIMATION\AKASHMEHTAMIDTERM\QUESTION123\X64\DEBUG\CTEXTUREMANAGER.OBJ|F:\FANSHAWE\TERM 2\ANIMATION\AKASHMEHTAMIDTERM\QUESTION123\X64\DEBUG\CTRIANGLE.OBJ|F:\FANSHAWE\TERM 2\ANIMATION\AKASHMEHTAMIDTERM\QUESTION123\X64\DEBUG\CVAOMESHMANAGER.OBJ|F:\FANSHAWE\TERM 2\ANIMATION\AKASHMEHTAMIDTERM\QUESTION123\X64\DEBUG\CVECTOR3F.OBJ|F:\FANSHAWE\TERM 2\ANIMATION\AKASHMEHTAMIDTERM\QUESTION123\X64\DEBUG\GLAD.OBJ|F:\FANSHAWE\TERM 2\ANIMATION\AKASHMEHTAMIDTERM\QUESTION123\X64\DEBUG\GLFW_KEYBOARDCALLBACK.OBJ|F:\FANSHAWE\TERM 2\ANIMATION\AKASHMEHTAMIDTERM\QUESTION123\X64\DEBUG\MODELUTILITIES.OBJ|F:\FANSHAWE\TERM 2\ANIMATION\AKASHMEHTAMIDTERM\QUESTION123\X64\DEBUG\RENDER_CALLS.OBJ|F:\FANSHAWE\TERM 2\ANIMATION\AKASHMEHTAMIDTERM\QUESTION123\X64\DEBUG\RNRXML.OBJ|F:\FANSHAWE\TERM 2\ANIMATION\AKASHMEHTAMIDTERM\QUESTION123\X64\DEBUG\SCENELOADER.OBJ|F:\FANSHAWE\TERM 2\ANIMATION\AKASHMEHTAMIDTERM\QUESTION123\X64\DEBUG\SMESHDRAWINFO.OBJ|F:\FANSHAWE\TERM 2\ANIMATION\AKASHMEHTAMIDTERM\QUESTION123\X64\DEBUG\THEMAIN.OBJ|F:\FANSHAWE\TERM 2\ANIMATION\AKASHMEHTAMIDTERM\QUESTION123\X64\DEBUG\UTILITIES.OBJ|F:\FANSHAWE\TERM 2\ANIMATION\AKASHMEHTAMIDTERM\QUESTION123\X64\DEBUG\WRNRXML.OBJ
F:\FANSHAWE\TERM 2\ANIMATION\AKASHMEHTAMIDTERM\X64\DEBUG\QUESTION123.EXE
F:\FANSHAWE\TERM 2\ANIMATION\AKASHMEHTAMIDTERM\X64\DEBUG\QUESTION123.ILK
F:\FANSHAWE\TERM 2\ANIMATION\AKASHMEHTAMIDTERM\X64\DEBUG\QUESTION123.PDB
^F:\FANSHAWE\PORTFOLIO\AKASHMEHTAMIDTERM\QUESTION123\X64\DEBUG\AABB_TRIANGLES.OBJ|F:\FANSHAWE\PORTFOLIO\AKASHMEHTAMIDTERM\QUESTION123\X64\DEBUG\C24BITBMPPIXEL.OBJ|F:\FANSHAWE\PORTFOLIO\AKASHMEHTAMIDTERM\QUESTION123\X64\DEBUG\CAABBBROADPHASE.OBJ|F:\FANSHAWE\PORTFOLIO\AKASHMEHTAMIDTERM\QUESTION123\X64\DEBUG\CAABBV2.OBJ|F:\FANSHAWE\PORTFOLIO\AKASHMEHTAMIDTERM\QUESTION123\X64\DEBUG\CANIMATIONSTATE.OBJ|F:\FANSHAWE\PORTFOLIO\AKASHMEHTAMIDTERM\QUESTION123\X64\DEBUG\CASSIMPBASIC.OBJ|F:\FANSHAWE\PORTFOLIO\AKASHMEHTAMIDTERM\QUESTION123\X64\DEBUG\CASSIMPBASIC_IMP.OBJ|F:\FANSHAWE\PORTFOLIO\AKASHMEHTAMIDTERM\QUESTION123\X64\DEBUG\CCAMERA.OBJ|F:\FANSHAWE\PORTFOLIO\AKASHMEHTAMIDTERM\QUESTION123\X64\DEBUG\CCAMERA_FLYLOOKAT.OBJ|F:\FANSHAWE\PORTFOLIO\AKASHMEHTAMIDTERM\QUESTION123\X64\DEBUG\CCAMERA_FOLLOW.OBJ|F:\FANSHAWE\PORTFOLIO\AKASHMEHTAMIDTERM\QUESTION123\X64\DEBUG\CCAMERA_MANUAL.OBJ|F:\FANSHAWE\PORTFOLIO\AKASHMEHTAMIDTERM\QUESTION123\X64\DEBUG\CDEBUGRENDERER.OBJ|F:\FANSHAWE\PORTFOLIO\AKASHMEHTAMIDTERM\QUESTION123\X64\DEBUG\CDEBUGRENDERER_BUILTINSHAPES.OBJ|F:\FANSHAWE\PORTFOLIO\AKASHMEHTAMIDTERM\QUESTION123\X64\DEBUG\CERRORLOG.OBJ|F:\FANSHAWE\PORTFOLIO\AKASHMEHTAMIDTERM\QUESTION123\X64\DEBUG\CFBO.OBJ|F:\FANSHAWE\PORTFOLIO\AKASHMEHTAMIDTERM\QUESTION123\X64\DEBUG\CGAMEOBJECT.OBJ|F:\FANSHAWE\PORTFOLIO\AKASHMEHTAMIDTERM\QUESTION123\X64\DEBUG\CHRTIMER.OBJ|F:\FANSHAWE\PORTFOLIO\AKASHMEHTAMIDTERM\QUESTION123\X64\DEBUG\CLIGHTMANAGER.OBJ|F:\FANSHAWE\PORTFOLIO\AKASHMEHTAMIDTERM\QUESTION123\X64\DEBUG\CLUABRAIN.OBJ|F:\FANSHAWE\PORTFOLIO\AKASHMEHTAMIDTERM\QUESTION123\X64\DEBUG\CMATHHELPER.OBJ|F:\FANSHAWE\PORTFOLIO\AKASHMEHTAMIDTERM\QUESTION123\X64\DEBUG\CMESH.OBJ|F:\FANSHAWE\PORTFOLIO\AKASHMEHTAMIDTERM\QUESTION123\X64\DEBUG\CMODELASSETLOADER.OBJ|F:\FANSHAWE\PORTFOLIO\AKASHMEHTAMIDTERM\QUESTION123\X64\DEBUG\CNVPAIR.OBJ|F:\FANSHAWE\PORTFOLIO\AKASHMEHTAMIDTERM\QUESTION123\X64\DEBUG\COPENGLERROR.OBJ|F:\FANSHAWE\PORTFOLIO\AKASHMEHTAMIDTERM\QUESTION123\X64\DEBUG\CPERSIST.OBJ|F:\FANSHAWE\PORTFOLIO\AKASHMEHTAMIDTERM\QUESTION123\X64\DEBUG\CPERSISTIMPFACTORY.OBJ|F:\FANSHAWE\PORTFOLIO\AKASHMEHTAMIDTERM\QUESTION123\X64\DEBUG\CPERSISTIMPRNRJSON.OBJ|F:\FANSHAWE\PORTFOLIO\AKASHMEHTAMIDTERM\QUESTION123\X64\DEBUG\CPERSISTIMPSQLITEGDPADAPTER.OBJ|F:\FANSHAWE\PORTFOLIO\AKASHMEHTAMIDTERM\QUESTION123\X64\DEBUG\CPHYSICALPROPERTIES.OBJ|F:\FANSHAWE\PORTFOLIO\AKASHMEHTAMIDTERM\QUESTION123\X64\DEBUG\CPHYSICSWORLD.OBJ|F:\FANSHAWE\PORTFOLIO\AKASHMEHTAMIDTERM\QUESTION123\X64\DEBUG\CPLYFILE5NT.OBJ|F:\FANSHAWE\PORTFOLIO\AKASHMEHTAMIDTERM\QUESTION123\X64\DEBUG\CPLYFILE5NT_EXPERIMENTAL.OBJ|F:\FANSHAWE\PORTFOLIO\AKASHMEHTAMIDTERM\QUESTION123\X64\DEBUG\CSHADER.OBJ|F:\FANSHAWE\PORTFOLIO\AKASHMEHTAMIDTERM\QUESTION123\X64\DEBUG\CSHADERMANAGER.OBJ|F:\FANSHAWE\PORTFOLIO\AKASHMEHTAMIDTERM\QUESTION123\X64\DEBUG\CSIMPLEASSIMPSKINNEDMESHLOADER_ONEMESH.OBJ|F:\FANSHAWE\PORTFOLIO\AKASHMEHTAMIDTERM\QUESTION123\X64\DEBUG\CSTRINGHELPER.OBJ|F:\FANSHAWE\PORTFOLIO\AKASHMEHTAMIDTERM\QUESTION123\X64\DEBUG\CSTRINGUTILS.OBJ|F:\FANSHAWE\PORTFOLIO\AKASHMEHTAMIDTERM\QUESTION123\X64\DEBUG\CTEXTUREFROMBMP.OBJ|F:\FANSHAWE\PORTFOLIO\AKASHMEHTAMIDTERM\QUESTION123\X64\DEBUG\CTEXTUREMANAGER.OBJ|F:\FANSHAWE\PORTFOLIO\AKASHMEHTAMIDTERM\QUESTION123\X64\DEBUG\CTRIANGLE.OBJ|F:\FANSHAWE\PORTFOLIO\AKASHMEHTAMIDTERM\QUESTION123\X64\DEBUG\CVAOMESHMANAGER.OBJ|F:\FANSHAWE\PORTFOLIO\AKASHMEHTAMIDTERM\QUESTION123\X64\DEBUG\CVECTOR3F.OBJ|F:\FANSHAWE\PORTFOLIO\AKASHMEHTAMIDTERM\QUESTION123\X64\DEBUG\GLAD.OBJ|F:\FANSHAWE\PORTFOLIO\AKASHMEHTAMIDTERM\QUESTION123\X64\DEBUG\GLFW_KEYBOARDCALLBACK.OBJ|F:\FANSHAWE\PORTFOLIO\AKASHMEHTAMIDTERM\QUESTION123\X64\DEBUG\MODELUTILITIES.OBJ|F:\FANSHAWE\PORTFOLIO\AKASHMEHTAMIDTERM\QUESTION123\X64\DEBUG\RENDER_CALLS.OBJ|F:\FANSHAWE\PORTFOLIO\AKASHMEHTAMIDTERM\QUESTION123\X64\DEBUG\RNRXML.OBJ|F:\FANSHAWE\PORTFOLIO\AKASHMEHTAMIDTERM\QUESTION123\X64\DEBUG\SCENELOADER.OBJ|F:\FANSHAWE\PORTFOLIO\AKASHMEHTAMIDTERM\QUESTION123\X64\DEBUG\SMESHDRAWINFO.OBJ|F:\FANSHAWE\PORTFOLIO\AKASHMEHTAMIDTERM\QUESTION123\X64\DEBUG\THEMAIN.OBJ|F:\FANSHAWE\PORTFOLIO\AKASHMEHTAMIDTERM\QUESTION123\X64\DEBUG\UTILITIES.OBJ|F:\FANSHAWE\PORTFOLIO\AKASHMEHTAMIDTERM\QUESTION123\X64\DEBUG\WRNRXML.OBJ
F:\FANSHAWE\PORTFOLIO\AKASHMEHTAMIDTERM\X64\DEBUG\QUESTION123.EXE
F:\FANSHAWE\PORTFOLIO\AKASHMEHTAMIDTERM\X64\DEBUG\QUESTION123.ILK
F:\FANSHAWE\PORTFOLIO\AKASHMEHTAMIDTERM\X64\DEBUG\QUESTION123.PDB
