^F:\Fanshawe\Term 2\Animation\AkashMehtaMidterm\Question123\Question123.vcxproj
F:\Fanshawe\Term 2\Animation\AkashMehtaMidterm\x64\Debug\Question123.lib
F:\Fanshawe\Term 2\Animation\AkashMehtaMidterm\x64\Debug\Question123.exp
^F:\Fanshawe\Term 2\Animation\AkashMehtaMidterm\Question123\Question123.vcxproj
F:\Fanshawe\Term 2\Animation\AkashMehtaMidterm\x64\Debug\Question123.lib
F:\Fanshawe\Term 2\Animation\AkashMehtaMidterm\x64\Debug\Question123.exp
^F:\Fanshawe\Portfolio\AkashMehtaMidterm\Question123\Question123.vcxproj
F:\Fanshawe\Portfolio\AkashMehtaMidterm\x64\Debug\Question123.lib
F:\Fanshawe\Portfolio\AkashMehtaMidterm\x64\Debug\Question123.exp
