^F:\FANSHAWE\TERM 2\PHYSICS\PROJECT1\CCAMERA.CPP
F:\FANSHAWE\TERM 2\PHYSICS\PROJECT1\X64\DEBUG\VC141.PDB
^F:\FANSHAWE\TERM 2\PHYSICS\PROJECT1\CSHADER.CPP
F:\FANSHAWE\TERM 2\PHYSICS\PROJECT1\X64\DEBUG\VC141.PDB
^F:\FANSHAWE\TERM 2\PHYSICS\PROJECT1\CSHADERMANAGER.CPP
F:\FANSHAWE\TERM 2\PHYSICS\PROJECT1\X64\DEBUG\VC141.PDB
^F:\FANSHAWE\TERM 2\PHYSICS\PROJECT1\STB_IMAGE.CPP
F:\FANSHAWE\TERM 2\PHYSICS\PROJECT1\X64\DEBUG\VC141.PDB
^F:\FANSHAWE\TERM 2\PHYSICS\PROJECT1\UTILITIES.CPP
F:\FANSHAWE\TERM 2\PHYSICS\PROJECT1\X64\DEBUG\VC141.PDB
^F:\FANSHAWE\TERM 2\PROJECT1\PROJECT1\CCAMERA.CPP|F:\FANSHAWE\TERM 2\PROJECT1\PROJECT1\CGAMEOBJECT.CPP|F:\FANSHAWE\TERM 2\PROJECT1\PROJECT1\CMESH.CPP|F:\FANSHAWE\TERM 2\PROJECT1\PROJECT1\CMODEL.CPP|F:\FANSHAWE\TERM 2\PROJECT1\PROJECT1\CSHADER.CPP|F:\FANSHAWE\TERM 2\PROJECT1\PROJECT1\CSHADERMANAGER.CPP|F:\FANSHAWE\TERM 2\PROJECT1\PROJECT1\MAIN.CPP|F:\FANSHAWE\TERM 2\PROJECT1\PROJECT1\PHYSICS.CPP|F:\FANSHAWE\TERM 2\PROJECT1\PROJECT1\STB_IMAGE.CPP|F:\FANSHAWE\TERM 2\PROJECT1\PROJECT1\UTILITIES.CPP
F:\FANSHAWE\TERM 2\PROJECT1\PROJECT1\X64\DEBUG\VC141.PDB
F:\FANSHAWE\TERM 2\PROJECT1\PROJECT1\X64\DEBUG\VC141.IDB
F:\FANSHAWE\TERM 2\PROJECT1\PROJECT1\X64\DEBUG\CCAMERA.OBJ
F:\FANSHAWE\TERM 2\PROJECT1\PROJECT1\X64\DEBUG\CGAMEOBJECT.OBJ
F:\FANSHAWE\TERM 2\PROJECT1\PROJECT1\X64\DEBUG\CMESH.OBJ
F:\FANSHAWE\TERM 2\PROJECT1\PROJECT1\X64\DEBUG\CMODEL.OBJ
F:\FANSHAWE\TERM 2\PROJECT1\PROJECT1\X64\DEBUG\CSHADER.OBJ
F:\FANSHAWE\TERM 2\PROJECT1\PROJECT1\X64\DEBUG\CSHADERMANAGER.OBJ
F:\FANSHAWE\TERM 2\PROJECT1\PROJECT1\X64\DEBUG\PHYSICS.OBJ
F:\FANSHAWE\TERM 2\PROJECT1\PROJECT1\X64\DEBUG\STB_IMAGE.OBJ
F:\FANSHAWE\TERM 2\PROJECT1\PROJECT1\X64\DEBUG\MAIN.OBJ
F:\FANSHAWE\TERM 2\PROJECT1\PROJECT1\X64\DEBUG\UTILITIES.OBJ
^F:\FANSHAWE\TERM 2\PROJECT1\PROJECT1\CCAMERA.CPP
F:\FANSHAWE\TERM 2\PROJECT1\PROJECT1\X64\DEBUG\VC141.PDB
^F:\FANSHAWE\TERM 2\PROJECT1\PROJECT1\CGAMEOBJECT.CPP
F:\FANSHAWE\TERM 2\PROJECT1\PROJECT1\X64\DEBUG\VC141.PDB
^F:\FANSHAWE\TERM 2\PROJECT1\PROJECT1\CMESH.CPP
F:\FANSHAWE\TERM 2\PROJECT1\PROJECT1\X64\DEBUG\VC141.PDB
^F:\FANSHAWE\TERM 2\PROJECT1\PROJECT1\CMODEL.CPP
F:\FANSHAWE\TERM 2\PROJECT1\PROJECT1\X64\DEBUG\VC141.PDB
^F:\FANSHAWE\TERM 2\PROJECT1\PROJECT1\CSHADER.CPP
F:\FANSHAWE\TERM 2\PROJECT1\PROJECT1\X64\DEBUG\VC141.PDB
^F:\FANSHAWE\TERM 2\PROJECT1\PROJECT1\CSHADERMANAGER.CPP
F:\FANSHAWE\TERM 2\PROJECT1\PROJECT1\X64\DEBUG\VC141.PDB
^F:\FANSHAWE\TERM 2\PROJECT1\PROJECT1\PHYSICS.CPP
F:\FANSHAWE\TERM 2\PROJECT1\PROJECT1\X64\DEBUG\VC141.PDB
^F:\FANSHAWE\TERM 2\PROJECT1\PROJECT1\STB_IMAGE.CPP
F:\FANSHAWE\TERM 2\PROJECT1\PROJECT1\X64\DEBUG\VC141.PDB
^F:\FANSHAWE\TERM 2\PROJECT1\PROJECT1\MAIN.CPP
F:\FANSHAWE\TERM 2\PROJECT1\PROJECT1\X64\DEBUG\VC141.PDB
^F:\FANSHAWE\TERM 2\PROJECT1\PROJECT1\UTILITIES.CPP
F:\FANSHAWE\TERM 2\PROJECT1\PROJECT1\X64\DEBUG\VC141.PDB
^F:\FANSHAWE\TERM 2\PROJECT1\PROJECT1\GLAD.C
F:\FANSHAWE\TERM 2\PROJECT1\PROJECT1\X64\DEBUG\VC141.PDB
F:\FANSHAWE\TERM 2\PROJECT1\PROJECT1\X64\DEBUG\VC141.IDB
F:\FANSHAWE\TERM 2\PROJECT1\PROJECT1\X64\DEBUG\GLAD.OBJ
^F:\FANSHAWE\TERM 2\PHYSICS\PROJECT1\PROJECT1\CCAMERA.CPP|F:\FANSHAWE\TERM 2\PHYSICS\PROJECT1\PROJECT1\CGAMEOBJECT.CPP|F:\FANSHAWE\TERM 2\PHYSICS\PROJECT1\PROJECT1\CMESH.CPP|F:\FANSHAWE\TERM 2\PHYSICS\PROJECT1\PROJECT1\CMODEL.CPP|F:\FANSHAWE\TERM 2\PHYSICS\PROJECT1\PROJECT1\CSHADER.CPP|F:\FANSHAWE\TERM 2\PHYSICS\PROJECT1\PROJECT1\CSHADERMANAGER.CPP|F:\FANSHAWE\TERM 2\PHYSICS\PROJECT1\PROJECT1\MAIN.CPP|F:\FANSHAWE\TERM 2\PHYSICS\PROJECT1\PROJECT1\PHYSICS.CPP|F:\FANSHAWE\TERM 2\PHYSICS\PROJECT1\PROJECT1\STB_IMAGE.CPP|F:\FANSHAWE\TERM 2\PHYSICS\PROJECT1\PROJECT1\UTILITIES.CPP
F:\FANSHAWE\TERM 2\PHYSICS\PROJECT1\PROJECT1\X64\DEBUG\VC141.PDB
F:\FANSHAWE\TERM 2\PHYSICS\PROJECT1\PROJECT1\X64\DEBUG\VC141.IDB
F:\FANSHAWE\TERM 2\PHYSICS\PROJECT1\PROJECT1\X64\DEBUG\CCAMERA.OBJ
F:\FANSHAWE\TERM 2\PHYSICS\PROJECT1\PROJECT1\X64\DEBUG\CGAMEOBJECT.OBJ
F:\FANSHAWE\TERM 2\PHYSICS\PROJECT1\PROJECT1\X64\DEBUG\CMESH.OBJ
F:\FANSHAWE\TERM 2\PHYSICS\PROJECT1\PROJECT1\X64\DEBUG\CMODEL.OBJ
F:\FANSHAWE\TERM 2\PHYSICS\PROJECT1\PROJECT1\X64\DEBUG\CSHADER.OBJ
F:\FANSHAWE\TERM 2\PHYSICS\PROJECT1\PROJECT1\X64\DEBUG\CSHADERMANAGER.OBJ
F:\FANSHAWE\TERM 2\PHYSICS\PROJECT1\PROJECT1\X64\DEBUG\PHYSICS.OBJ
F:\FANSHAWE\TERM 2\PHYSICS\PROJECT1\PROJECT1\X64\DEBUG\STB_IMAGE.OBJ
F:\FANSHAWE\TERM 2\PHYSICS\PROJECT1\PROJECT1\X64\DEBUG\MAIN.OBJ
F:\FANSHAWE\TERM 2\PHYSICS\PROJECT1\PROJECT1\X64\DEBUG\UTILITIES.OBJ
^F:\FANSHAWE\TERM 2\PHYSICS\PROJECT1\PROJECT1\CCAMERA.CPP
F:\FANSHAWE\TERM 2\PHYSICS\PROJECT1\PROJECT1\X64\DEBUG\VC141.PDB
^F:\FANSHAWE\TERM 2\PHYSICS\PROJECT1\PROJECT1\CGAMEOBJECT.CPP
F:\FANSHAWE\TERM 2\PHYSICS\PROJECT1\PROJECT1\X64\DEBUG\VC141.PDB
^F:\FANSHAWE\TERM 2\PHYSICS\PROJECT1\PROJECT1\CMESH.CPP
F:\FANSHAWE\TERM 2\PHYSICS\PROJECT1\PROJECT1\X64\DEBUG\VC141.PDB
^F:\FANSHAWE\TERM 2\PHYSICS\PROJECT1\PROJECT1\CMODEL.CPP
F:\FANSHAWE\TERM 2\PHYSICS\PROJECT1\PROJECT1\X64\DEBUG\VC141.PDB
^F:\FANSHAWE\TERM 2\PHYSICS\PROJECT1\PROJECT1\CSHADER.CPP
F:\FANSHAWE\TERM 2\PHYSICS\PROJECT1\PROJECT1\X64\DEBUG\VC141.PDB
^F:\FANSHAWE\TERM 2\PHYSICS\PROJECT1\PROJECT1\CSHADERMANAGER.CPP
F:\FANSHAWE\TERM 2\PHYSICS\PROJECT1\PROJECT1\X64\DEBUG\VC141.PDB
^F:\FANSHAWE\TERM 2\PHYSICS\PROJECT1\PROJECT1\PHYSICS.CPP
F:\FANSHAWE\TERM 2\PHYSICS\PROJECT1\PROJECT1\X64\DEBUG\VC141.PDB
^F:\FANSHAWE\TERM 2\PHYSICS\PROJECT1\PROJECT1\STB_IMAGE.CPP
F:\FANSHAWE\TERM 2\PHYSICS\PROJECT1\PROJECT1\X64\DEBUG\VC141.PDB
^F:\FANSHAWE\TERM 2\PHYSICS\PROJECT1\PROJECT1\MAIN.CPP
F:\FANSHAWE\TERM 2\PHYSICS\PROJECT1\PROJECT1\X64\DEBUG\VC141.PDB
^F:\FANSHAWE\TERM 2\PHYSICS\PROJECT1\PROJECT1\UTILITIES.CPP
F:\FANSHAWE\TERM 2\PHYSICS\PROJECT1\PROJECT1\X64\DEBUG\VC141.PDB
^F:\FANSHAWE\TERM 2\PHYSICS\PROJECT1\PROJECT1\GLAD.C
F:\FANSHAWE\TERM 2\PHYSICS\PROJECT1\PROJECT1\X64\DEBUG\VC141.PDB
F:\FANSHAWE\TERM 2\PHYSICS\PROJECT1\PROJECT1\X64\DEBUG\VC141.IDB
F:\FANSHAWE\TERM 2\PHYSICS\PROJECT1\PROJECT1\X64\DEBUG\GLAD.OBJ
