^F:\PROJECTS\OPENGL TUTS\11-ASSIMP(MOUSE, CAMCLASS)\ASSIMPMAIN.CPP|F:\PROJECTS\OPENGL TUTS\11-ASSIMP(MOUSE, CAMCLASS)\CCAMERA.CPP|F:\PROJECTS\OPENGL TUTS\11-ASSIMP(MOUSE, CAMCLASS)\CMESH.CPP|F:\PROJECTS\OPENGL TUTS\11-ASSIMP(MOUSE, CAMCLASS)\CMODEL.CPP|F:\PROJECTS\OPENGL TUTS\11-ASSIMP(MOUSE, CAMCLASS)\CSHADER.CPP|F:\PROJECTS\OPENGL TUTS\11-ASSIMP(MOUSE, CAMCLASS)\CSHADERMANAGER.CPP|F:\PROJECTS\OPENGL TUTS\11-ASSIMP(MOUSE, CAMCLASS)\STB_IMAGE.CPP
F:\PROJECTS\OPENGL TUTS\11-ASSIMP(MOUSE, CAMCLASS)\X64\DEBUG\VC141.PDB
F:\PROJECTS\OPENGL TUTS\11-ASSIMP(MOUSE, CAMCLASS)\X64\DEBUG\VC141.IDB
F:\PROJECTS\OPENGL TUTS\11-ASSIMP(MOUSE, CAMCLASS)\X64\DEBUG\CCAMERA.OBJ
F:\PROJECTS\OPENGL TUTS\11-ASSIMP(MOUSE, CAMCLASS)\X64\DEBUG\CMESH.OBJ
F:\PROJECTS\OPENGL TUTS\11-ASSIMP(MOUSE, CAMCLASS)\X64\DEBUG\CMODEL.OBJ
F:\PROJECTS\OPENGL TUTS\11-ASSIMP(MOUSE, CAMCLASS)\X64\DEBUG\CSHADER.OBJ
F:\PROJECTS\OPENGL TUTS\11-ASSIMP(MOUSE, CAMCLASS)\X64\DEBUG\CSHADERMANAGER.OBJ
F:\PROJECTS\OPENGL TUTS\11-ASSIMP(MOUSE, CAMCLASS)\X64\DEBUG\STB_IMAGE.OBJ
F:\PROJECTS\OPENGL TUTS\11-ASSIMP(MOUSE, CAMCLASS)\X64\DEBUG\ASSIMPMAIN.OBJ
^F:\PROJECTS\OPENGL TUTS\11-ASSIMP(MOUSE, CAMCLASS)\CCAMERA.CPP
F:\PROJECTS\OPENGL TUTS\11-ASSIMP(MOUSE, CAMCLASS)\X64\DEBUG\VC141.PDB
^F:\PROJECTS\OPENGL TUTS\11-ASSIMP(MOUSE, CAMCLASS)\CMESH.CPP
F:\PROJECTS\OPENGL TUTS\11-ASSIMP(MOUSE, CAMCLASS)\X64\DEBUG\VC141.PDB
^F:\PROJECTS\OPENGL TUTS\11-ASSIMP(MOUSE, CAMCLASS)\CMODEL.CPP
F:\PROJECTS\OPENGL TUTS\11-ASSIMP(MOUSE, CAMCLASS)\X64\DEBUG\VC141.PDB
^F:\PROJECTS\OPENGL TUTS\11-ASSIMP(MOUSE, CAMCLASS)\CSHADER.CPP
F:\PROJECTS\OPENGL TUTS\11-ASSIMP(MOUSE, CAMCLASS)\X64\DEBUG\VC141.PDB
^F:\PROJECTS\OPENGL TUTS\11-ASSIMP(MOUSE, CAMCLASS)\CSHADERMANAGER.CPP
F:\PROJECTS\OPENGL TUTS\11-ASSIMP(MOUSE, CAMCLASS)\X64\DEBUG\VC141.PDB
^F:\PROJECTS\OPENGL TUTS\11-ASSIMP(MOUSE, CAMCLASS)\STB_IMAGE.CPP
F:\PROJECTS\OPENGL TUTS\11-ASSIMP(MOUSE, CAMCLASS)\X64\DEBUG\VC141.PDB
^F:\PROJECTS\OPENGL TUTS\11-ASSIMP(MOUSE, CAMCLASS)\ASSIMPMAIN.CPP
F:\PROJECTS\OPENGL TUTS\11-ASSIMP(MOUSE, CAMCLASS)\X64\DEBUG\VC141.PDB
F:\PROJECTS\OPENGL TUTS\11-ASSIMP(MOUSE, CAMCLASS)\X64\DEBUG\VC141.IDB
F:\PROJECTS\OPENGL TUTS\11-ASSIMP(MOUSE, CAMCLASS)\X64\DEBUG\ASSIMPMAIN.OBJ
^F:\PROJECTS\OPENGL TUTS\11-ASSIMP(MOUSE, CAMCLASS)\GLAD.C
F:\PROJECTS\OPENGL TUTS\11-ASSIMP(MOUSE, CAMCLASS)\X64\DEBUG\VC141.PDB
F:\PROJECTS\OPENGL TUTS\11-ASSIMP(MOUSE, CAMCLASS)\X64\DEBUG\VC141.IDB
F:\PROJECTS\OPENGL TUTS\11-ASSIMP(MOUSE, CAMCLASS)\X64\DEBUG\GLAD.OBJ
^F:\PROJECTS\OPENGL TUTS\11-ASSIMP(MOUSE, CAMCLASS)\ASSIMPMAIN.CPP|F:\PROJECTS\OPENGL TUTS\11-ASSIMP(MOUSE, CAMCLASS)\CMESH.CPP|F:\PROJECTS\OPENGL TUTS\11-ASSIMP(MOUSE, CAMCLASS)\CMODEL.CPP
F:\PROJECTS\OPENGL TUTS\11-ASSIMP(MOUSE, CAMCLASS)\X64\DEBUG\VC141.PDB
F:\PROJECTS\OPENGL TUTS\11-ASSIMP(MOUSE, CAMCLASS)\X64\DEBUG\VC141.IDB
F:\PROJECTS\OPENGL TUTS\11-ASSIMP(MOUSE, CAMCLASS)\X64\DEBUG\CMESH.OBJ
F:\PROJECTS\OPENGL TUTS\11-ASSIMP(MOUSE, CAMCLASS)\X64\DEBUG\CMODEL.OBJ
^F:\PROJECTS\OPENGL TUTS\11-ASSIMP(MOUSE, CAMCLASS)\ASSIMPMAIN.CPP|F:\PROJECTS\OPENGL TUTS\11-ASSIMP(MOUSE, CAMCLASS)\CCAMERA.CPP
F:\PROJECTS\OPENGL TUTS\11-ASSIMP(MOUSE, CAMCLASS)\X64\DEBUG\VC141.PDB
F:\PROJECTS\OPENGL TUTS\11-ASSIMP(MOUSE, CAMCLASS)\X64\DEBUG\VC141.IDB
F:\PROJECTS\OPENGL TUTS\11-ASSIMP(MOUSE, CAMCLASS)\X64\DEBUG\ASSIMPMAIN.OBJ
F:\PROJECTS\OPENGL TUTS\11-ASSIMP(MOUSE, CAMCLASS)\X64\DEBUG\CCAMERA.OBJ
