^F:\FANSHAWE\TERM 2\PHYSICS\PROJECT1\PHYSICS\X64\DEBUG\CPHYSICSFACTORY.OBJ|F:\FANSHAWE\TERM 2\PHYSICS\PROJECT1\PHYSICS\X64\DEBUG\CPHYSICSWORLD.OBJ|F:\FANSHAWE\TERM 2\PHYSICS\PROJECT1\PHYSICS\X64\DEBUG\CPLANESHAPE.OBJ|F:\FANSHAWE\TERM 2\PHYSICS\PROJECT1\PHYSICS\X64\DEBUG\CRIGIDBODY.OBJ|F:\FANSHAWE\TERM 2\PHYSICS\PROJECT1\PHYSICS\X64\DEBUG\CRK4.OBJ|F:\FANSHAWE\TERM 2\PHYSICS\PROJECT1\PHYSICS\X64\DEBUG\CSPHERESHAPE.OBJ
C:\WINDOWS\GLOBALIZATION\SORTING\SORTDEFAULT.NLS
F:\FANSHAWE\TERM 2\PHYSICS\PROJECT1\PHYSICS\X64\DEBUG\CPHYSICSFACTORY.OBJ
C:\WINDOWS\SYSTEM32\TZRES.DLL
F:\FANSHAWE\TERM 2\PHYSICS\PROJECT1\PHYSICS\X64\DEBUG\CPHYSICSWORLD.OBJ
F:\FANSHAWE\TERM 2\PHYSICS\PROJECT1\PHYSICS\X64\DEBUG\CPLANESHAPE.OBJ
F:\FANSHAWE\TERM 2\PHYSICS\PROJECT1\PHYSICS\X64\DEBUG\CRIGIDBODY.OBJ
F:\FANSHAWE\TERM 2\PHYSICS\PROJECT1\PHYSICS\X64\DEBUG\CRK4.OBJ
F:\FANSHAWE\TERM 2\PHYSICS\PROJECT1\PHYSICS\X64\DEBUG\CSPHERESHAPE.OBJ
