^F:\FANSHAWE\TERM 2\ANIMATION\ANIMATION1\PERSIST_SQLITEGDPINTERFACE\X64\DEBUG\CPERSISTSQLITE.OBJ|F:\FANSHAWE\TERM 2\ANIMATION\ANIMATION1\PERSIST_SQLITEGDPINTERFACE\X64\DEBUG\SQLITE3.OBJ
/OUT:"F:\FANSHAWE\TERM 2\ANIMATION\ANIMATION1\X64\DEBUG\PERSIST_SQLITEGDPINTERFACE.LIB" /NOLOGO /MACHINE:X64 X64\DEBUG\CPERSISTSQLITE.OBJX64\DEBUG\SQLITE3.OBJ
^F:\FANSHAWE\TERM 2\ANIMATION\AKASHMEHTAMIDTERM\PERSIST_SQLITEGDPINTERFACE\X64\DEBUG\CPERSISTSQLITE.OBJ|F:\FANSHAWE\TERM 2\ANIMATION\AKASHMEHTAMIDTERM\PERSIST_SQLITEGDPINTERFACE\X64\DEBUG\SQLITE3.OBJ
/OUT:"F:\FANSHAWE\TERM 2\ANIMATION\AKASHMEHTAMIDTERM\X64\DEBUG\PERSIST_SQLITEGDPINTERFACE.LIB" /NOLOGO /MACHINE:X64 X64\DEBUG\CPERSISTSQLITE.OBJX64\DEBUG\SQLITE3.OBJ
