^F:\FANSHAWE\NETWORK-PROGRAMMING\NETWORKPROJECT3\AUTHSERVER\AUTHMAIN.CPP
/c /ZI /nologo /W3 /WX- /diagnostics:classic /sdl /Od /Oy- /D _MBCS /Gm /EHsc /RTC1 /MTd /GS /fp:precise /Zc:wchar_t /Zc:forScope /Zc:inline /Fo"DEBUG\\" /Fd"DEBUG\VC141.PDB" /Gd /TP /analyze- F:\FANSHAWE\NETWORK-PROGRAMMING\NETWORKPROJECT3\AUTHSERVER\AUTHMAIN.CPP
^F:\FANSHAWE\NETWORK-PROGRAMMING\NETWORKPROJECT3\AUTHSERVER\BUFFER.CPP
/c /ZI /nologo /W3 /WX- /diagnostics:classic /sdl /Od /Oy- /D _MBCS /Gm /EHsc /RTC1 /MTd /GS /fp:precise /Zc:wchar_t /Zc:forScope /Zc:inline /Fo"DEBUG\\" /Fd"DEBUG\VC141.PDB" /Gd /TP /analyze- F:\FANSHAWE\NETWORK-PROGRAMMING\NETWORKPROJECT3\AUTHSERVER\BUFFER.CPP
^F:\FANSHAWE\NETWORK-PROGRAMMING\NETWORKPROJECT3\AUTHSERVER\DATABASEHELPER.CPP
/c /ZI /nologo /W3 /WX- /diagnostics:classic /sdl /Od /Oy- /D _MBCS /Gm /EHsc /RTC1 /MTd /GS /fp:precise /Zc:wchar_t /Zc:forScope /Zc:inline /Fo"DEBUG\\" /Fd"DEBUG\VC141.PDB" /Gd /TP /analyze- F:\FANSHAWE\NETWORK-PROGRAMMING\NETWORKPROJECT3\AUTHSERVER\DATABASEHELPER.CPP
^F:\FANSHAWE\NETWORK-PROGRAMMING\NETWORKPROJECT3\AUTHSERVER\SHA256.CPP
/c /ZI /nologo /W3 /WX- /diagnostics:classic /sdl /Od /Oy- /D _MBCS /Gm /EHsc /RTC1 /MTd /GS /fp:precise /Zc:wchar_t /Zc:forScope /Zc:inline /Fo"DEBUG\\" /Fd"DEBUG\VC141.PDB" /Gd /TP /analyze- F:\FANSHAWE\NETWORK-PROGRAMMING\NETWORKPROJECT3\AUTHSERVER\SHA256.CPP
