^F:\FANSHAWE\TERM 1\MEDIA FUNDAMENTALS\MEDIAPROJECT\FINALMEDIAPROJECT\COMMON\SRC\UTILS\UTILS.CPP
/c /I"F:\FANSHAWE\TERM 1\MEDIA FUNDAMENTALS\MEDIAPROJECT\FINALMEDIAPROJECT\COMMON\INCLUDES" /Zi /nologo /W3 /WX- /diagnostics:classic /Od /Ob0 /Oy- /D WIN32 /D _WINDOWS /D "CMAKE_INTDIR=\"Debug\"" /D _MBCS /Gm- /EHsc /RTC1 /MDd /GS /fp:precise /Zc:wchar_t /Zc:forScope /Zc:inline /GR /Fo"MEDIA_FUNDAMENTALS.DIR\DEBUG\\" /Fd"MEDIA_FUNDAMENTALS.DIR\DEBUG\VC141.PDB" /Gd /TP /analyze- F:\FANSHAWE\TERM 1\MEDIA FUNDAMENTALS\MEDIAPROJECT\FINALMEDIAPROJECT\COMMON\SRC\UTILS\UTILS.CPP
^F:\FANSHAWE\TERM 1\MEDIA FUNDAMENTALS\MEDIAPROJECT\FINALMEDIAPROJECT\WEEK_06.CPP
/c /I"F:\FANSHAWE\TERM 1\MEDIA FUNDAMENTALS\MEDIAPROJECT\FINALMEDIAPROJECT\COMMON\INCLUDES" /Zi /nologo /W3 /WX- /diagnostics:classic /Od /Ob0 /Oy- /D WIN32 /D _WINDOWS /D "CMAKE_INTDIR=\"Debug\"" /D _MBCS /Gm- /EHsc /RTC1 /MDd /GS /fp:precise /Zc:wchar_t /Zc:forScope /Zc:inline /GR /Fo"MEDIA_FUNDAMENTALS.DIR\DEBUG\\" /Fd"MEDIA_FUNDAMENTALS.DIR\DEBUG\VC141.PDB" /Gd /TP /analyze- F:\FANSHAWE\TERM 1\MEDIA FUNDAMENTALS\MEDIAPROJECT\FINALMEDIAPROJECT\WEEK_06.CPP
