^F:\FANSHAWE\PORTFOLIO\ANIMPROJECT1\PERSIST_SQLITEGDPINTERFACE\X64\DEBUG\CPERSISTSQLITE.OBJ|F:\FANSHAWE\PORTFOLIO\ANIMPROJECT1\PERSIST_SQLITEGDPINTERFACE\X64\DEBUG\SQLITE3.OBJ
C:\WINDOWS\GLOBALIZATION\SORTING\SORTDEFAULT.NLS
F:\FANSHAWE\PORTFOLIO\ANIMPROJECT1\PERSIST_SQLITEGDPINTERFACE\X64\DEBUG\CPERSISTSQLITE.OBJ
C:\WINDOWS\SYSTEM32\TZRES.DLL
F:\FANSHAWE\PORTFOLIO\ANIMPROJECT1\PERSIST_SQLITEGDPINTERFACE\X64\DEBUG\SQLITE3.OBJ
