^F:\FANSHAWE\TERM 1\GRAPHICS\GRAPHICSPROJECTS\PROJECT 1\FIRSTOPENGL\CGAMEOBJECT.CPP|F:\FANSHAWE\TERM 1\GRAPHICS\GRAPHICSPROJECTS\PROJECT 1\FIRSTOPENGL\CMESH.CPP|F:\FANSHAWE\TERM 1\GRAPHICS\GRAPHICSPROJECTS\PROJECT 1\FIRSTOPENGL\CSHADER.CPP|F:\FANSHAWE\TERM 1\GRAPHICS\GRAPHICSPROJECTS\PROJECT 1\FIRSTOPENGL\CSHADERMANAGER.CPP|F:\FANSHAWE\TERM 1\GRAPHICS\GRAPHICSPROJECTS\PROJECT 1\FIRSTOPENGL\CTRIANGLE.CPP|F:\FANSHAWE\TERM 1\GRAPHICS\GRAPHICSPROJECTS\PROJECT 1\FIRSTOPENGL\CVAOMESHMANAGER.CPP|F:\FANSHAWE\TERM 1\GRAPHICS\GRAPHICSPROJECTS\PROJECT 1\FIRSTOPENGL\CVERTEX_XYZ_RGB.CPP|F:\FANSHAWE\TERM 1\GRAPHICS\GRAPHICSPROJECTS\PROJECT 1\FIRSTOPENGL\MODELUTILITIES.CPP|F:\FANSHAWE\TERM 1\GRAPHICS\GRAPHICSPROJECTS\PROJECT 1\FIRSTOPENGL\THEMAIN.CPP|F:\FANSHAWE\TERM 1\GRAPHICS\GRAPHICSPROJECTS\PROJECT 1\FIRSTOPENGL\UTILITIES.CPP
F:\FANSHAWE\TERM 1\GRAPHICS\GRAPHICSPROJECTS\PROJECT 1\FIRSTOPENGL\X64\DEBUG\VC141.PDB
F:\FANSHAWE\TERM 1\GRAPHICS\GRAPHICSPROJECTS\PROJECT 1\FIRSTOPENGL\X64\DEBUG\VC141.IDB
F:\FANSHAWE\TERM 1\GRAPHICS\GRAPHICSPROJECTS\PROJECT 1\FIRSTOPENGL\X64\DEBUG\CGAMEOBJECT.OBJ
F:\FANSHAWE\TERM 1\GRAPHICS\GRAPHICSPROJECTS\PROJECT 1\FIRSTOPENGL\X64\DEBUG\CMESH.OBJ
F:\FANSHAWE\TERM 1\GRAPHICS\GRAPHICSPROJECTS\PROJECT 1\FIRSTOPENGL\X64\DEBUG\CSHADER.OBJ
F:\FANSHAWE\TERM 1\GRAPHICS\GRAPHICSPROJECTS\PROJECT 1\FIRSTOPENGL\X64\DEBUG\CSHADERMANAGER.OBJ
F:\FANSHAWE\TERM 1\GRAPHICS\GRAPHICSPROJECTS\PROJECT 1\FIRSTOPENGL\X64\DEBUG\CTRIANGLE.OBJ
F:\FANSHAWE\TERM 1\GRAPHICS\GRAPHICSPROJECTS\PROJECT 1\FIRSTOPENGL\X64\DEBUG\CVAOMESHMANAGER.OBJ
F:\FANSHAWE\TERM 1\GRAPHICS\GRAPHICSPROJECTS\PROJECT 1\FIRSTOPENGL\X64\DEBUG\CVERTEX_XYZ_RGB.OBJ
F:\FANSHAWE\TERM 1\GRAPHICS\GRAPHICSPROJECTS\PROJECT 1\FIRSTOPENGL\X64\DEBUG\MODELUTILITIES.OBJ
F:\FANSHAWE\TERM 1\GRAPHICS\GRAPHICSPROJECTS\PROJECT 1\FIRSTOPENGL\X64\DEBUG\THEMAIN.OBJ
F:\FANSHAWE\TERM 1\GRAPHICS\GRAPHICSPROJECTS\PROJECT 1\FIRSTOPENGL\X64\DEBUG\UTILITIES.OBJ
^F:\FANSHAWE\TERM 1\GRAPHICS\GRAPHICSPROJECTS\PROJECT 1\FIRSTOPENGL\CGAMEOBJECT.CPP
F:\FANSHAWE\TERM 1\GRAPHICS\GRAPHICSPROJECTS\PROJECT 1\FIRSTOPENGL\X64\DEBUG\VC141.PDB
^F:\FANSHAWE\TERM 1\GRAPHICS\GRAPHICSPROJECTS\PROJECT 1\FIRSTOPENGL\CMESH.CPP
F:\FANSHAWE\TERM 1\GRAPHICS\GRAPHICSPROJECTS\PROJECT 1\FIRSTOPENGL\X64\DEBUG\VC141.PDB
^F:\FANSHAWE\TERM 1\GRAPHICS\GRAPHICSPROJECTS\PROJECT 1\FIRSTOPENGL\CSHADER.CPP
F:\FANSHAWE\TERM 1\GRAPHICS\GRAPHICSPROJECTS\PROJECT 1\FIRSTOPENGL\X64\DEBUG\VC141.PDB
^F:\FANSHAWE\TERM 1\GRAPHICS\GRAPHICSPROJECTS\PROJECT 1\FIRSTOPENGL\CSHADERMANAGER.CPP
F:\FANSHAWE\TERM 1\GRAPHICS\GRAPHICSPROJECTS\PROJECT 1\FIRSTOPENGL\X64\DEBUG\VC141.PDB
^F:\FANSHAWE\TERM 1\GRAPHICS\GRAPHICSPROJECTS\PROJECT 1\FIRSTOPENGL\CTRIANGLE.CPP
F:\FANSHAWE\TERM 1\GRAPHICS\GRAPHICSPROJECTS\PROJECT 1\FIRSTOPENGL\X64\DEBUG\VC141.PDB
^F:\FANSHAWE\TERM 1\GRAPHICS\GRAPHICSPROJECTS\PROJECT 1\FIRSTOPENGL\CVAOMESHMANAGER.CPP
F:\FANSHAWE\TERM 1\GRAPHICS\GRAPHICSPROJECTS\PROJECT 1\FIRSTOPENGL\X64\DEBUG\VC141.PDB
^F:\FANSHAWE\TERM 1\GRAPHICS\GRAPHICSPROJECTS\PROJECT 1\FIRSTOPENGL\CVERTEX_XYZ_RGB.CPP
F:\FANSHAWE\TERM 1\GRAPHICS\GRAPHICSPROJECTS\PROJECT 1\FIRSTOPENGL\X64\DEBUG\VC141.PDB
^F:\FANSHAWE\TERM 1\GRAPHICS\GRAPHICSPROJECTS\PROJECT 1\FIRSTOPENGL\MODELUTILITIES.CPP
F:\FANSHAWE\TERM 1\GRAPHICS\GRAPHICSPROJECTS\PROJECT 1\FIRSTOPENGL\X64\DEBUG\VC141.PDB
^F:\FANSHAWE\TERM 1\GRAPHICS\GRAPHICSPROJECTS\PROJECT 1\FIRSTOPENGL\THEMAIN.CPP
F:\FANSHAWE\TERM 1\GRAPHICS\GRAPHICSPROJECTS\PROJECT 1\FIRSTOPENGL\X64\DEBUG\VC141.PDB
^F:\FANSHAWE\TERM 1\GRAPHICS\GRAPHICSPROJECTS\PROJECT 1\FIRSTOPENGL\UTILITIES.CPP
F:\FANSHAWE\TERM 1\GRAPHICS\GRAPHICSPROJECTS\PROJECT 1\FIRSTOPENGL\X64\DEBUG\VC141.PDB
^F:\FANSHAWE\TERM 1\GRAPHICS\GRAPHICSPROJECTS\PROJECT 1\FIRSTOPENGL\SRC\GLAD.C
F:\FANSHAWE\TERM 1\GRAPHICS\GRAPHICSPROJECTS\PROJECT 1\FIRSTOPENGL\X64\DEBUG\VC141.PDB
F:\FANSHAWE\TERM 1\GRAPHICS\GRAPHICSPROJECTS\PROJECT 1\FIRSTOPENGL\X64\DEBUG\VC141.IDB
F:\FANSHAWE\TERM 1\GRAPHICS\GRAPHICSPROJECTS\PROJECT 1\FIRSTOPENGL\X64\DEBUG\GLAD.OBJ
