^F:\FANSHAWE\TERM 2\ARTIFICIAL INTELLIGENCE\2018-01-26\APPLICATION1\X64\DEBUG\APPLICATION1.OBJ|F:\FANSHAWE\TERM 2\ARTIFICIAL INTELLIGENCE\2018-01-26\APPLICATION1\X64\DEBUG\CGRAPH.OBJ|F:\FANSHAWE\TERM 2\ARTIFICIAL INTELLIGENCE\2018-01-26\APPLICATION1\X64\DEBUG\CNODE.OBJ|F:\FANSHAWE\TERM 2\ARTIFICIAL INTELLIGENCE\2018-01-26\APPLICATION1\X64\DEBUG\CPATH.OBJ
F:\FANSHAWE\TERM 2\ARTIFICIAL INTELLIGENCE\2018-01-26\APPLICATION1\X64\DEBUG\APPLICATION1.EXE
F:\FANSHAWE\TERM 2\ARTIFICIAL INTELLIGENCE\2018-01-26\APPLICATION1\X64\DEBUG\APPLICATION1.ILK
F:\FANSHAWE\TERM 2\ARTIFICIAL INTELLIGENCE\2018-01-26\APPLICATION1\X64\DEBUG\APPLICATION1.PDB
^F:\FANSHAWE\PORTFOLIO\DJIKSTRA\X64\DEBUG\APPLICATION1.OBJ|F:\FANSHAWE\PORTFOLIO\DJIKSTRA\X64\DEBUG\CGRAPH.OBJ|F:\FANSHAWE\PORTFOLIO\DJIKSTRA\X64\DEBUG\CNODE.OBJ|F:\FANSHAWE\PORTFOLIO\DJIKSTRA\X64\DEBUG\CPATH.OBJ
F:\FANSHAWE\PORTFOLIO\DJIKSTRA\X64\DEBUG\APPLICATION1.EXE
F:\FANSHAWE\PORTFOLIO\DJIKSTRA\X64\DEBUG\APPLICATION1.ILK
F:\FANSHAWE\PORTFOLIO\DJIKSTRA\X64\DEBUG\APPLICATION1.PDB
