^F:\FANSHAWE\PORTFOLIO\ANIMPROJECT1\GDP_FEENEY_201718\X64\DEBUG\AABB_TRIANGLES.OBJ|F:\FANSHAWE\PORTFOLIO\ANIMPROJECT1\GDP_FEENEY_201718\X64\DEBUG\C24BITBMPPIXEL.OBJ|F:\FANSHAWE\PORTFOLIO\ANIMPROJECT1\GDP_FEENEY_201718\X64\DEBUG\CAABBBROADPHASE.OBJ|F:\FANSHAWE\PORTFOLIO\ANIMPROJECT1\GDP_FEENEY_201718\X64\DEBUG\CAABBV2.OBJ|F:\FANSHAWE\PORTFOLIO\ANIMPROJECT1\GDP_FEENEY_201718\X64\DEBUG\CANIMATIONSTATE.OBJ|F:\FANSHAWE\PORTFOLIO\ANIMPROJECT1\GDP_FEENEY_201718\X64\DEBUG\CASSIMPBASIC.OBJ|F:\FANSHAWE\PORTFOLIO\ANIMPROJECT1\GDP_FEENEY_201718\X64\DEBUG\CASSIMPBASIC_IMP.OBJ|F:\FANSHAWE\PORTFOLIO\ANIMPROJECT1\GDP_FEENEY_201718\X64\DEBUG\CCAMERA.OBJ|F:\FANSHAWE\PORTFOLIO\ANIMPROJECT1\GDP_FEENEY_201718\X64\DEBUG\CCAMERA_FLYLOOKAT.OBJ|F:\FANSHAWE\PORTFOLIO\ANIMPROJECT1\GDP_FEENEY_201718\X64\DEBUG\CCAMERA_FOLLOW.OBJ|F:\FANSHAWE\PORTFOLIO\ANIMPROJECT1\GDP_FEENEY_201718\X64\DEBUG\CCAMERA_MANUAL.OBJ|F:\FANSHAWE\PORTFOLIO\ANIMPROJECT1\GDP_FEENEY_201718\X64\DEBUG\CDEBUGRENDERER.OBJ|F:\FANSHAWE\PORTFOLIO\ANIMPROJECT1\GDP_FEENEY_201718\X64\DEBUG\CDEBUGRENDERER_BUILTINSHAPES.OBJ|F:\FANSHAWE\PORTFOLIO\ANIMPROJECT1\GDP_FEENEY_201718\X64\DEBUG\CERRORLOG.OBJ|F:\FANSHAWE\PORTFOLIO\ANIMPROJECT1\GDP_FEENEY_201718\X64\DEBUG\CFBO.OBJ|F:\FANSHAWE\PORTFOLIO\ANIMPROJECT1\GDP_FEENEY_201718\X64\DEBUG\CGAMEOBJECT.OBJ|F:\FANSHAWE\PORTFOLIO\ANIMPROJECT1\GDP_FEENEY_201718\X64\DEBUG\CHRTIMER.OBJ|F:\FANSHAWE\PORTFOLIO\ANIMPROJECT1\GDP_FEENEY_201718\X64\DEBUG\CLIGHTMANAGER.OBJ|F:\FANSHAWE\PORTFOLIO\ANIMPROJECT1\GDP_FEENEY_201718\X64\DEBUG\CLUABRAIN.OBJ|F:\FANSHAWE\PORTFOLIO\ANIMPROJECT1\GDP_FEENEY_201718\X64\DEBUG\CMATHHELPER.OBJ|F:\FANSHAWE\PORTFOLIO\ANIMPROJECT1\GDP_FEENEY_201718\X64\DEBUG\CMESH.OBJ|F:\FANSHAWE\PORTFOLIO\ANIMPROJECT1\GDP_FEENEY_201718\X64\DEBUG\CMODELASSETLOADER.OBJ|F:\FANSHAWE\PORTFOLIO\ANIMPROJECT1\GDP_FEENEY_201718\X64\DEBUG\CNVPAIR.OBJ|F:\FANSHAWE\PORTFOLIO\ANIMPROJECT1\GDP_FEENEY_201718\X64\DEBUG\COPENGLERROR.OBJ|F:\FANSHAWE\PORTFOLIO\ANIMPROJECT1\GDP_FEENEY_201718\X64\DEBUG\CPERSIST.OBJ|F:\FANSHAWE\PORTFOLIO\ANIMPROJECT1\GDP_FEENEY_201718\X64\DEBUG\CPERSISTIMPFACTORY.OBJ|F:\FANSHAWE\PORTFOLIO\ANIMPROJECT1\GDP_FEENEY_201718\X64\DEBUG\CPERSISTIMPRNRJSON.OBJ|F:\FANSHAWE\PORTFOLIO\ANIMPROJECT1\GDP_FEENEY_201718\X64\DEBUG\CPERSISTIMPSQLITEGDPADAPTER.OBJ|F:\FANSHAWE\PORTFOLIO\ANIMPROJECT1\GDP_FEENEY_201718\X64\DEBUG\CPHYSICALPROPERTIES.OBJ|F:\FANSHAWE\PORTFOLIO\ANIMPROJECT1\GDP_FEENEY_201718\X64\DEBUG\CPHYSICSWORLD.OBJ|F:\FANSHAWE\PORTFOLIO\ANIMPROJECT1\GDP_FEENEY_201718\X64\DEBUG\CPLYFILE5NT.OBJ|F:\FANSHAWE\PORTFOLIO\ANIMPROJECT1\GDP_FEENEY_201718\X64\DEBUG\CPLYFILE5NT_EXPERIMENTAL.OBJ|F:\FANSHAWE\PORTFOLIO\ANIMPROJECT1\GDP_FEENEY_201718\X64\DEBUG\CSHADER.OBJ|F:\FANSHAWE\PORTFOLIO\ANIMPROJECT1\GDP_FEENEY_201718\X64\DEBUG\CSHADERMANAGER.OBJ|F:\FANSHAWE\PORTFOLIO\ANIMPROJECT1\GDP_FEENEY_201718\X64\DEBUG\CSIMPLEASSIMPSKINNEDMESHLOADER_ONEMESH.OBJ|F:\FANSHAWE\PORTFOLIO\ANIMPROJECT1\GDP_FEENEY_201718\X64\DEBUG\CSTRINGHELPER.OBJ|F:\FANSHAWE\PORTFOLIO\ANIMPROJECT1\GDP_FEENEY_201718\X64\DEBUG\CSTRINGUTILS.OBJ|F:\FANSHAWE\PORTFOLIO\ANIMPROJECT1\GDP_FEENEY_201718\X64\DEBUG\CTEXTUREFROMBMP.OBJ|F:\FANSHAWE\PORTFOLIO\ANIMPROJECT1\GDP_FEENEY_201718\X64\DEBUG\CTEXTUREMANAGER.OBJ|F:\FANSHAWE\PORTFOLIO\ANIMPROJECT1\GDP_FEENEY_201718\X64\DEBUG\CTRIANGLE.OBJ|F:\FANSHAWE\PORTFOLIO\ANIMPROJECT1\GDP_FEENEY_201718\X64\DEBUG\CVAOMESHMANAGER.OBJ|F:\FANSHAWE\PORTFOLIO\ANIMPROJECT1\GDP_FEENEY_201718\X64\DEBUG\CVECTOR3F.OBJ|F:\FANSHAWE\PORTFOLIO\ANIMPROJECT1\GDP_FEENEY_201718\X64\DEBUG\GLAD.OBJ|F:\FANSHAWE\PORTFOLIO\ANIMPROJECT1\GDP_FEENEY_201718\X64\DEBUG\GLFW_KEYBOARDCALLBACK.OBJ|F:\FANSHAWE\PORTFOLIO\ANIMPROJECT1\GDP_FEENEY_201718\X64\DEBUG\MODELUTILITIES.OBJ|F:\FANSHAWE\PORTFOLIO\ANIMPROJECT1\GDP_FEENEY_201718\X64\DEBUG\RENDER_CALLS.OBJ|F:\FANSHAWE\PORTFOLIO\ANIMPROJECT1\GDP_FEENEY_201718\X64\DEBUG\RNRXML.OBJ|F:\FANSHAWE\PORTFOLIO\ANIMPROJECT1\GDP_FEENEY_201718\X64\DEBUG\SCENELOADER.OBJ|F:\FANSHAWE\PORTFOLIO\ANIMPROJECT1\GDP_FEENEY_201718\X64\DEBUG\SMESHDRAWINFO.OBJ|F:\FANSHAWE\PORTFOLIO\ANIMPROJECT1\GDP_FEENEY_201718\X64\DEBUG\THEMAIN.OBJ|F:\FANSHAWE\PORTFOLIO\ANIMPROJECT1\GDP_FEENEY_201718\X64\DEBUG\UTILITIES.OBJ|F:\FANSHAWE\PORTFOLIO\ANIMPROJECT1\GDP_FEENEY_201718\X64\DEBUG\WRNRXML.OBJ
C:\WINDOWS\GLOBALIZATION\SORTING\SORTDEFAULT.NLS
F:\FANSHAWE\PORTFOLIO\ANIMPROJECT1\GDP_FEENEY_201718\LIB\DEBUG64\GLFW3_64.LIB
F:\FANSHAWE\PORTFOLIO\ANIMPROJECT1\GDP_FEENEY_201718\LIB\DEBUG64\LUA5.3.3-STATIC_64.LIB
F:\FANSHAWE\PORTFOLIO\ANIMPROJECT1\X64\DEBUG\PERSIST_SQLITEGDPINTERFACE.LIB
F:\FANSHAWE\PORTFOLIO\ANIMPROJECT1\GDP_FEENEY_201718\LIB\DEBUG64\ASSIMP-VC140-MT.LIB
C:\PROGRAM FILES (X86)\WINDOWS KITS\10\LIB\10.0.15063.0\UM\X64\KERNEL32.LIB
C:\PROGRAM FILES (X86)\WINDOWS KITS\10\LIB\10.0.15063.0\UM\X64\USER32.LIB
C:\PROGRAM FILES (X86)\WINDOWS KITS\10\LIB\10.0.15063.0\UM\X64\GDI32.LIB
C:\PROGRAM FILES (X86)\WINDOWS KITS\10\LIB\10.0.15063.0\UM\X64\WINSPOOL.LIB
C:\PROGRAM FILES (X86)\WINDOWS KITS\10\LIB\10.0.15063.0\UM\X64\COMDLG32.LIB
C:\PROGRAM FILES (X86)\WINDOWS KITS\10\LIB\10.0.15063.0\UM\X64\ADVAPI32.LIB
C:\PROGRAM FILES (X86)\WINDOWS KITS\10\LIB\10.0.15063.0\UM\X64\SHELL32.LIB
C:\PROGRAM FILES (X86)\WINDOWS KITS\10\LIB\10.0.15063.0\UM\X64\OLE32.LIB
C:\PROGRAM FILES (X86)\WINDOWS KITS\10\LIB\10.0.15063.0\UM\X64\OLEAUT32.LIB
C:\PROGRAM FILES (X86)\WINDOWS KITS\10\LIB\10.0.15063.0\UM\X64\UUID.LIB
C:\PROGRAM FILES (X86)\WINDOWS KITS\10\LIB\10.0.15063.0\UM\X64\ODBC32.LIB
C:\PROGRAM FILES (X86)\WINDOWS KITS\10\LIB\10.0.15063.0\UM\X64\ODBCCP32.LIB
F:\FANSHAWE\PORTFOLIO\ANIMPROJECT1\GDP_FEENEY_201718\X64\DEBUG\CASSIMPBASIC.OBJ
F:\FANSHAWE\PORTFOLIO\ANIMPROJECT1\GDP_FEENEY_201718\X64\DEBUG\CASSIMPBASIC_IMP.OBJ
F:\FANSHAWE\PORTFOLIO\ANIMPROJECT1\GDP_FEENEY_201718\X64\DEBUG\CSIMPLEASSIMPSKINNEDMESHLOADER_ONEMESH.OBJ
F:\FANSHAWE\PORTFOLIO\ANIMPROJECT1\GDP_FEENEY_201718\X64\DEBUG\CANIMATIONSTATE.OBJ
F:\FANSHAWE\PORTFOLIO\ANIMPROJECT1\GDP_FEENEY_201718\X64\DEBUG\CCAMERA.OBJ
F:\FANSHAWE\PORTFOLIO\ANIMPROJECT1\GDP_FEENEY_201718\X64\DEBUG\CCAMERA_FLYLOOKAT.OBJ
F:\FANSHAWE\PORTFOLIO\ANIMPROJECT1\GDP_FEENEY_201718\X64\DEBUG\CCAMERA_FOLLOW.OBJ
F:\FANSHAWE\PORTFOLIO\ANIMPROJECT1\GDP_FEENEY_201718\X64\DEBUG\CCAMERA_MANUAL.OBJ
F:\FANSHAWE\PORTFOLIO\ANIMPROJECT1\GDP_FEENEY_201718\X64\DEBUG\CDEBUGRENDERER.OBJ
F:\FANSHAWE\PORTFOLIO\ANIMPROJECT1\GDP_FEENEY_201718\X64\DEBUG\CDEBUGRENDERER_BUILTINSHAPES.OBJ
F:\FANSHAWE\PORTFOLIO\ANIMPROJECT1\GDP_FEENEY_201718\X64\DEBUG\CFBO.OBJ
F:\FANSHAWE\PORTFOLIO\ANIMPROJECT1\GDP_FEENEY_201718\X64\DEBUG\CGAMEOBJECT.OBJ
F:\FANSHAWE\PORTFOLIO\ANIMPROJECT1\GDP_FEENEY_201718\X64\DEBUG\CHRTIMER.OBJ
F:\FANSHAWE\PORTFOLIO\ANIMPROJECT1\GDP_FEENEY_201718\X64\DEBUG\CLIGHTMANAGER.OBJ
F:\FANSHAWE\PORTFOLIO\ANIMPROJECT1\GDP_FEENEY_201718\X64\DEBUG\CMESH.OBJ
F:\FANSHAWE\PORTFOLIO\ANIMPROJECT1\GDP_FEENEY_201718\X64\DEBUG\CMODELASSETLOADER.OBJ
F:\FANSHAWE\PORTFOLIO\ANIMPROJECT1\GDP_FEENEY_201718\X64\DEBUG\CSHADER.OBJ
F:\FANSHAWE\PORTFOLIO\ANIMPROJECT1\GDP_FEENEY_201718\X64\DEBUG\CSHADERMANAGER.OBJ
F:\FANSHAWE\PORTFOLIO\ANIMPROJECT1\GDP_FEENEY_201718\X64\DEBUG\CTRIANGLE.OBJ
F:\FANSHAWE\PORTFOLIO\ANIMPROJECT1\GDP_FEENEY_201718\X64\DEBUG\CVAOMESHMANAGER.OBJ
F:\FANSHAWE\PORTFOLIO\ANIMPROJECT1\GDP_FEENEY_201718\X64\DEBUG\CERRORLOG.OBJ
F:\FANSHAWE\PORTFOLIO\ANIMPROJECT1\GDP_FEENEY_201718\X64\DEBUG\COPENGLERROR.OBJ
F:\FANSHAWE\PORTFOLIO\ANIMPROJECT1\GDP_FEENEY_201718\X64\DEBUG\GLFW_KEYBOARDCALLBACK.OBJ
F:\FANSHAWE\PORTFOLIO\ANIMPROJECT1\GDP_FEENEY_201718\X64\DEBUG\CLUABRAIN.OBJ
F:\FANSHAWE\PORTFOLIO\ANIMPROJECT1\GDP_FEENEY_201718\X64\DEBUG\MODELUTILITIES.OBJ
F:\FANSHAWE\PORTFOLIO\ANIMPROJECT1\GDP_FEENEY_201718\X64\DEBUG\CNVPAIR.OBJ
F:\FANSHAWE\PORTFOLIO\ANIMPROJECT1\GDP_FEENEY_201718\X64\DEBUG\CPERSIST.OBJ
F:\FANSHAWE\PORTFOLIO\ANIMPROJECT1\GDP_FEENEY_201718\X64\DEBUG\CPERSISTIMPFACTORY.OBJ
F:\FANSHAWE\PORTFOLIO\ANIMPROJECT1\GDP_FEENEY_201718\X64\DEBUG\CPERSISTIMPRNRJSON.OBJ
F:\FANSHAWE\PORTFOLIO\ANIMPROJECT1\GDP_FEENEY_201718\X64\DEBUG\RNRXML.OBJ
F:\FANSHAWE\PORTFOLIO\ANIMPROJECT1\GDP_FEENEY_201718\X64\DEBUG\WRNRXML.OBJ
F:\FANSHAWE\PORTFOLIO\ANIMPROJECT1\GDP_FEENEY_201718\X64\DEBUG\CPERSISTIMPSQLITEGDPADAPTER.OBJ
F:\FANSHAWE\PORTFOLIO\ANIMPROJECT1\GDP_FEENEY_201718\X64\DEBUG\AABB_TRIANGLES.OBJ
F:\FANSHAWE\PORTFOLIO\ANIMPROJECT1\GDP_FEENEY_201718\X64\DEBUG\CAABBBROADPHASE.OBJ
F:\FANSHAWE\PORTFOLIO\ANIMPROJECT1\GDP_FEENEY_201718\X64\DEBUG\CAABBV2.OBJ
F:\FANSHAWE\PORTFOLIO\ANIMPROJECT1\GDP_FEENEY_201718\X64\DEBUG\CPHYSICALPROPERTIES.OBJ
F:\FANSHAWE\PORTFOLIO\ANIMPROJECT1\GDP_FEENEY_201718\X64\DEBUG\CPHYSICSWORLD.OBJ
F:\FANSHAWE\PORTFOLIO\ANIMPROJECT1\GDP_FEENEY_201718\X64\DEBUG\CPLYFILE5NT.OBJ
F:\FANSHAWE\PORTFOLIO\ANIMPROJECT1\GDP_FEENEY_201718\X64\DEBUG\CPLYFILE5NT_EXPERIMENTAL.OBJ
F:\FANSHAWE\PORTFOLIO\ANIMPROJECT1\GDP_FEENEY_201718\X64\DEBUG\CVECTOR3F.OBJ
F:\FANSHAWE\PORTFOLIO\ANIMPROJECT1\GDP_FEENEY_201718\X64\DEBUG\RENDER_CALLS.OBJ
F:\FANSHAWE\PORTFOLIO\ANIMPROJECT1\GDP_FEENEY_201718\X64\DEBUG\SCENELOADER.OBJ
F:\FANSHAWE\PORTFOLIO\ANIMPROJECT1\GDP_FEENEY_201718\X64\DEBUG\SMESHDRAWINFO.OBJ
F:\FANSHAWE\PORTFOLIO\ANIMPROJECT1\GDP_FEENEY_201718\X64\DEBUG\GLAD.OBJ
F:\FANSHAWE\PORTFOLIO\ANIMPROJECT1\GDP_FEENEY_201718\X64\DEBUG\C24BITBMPPIXEL.OBJ
F:\FANSHAWE\PORTFOLIO\ANIMPROJECT1\GDP_FEENEY_201718\X64\DEBUG\CTEXTUREFROMBMP.OBJ
F:\FANSHAWE\PORTFOLIO\ANIMPROJECT1\GDP_FEENEY_201718\X64\DEBUG\CTEXTUREMANAGER.OBJ
F:\FANSHAWE\PORTFOLIO\ANIMPROJECT1\GDP_FEENEY_201718\X64\DEBUG\THEMAIN.OBJ
F:\FANSHAWE\PORTFOLIO\ANIMPROJECT1\GDP_FEENEY_201718\X64\DEBUG\UTILITIES.OBJ
F:\FANSHAWE\PORTFOLIO\ANIMPROJECT1\GDP_FEENEY_201718\X64\DEBUG\CMATHHELPER.OBJ
F:\FANSHAWE\PORTFOLIO\ANIMPROJECT1\GDP_FEENEY_201718\X64\DEBUG\CSTRINGHELPER.OBJ
F:\FANSHAWE\PORTFOLIO\ANIMPROJECT1\GDP_FEENEY_201718\X64\DEBUG\CSTRINGUTILS.OBJ
C:\WINDOWS\SYSTEM32\TZRES.DLL
C:\PROGRAM FILES (X86)\MICROSOFT VISUAL STUDIO\2017\ENTERPRISE\VC\TOOLS\MSVC\14.11.25503\LIB\X64\MSVCPRTD.LIB
C:\PROGRAM FILES (X86)\MICROSOFT VISUAL STUDIO\2017\ENTERPRISE\VC\TOOLS\MSVC\14.11.25503\LIB\X64\MSVCRTD.LIB
C:\PROGRAM FILES (X86)\MICROSOFT VISUAL STUDIO\2017\ENTERPRISE\VC\TOOLS\MSVC\14.11.25503\LIB\X64\OLDNAMES.LIB
C:\PROGRAM FILES (X86)\MICROSOFT VISUAL STUDIO\2017\ENTERPRISE\VC\TOOLS\MSVC\14.11.25503\LIB\X64\LIBCMTD.LIB
C:\PROGRAM FILES (X86)\MICROSOFT VISUAL STUDIO\2017\ENTERPRISE\VC\TOOLS\MSVC\14.11.25503\LIB\X64\MSVCRT.LIB
C:\PROGRAM FILES (X86)\MICROSOFT VISUAL STUDIO\2017\ENTERPRISE\VC\TOOLS\MSVC\14.11.25503\LIB\X64\VCRUNTIMED.LIB
C:\PROGRAM FILES (X86)\WINDOWS KITS\10\LIB\10.0.15063.0\UCRT\X64\UCRTD.LIB
