^F:\FANSHAWE\TERM 2\ARTIFICIAL INTELLIGENCE\PROJECT1\PROJECT1\X64\DEBUG\CCAMERA.OBJ|F:\FANSHAWE\TERM 2\ARTIFICIAL INTELLIGENCE\PROJECT1\PROJECT1\X64\DEBUG\CGAMEOBJECT.OBJ|F:\FANSHAWE\TERM 2\ARTIFICIAL INTELLIGENCE\PROJECT1\PROJECT1\X64\DEBUG\CMAP.OBJ|F:\FANSHAWE\TERM 2\ARTIFICIAL INTELLIGENCE\PROJECT1\PROJECT1\X64\DEBUG\CMAPCELL.OBJ|F:\FANSHAWE\TERM 2\ARTIFICIAL INTELLIGENCE\PROJECT1\PROJECT1\X64\DEBUG\CMAPLOADER.OBJ|F:\FANSHAWE\TERM 2\ARTIFICIAL INTELLIGENCE\PROJECT1\PROJECT1\X64\DEBUG\CMESH.OBJ|F:\FANSHAWE\TERM 2\ARTIFICIAL INTELLIGENCE\PROJECT1\PROJECT1\X64\DEBUG\CMODEL.OBJ|F:\FANSHAWE\TERM 2\ARTIFICIAL INTELLIGENCE\PROJECT1\PROJECT1\X64\DEBUG\CPATH.OBJ|F:\FANSHAWE\TERM 2\ARTIFICIAL INTELLIGENCE\PROJECT1\PROJECT1\X64\DEBUG\CSHADER.OBJ|F:\FANSHAWE\TERM 2\ARTIFICIAL INTELLIGENCE\PROJECT1\PROJECT1\X64\DEBUG\CSHADERMANAGER.OBJ|F:\FANSHAWE\TERM 2\ARTIFICIAL INTELLIGENCE\PROJECT1\PROJECT1\X64\DEBUG\GLAD.OBJ|F:\FANSHAWE\TERM 2\ARTIFICIAL INTELLIGENCE\PROJECT1\PROJECT1\X64\DEBUG\MAIN.OBJ|F:\FANSHAWE\TERM 2\ARTIFICIAL INTELLIGENCE\PROJECT1\PROJECT1\X64\DEBUG\STB_IMAGE.OBJ|F:\FANSHAWE\TERM 2\ARTIFICIAL INTELLIGENCE\PROJECT1\PROJECT1\X64\DEBUG\UTILITIES.OBJ
F:\FANSHAWE\TERM 2\ARTIFICIAL INTELLIGENCE\PROJECT1\PROJECT1\X64\DEBUG\PROJECT1.EXE
F:\FANSHAWE\TERM 2\ARTIFICIAL INTELLIGENCE\PROJECT1\PROJECT1\X64\DEBUG\PROJECT1.ILK
F:\FANSHAWE\TERM 2\ARTIFICIAL INTELLIGENCE\PROJECT1\PROJECT1\X64\DEBUG\PROJECT1.PDB
^F:\FANSHAWE\PORTFOLIO\ASTAR ALGO\X64\DEBUG\CCAMERA.OBJ|F:\FANSHAWE\PORTFOLIO\ASTAR ALGO\X64\DEBUG\CGAMEOBJECT.OBJ|F:\FANSHAWE\PORTFOLIO\ASTAR ALGO\X64\DEBUG\CMAP.OBJ|F:\FANSHAWE\PORTFOLIO\ASTAR ALGO\X64\DEBUG\CMAPCELL.OBJ|F:\FANSHAWE\PORTFOLIO\ASTAR ALGO\X64\DEBUG\CMAPLOADER.OBJ|F:\FANSHAWE\PORTFOLIO\ASTAR ALGO\X64\DEBUG\CMESH.OBJ|F:\FANSHAWE\PORTFOLIO\ASTAR ALGO\X64\DEBUG\CMODEL.OBJ|F:\FANSHAWE\PORTFOLIO\ASTAR ALGO\X64\DEBUG\CPATH.OBJ|F:\FANSHAWE\PORTFOLIO\ASTAR ALGO\X64\DEBUG\CSHADER.OBJ|F:\FANSHAWE\PORTFOLIO\ASTAR ALGO\X64\DEBUG\CSHADERMANAGER.OBJ|F:\FANSHAWE\PORTFOLIO\ASTAR ALGO\X64\DEBUG\GLAD.OBJ|F:\FANSHAWE\PORTFOLIO\ASTAR ALGO\X64\DEBUG\MAIN.OBJ|F:\FANSHAWE\PORTFOLIO\ASTAR ALGO\X64\DEBUG\STB_IMAGE.OBJ|F:\FANSHAWE\PORTFOLIO\ASTAR ALGO\X64\DEBUG\UTILITIES.OBJ
F:\FANSHAWE\PORTFOLIO\ASTAR ALGO\X64\DEBUG\PROJECT1.EXE
F:\FANSHAWE\PORTFOLIO\ASTAR ALGO\X64\DEBUG\PROJECT1.ILK
F:\FANSHAWE\PORTFOLIO\ASTAR ALGO\X64\DEBUG\PROJECT1.PDB
