^F:\FANSHAWE\TERM 2\ARTIFICIAL INTELLIGENCE\PROJECT1\PROJECT1\X64\DEBUG\CCAMERA.OBJ|F:\FANSHAWE\TERM 2\ARTIFICIAL INTELLIGENCE\PROJECT1\PROJECT1\X64\DEBUG\CGAMEOBJECT.OBJ|F:\FANSHAWE\TERM 2\ARTIFICIAL INTELLIGENCE\PROJECT1\PROJECT1\X64\DEBUG\CMAP.OBJ|F:\FANSHAWE\TERM 2\ARTIFICIAL INTELLIGENCE\PROJECT1\PROJECT1\X64\DEBUG\CMAPCELL.OBJ|F:\FANSHAWE\TERM 2\ARTIFICIAL INTELLIGENCE\PROJECT1\PROJECT1\X64\DEBUG\CMAPLOADER.OBJ|F:\FANSHAWE\TERM 2\ARTIFICIAL INTELLIGENCE\PROJECT1\PROJECT1\X64\DEBUG\CMESH.OBJ|F:\FANSHAWE\TERM 2\ARTIFICIAL INTELLIGENCE\PROJECT1\PROJECT1\X64\DEBUG\CMODEL.OBJ|F:\FANSHAWE\TERM 2\ARTIFICIAL INTELLIGENCE\PROJECT1\PROJECT1\X64\DEBUG\CPATH.OBJ|F:\FANSHAWE\TERM 2\ARTIFICIAL INTELLIGENCE\PROJECT1\PROJECT1\X64\DEBUG\CSHADER.OBJ|F:\FANSHAWE\TERM 2\ARTIFICIAL INTELLIGENCE\PROJECT1\PROJECT1\X64\DEBUG\CSHADERMANAGER.OBJ|F:\FANSHAWE\TERM 2\ARTIFICIAL INTELLIGENCE\PROJECT1\PROJECT1\X64\DEBUG\GLAD.OBJ|F:\FANSHAWE\TERM 2\ARTIFICIAL INTELLIGENCE\PROJECT1\PROJECT1\X64\DEBUG\MAIN.OBJ|F:\FANSHAWE\TERM 2\ARTIFICIAL INTELLIGENCE\PROJECT1\PROJECT1\X64\DEBUG\STB_IMAGE.OBJ|F:\FANSHAWE\TERM 2\ARTIFICIAL INTELLIGENCE\PROJECT1\PROJECT1\X64\DEBUG\UTILITIES.OBJ
/OUT:"F:\FANSHAWE\TERM 2\ARTIFICIAL INTELLIGENCE\PROJECT1\PROJECT1\X64\DEBUG\PROJECT1.EXE" /INCREMENTAL /NOLOGO KERNEL32.LIB USER32.LIB GDI32.LIB WINSPOOL.LIB COMDLG32.LIB ADVAPI32.LIB SHELL32.LIB OLE32.LIB OLEAUT32.LIB UUID.LIB ODBC32.LIB ODBCCP32.LIB "ASSIMP-VC140-MT.LIB" GLFW3_64.LIB KERNEL32.LIB USER32.LIB GDI32.LIB WINSPOOL.LIB COMDLG32.LIB ADVAPI32.LIB SHELL32.LIB OLE32.LIB OLEAUT32.LIB UUID.LIB ODBC32.LIB ODBCCP32.LIB /MANIFEST /MANIFESTUAC:"level='asInvoker' uiAccess='false'" /manifest:embed /DEBUG:FASTLINK /PDB:"F:\FANSHAWE\TERM 2\ARTIFICIAL INTELLIGENCE\PROJECT1\PROJECT1\X64\DEBUG\PROJECT1.PDB" /SUBSYSTEM:CONSOLE /TLBID:1 /DYNAMICBASE /NXCOMPAT /IMPLIB:"F:\FANSHAWE\TERM 2\ARTIFICIAL INTELLIGENCE\PROJECT1\PROJECT1\X64\DEBUG\PROJECT1.LIB" /MACHINE:X64 X64\DEBUG\CCAMERA.OBJX64\DEBUG\CGAMEOBJECT.OBJX64\DEBUG\CMAP.OBJX64\DEBUG\CMAPCELL.OBJX64\DEBUG\CMAPLOADER.OBJX64\DEBUG\CMESH.OBJX64\DEBUG\CMODEL.OBJX64\DEBUG\CPATH.OBJX64\DEBUG\CSHADER.OBJX64\DEBUG\CSHADERMANAGER.OBJX64\DEBUG\GLAD.OBJX64\DEBUG\STB_IMAGE.OBJX64\DEBUG\MAIN.OBJX64\DEBUG\UTILITIES.OBJ
^F:\FANSHAWE\PORTFOLIO\ASTAR ALGO\X64\DEBUG\CCAMERA.OBJ|F:\FANSHAWE\PORTFOLIO\ASTAR ALGO\X64\DEBUG\CGAMEOBJECT.OBJ|F:\FANSHAWE\PORTFOLIO\ASTAR ALGO\X64\DEBUG\CMAP.OBJ|F:\FANSHAWE\PORTFOLIO\ASTAR ALGO\X64\DEBUG\CMAPCELL.OBJ|F:\FANSHAWE\PORTFOLIO\ASTAR ALGO\X64\DEBUG\CMAPLOADER.OBJ|F:\FANSHAWE\PORTFOLIO\ASTAR ALGO\X64\DEBUG\CMESH.OBJ|F:\FANSHAWE\PORTFOLIO\ASTAR ALGO\X64\DEBUG\CMODEL.OBJ|F:\FANSHAWE\PORTFOLIO\ASTAR ALGO\X64\DEBUG\CPATH.OBJ|F:\FANSHAWE\PORTFOLIO\ASTAR ALGO\X64\DEBUG\CSHADER.OBJ|F:\FANSHAWE\PORTFOLIO\ASTAR ALGO\X64\DEBUG\CSHADERMANAGER.OBJ|F:\FANSHAWE\PORTFOLIO\ASTAR ALGO\X64\DEBUG\GLAD.OBJ|F:\FANSHAWE\PORTFOLIO\ASTAR ALGO\X64\DEBUG\MAIN.OBJ|F:\FANSHAWE\PORTFOLIO\ASTAR ALGO\X64\DEBUG\STB_IMAGE.OBJ|F:\FANSHAWE\PORTFOLIO\ASTAR ALGO\X64\DEBUG\UTILITIES.OBJ
/OUT:"F:\FANSHAWE\PORTFOLIO\ASTAR ALGO\X64\DEBUG\PROJECT1.EXE" /INCREMENTAL /NOLOGO KERNEL32.LIB USER32.LIB GDI32.LIB WINSPOOL.LIB COMDLG32.LIB ADVAPI32.LIB SHELL32.LIB OLE32.LIB OLEAUT32.LIB UUID.LIB ODBC32.LIB ODBCCP32.LIB "ASSIMP-VC140-MT.LIB" GLFW3_64.LIB KERNEL32.LIB USER32.LIB GDI32.LIB WINSPOOL.LIB COMDLG32.LIB ADVAPI32.LIB SHELL32.LIB OLE32.LIB OLEAUT32.LIB UUID.LIB ODBC32.LIB ODBCCP32.LIB /MANIFEST /MANIFESTUAC:"level='asInvoker' uiAccess='false'" /manifest:embed /DEBUG:FASTLINK /PDB:"F:\FANSHAWE\PORTFOLIO\ASTAR ALGO\X64\DEBUG\PROJECT1.PDB" /SUBSYSTEM:CONSOLE /TLBID:1 /DYNAMICBASE /NXCOMPAT /IMPLIB:"F:\FANSHAWE\PORTFOLIO\ASTAR ALGO\X64\DEBUG\PROJECT1.LIB" /MACHINE:X64 X64\DEBUG\CCAMERA.OBJX64\DEBUG\CGAMEOBJECT.OBJX64\DEBUG\CMAP.OBJX64\DEBUG\CMAPCELL.OBJX64\DEBUG\CMAPLOADER.OBJX64\DEBUG\CMESH.OBJX64\DEBUG\CMODEL.OBJX64\DEBUG\CPATH.OBJX64\DEBUG\CSHADER.OBJX64\DEBUG\CSHADERMANAGER.OBJX64\DEBUG\GLAD.OBJX64\DEBUG\STB_IMAGE.OBJX64\DEBUG\MAIN.OBJX64\DEBUG\UTILITIES.OBJ
